war = {
	name = "war_1560_battle_of_okehazama"
	start_date = 1560.5.12
	end_date = 1560.6.12
	targeted_titles={
		d_nmih_owari
	}
	casus_belli = sengoku_invasion_war
	attackers = { 10023010 } # Imagawa Yoshimoto
	defenders = { 10029120 } # Oda Nobunaga
}
