war = {
	name = "war_1582_march_against_akechi"
	start_date = 1582.6.21
	end_date = 1582.7.2
	casus_belli = tribal_subjugation_cb
	attackers = { 10029280 } # Shibata Katsuie
	defenders = { 10025632 } # Akechi Mitsuhide
}
