﻿10000400 = {
	name=dynasty_name_10000400
	culture = central_kinai
}
10000401 = {
	name=dynasty_name_10000401
	culture = central_kinai
}
10000402 = {
	name=dynasty_name_10000402
	culture = central_kinai
}
10000403 = {
	name=dynasty_name_10000403
	culture = central_kinai
}
10000407 = {
	name=dynasty_name_10000407
	culture = central_kinai
}
10000408 = {
	name=dynasty_name_10000408
	culture = central_kinai
}
10000420 = {
	name=dynasty_name_10000420
	culture = imperial_family
}
10000430 = {
	name=dynasty_name_10000430
	culture = kinai_buddhist
}
10000431 = {
	name=dynasty_name_10000431
	culture = central_kinai
}
10000432 = {
	name=dynasty_name_10000432
	culture = central_kinai
}
10000434 = {
	name=dynasty_name_10000434
	culture = central_kinai
}
10000433 = {
	name=dynasty_name_10000433
	culture = central_kinai
}
10000435 = {
	name=dynasty_name_10000435
	culture = central_kinai
}
10000436 = {
	name=dynasty_name_10000436
	culture = central_kinai
}
10000437 = {
	name=dynasty_name_10000437
	culture = central_kinai
}
10000438 = {
	name=dynasty_name_10000438
	culture = central_kinai
}
10000439 = {
	name=dynasty_name_10000439
	culture = central_kinai
}
10000440 = {
	name=dynasty_name_10000440
	culture = central_kinai
}
10000441 = {
	name=dynasty_name_10000441
	culture = central_kinai
}
10000442 = {
	name=dynasty_name_10000442
	culture = central_kinai
}
10000443 = {
	name=dynasty_name_10000443
	culture = central_kinai
}
10000444={
	name=dynasty_name_10000444
	culture = central_kinai
}
10000448 = {
	name=dynasty_name_10000448
	culture = central_kinai
}
10000449 = {
	name=dynasty_name_10000449
	culture = central_kinai
}
10000450 = {
	name=dynasty_name_10000450
	culture = central_kinai
}
10000451 = {
	name=dynasty_name_10000451
	culture = central_kinai
}
10000452 = {
	name=dynasty_name_10000452
	culture = central_kinai
}
10000453 = {
	name=dynasty_name_10000453
	culture = central_kinai
}
10000454 = {
	name=dynasty_name_10000454
	culture = central_kinai
}
10000455 = {
	name=dynasty_name_10000455
	culture = central_kinai
}
10000456 = {
	name=dynasty_name_10000456
	culture = central_kinai
}
10000457 = {
	name=dynasty_name_10000457
	culture = central_kinai
}
10000458 = {
	name=dynasty_name_10000458
	culture = central_kinai
}
10000459 = {
	name=dynasty_name_10000459
	culture = central_kinai
}
10000460 = {
	name=dynasty_name_10000460
	culture = central_kinai
}
10000461 = {
	name=dynasty_name_10000461
	culture = central_kinai
}
10000462 = {
	name=dynasty_name_10000462
	culture = central_kinai
}
10000463 = {
	name=dynasty_name_10000463
	culture = central_kinai
}
10000467 = {
	name=dynasty_name_10000467
	culture = central_kinai
}
10000468 = {
	name=dynasty_name_10000468
	culture = central_kinai
}
10000469 = {
	name=dynasty_name_10000469
	culture = central_kinai
}
10000470 = {
	name=dynasty_name_10000470
	culture = central_kinai
}
10000471 = {
	name=dynasty_name_10000471
	culture = central_kinai
}
10000472 = {
	name=dynasty_name_10000472
	culture = central_kinai
}
10000476={
	name=dynasty_name_10000476
	culture=central_kinai
}
10000477={
	name=dynasty_name_10000477
	culture=central_kinai
}
10000478={
	name=dynasty_name_10000478
	culture=central_kinai
}
10000479={
	name=dynasty_name_10000479
	culture=central_kinai
}
10000480={
	name=dynasty_name_10000480
	culture=central_kinai
}
10000481={
	name=dynasty_name_10000481
	culture=central_kinai
}
10000482={
	name=dynasty_name_10000482
	culture=central_kinai
}
10000483={
	name=dynasty_name_10000483
	culture=central_kinai
}
10000484={
	name=dynasty_name_10000484
	culture=central_kinai
}
10000485={
	name=dynasty_name_10000485
	culture=central_kinai
}
10000486={
	name=dynasty_name_10000486
	culture=central_kinai
}
10000487={
	name=dynasty_name_10000487
	culture=central_kinai
}
10000488={
	name=dynasty_name_10000488
	culture=central_kinai
}
10000489={
	name=dynasty_name_10000489
	culture=central_kinai
}
10000748={
	name=dynasty_name_10000748
	culture=central_kinai
}
10000749={
	name=dynasty_name_10000749
	culture=central_kinai
}
10000750={
	name=dynasty_name_10000750
	culture=central_kinai
}
10000751={
	name=dynasty_name_10000751
	culture=central_kinai
}
10000752={
	name=dynasty_name_10000752
	culture=central_kinai
}
10000753={
	name=dynasty_name_10000753
	culture=central_kinai
}
10000754={
	name=dynasty_name_10000754
	culture=central_kinai
}
10000755={
	name=dynasty_name_10000755
	culture=central_kinai
}
10000756={
	name=dynasty_name_10000756
	culture=central_kinai
}
10000767={
	name=dynasty_name_10000767
	culture=central_kinai
}
10000768={
	name=dynasty_name_10000768
	culture=central_kinai
}
10000769={
	name=dynasty_name_10000769
	culture=central_kinai
}
10000770={
	name=dynasty_name_10000770
	culture=central_kinai
}
10000771={
	name=dynasty_name_10000771
	culture=central_kinai
}
10000772={
	name=dynasty_name_10000772
	culture=central_kinai
}
10000773={
	name=dynasty_name_10000773
	culture=central_kinai
}
10000774={
	name=dynasty_name_10000774
	culture=central_kinai
}
10000775={
	name=dynasty_name_10000775
	culture=central_kinai
}
10000776={
	name=dynasty_name_10000776
	culture=central_kinai
}
10000777={
	name=dynasty_name_10000777
	culture=central_kinai
}
10000778={
	name=dynasty_name_10000778
	culture=central_kinai
}
10000779={
	name=dynasty_name_10000779
	culture=central_kinai
}
10000808={
	name=dynasty_name_10000808
	culture=central_kinai
}
10000809={
	name=dynasty_name_10000809
	culture=persian
}
10000810={
	name=dynasty_name_10000810
	culture=southern_kinai
}
10000811={
	name=dynasty_name_10000811
	culture=southern_kinai
}
10000812={
	name=dynasty_name_10000812
	culture=central_kinai
}
10000813={
	name=dynasty_name_10000813
	culture=central_kinai
}
10000814={
	name=dynasty_name_10000814
	culture=central_kinai
}
10000815={
	name=dynasty_name_10000815
	culture=central_kinai
}
10000816={
	name=dynasty_name_10000816
	culture=central_kinai
}
10000817={
	name=dynasty_name_10000817
	culture=central_kinai
}
10000818={
	name=dynasty_name_10000818
	culture=central_kinai
}
10000819={
	name=dynasty_name_10000819
	culture=central_kinai
}
10000820={
	name=dynasty_name_10000820
	culture=central_kinai
}
10000821={
	name=dynasty_name_10000821
	culture=central_kinai
}
10000822={
	name=dynasty_name_10000822
	culture=central_kinai
}
10000823={
	name=dynasty_name_10000823
	culture=central_kinai
}
10000824={
	name=dynasty_name_10000824
	culture=central_kinai
}
10000825={
	name=dynasty_name_10000825
	culture=central_kinai
}
10000826={
	name=dynasty_name_10000826
	culture=central_kinai
}
10000827={
	name=dynasty_name_10000827
	culture=southern_kinai
}
10000851={
	name=dynasty_name_10000851
	culture=central_kinai
}
10000852={
	name=dynasty_name_10000852
	culture=central_kinai
}
