﻿10000251 = {
	name=dynasty_name_10000251
	culture = koshin
}
10000252 = {
	name=dynasty_name_10000252
	culture = koshin
}
10000253 = {
	name=dynasty_name_10000253
	culture = western_chubu
}
10000254 = {
	name=dynasty_name_10000254
	culture = western_chubu
}
10000260 = {
	name=dynasty_name_10000260
	culture = western_chubu
}
10000261 = {
	name=dynasty_name_10000261
	culture = western_chubu
}
10000262 = {
	name=dynasty_name_10000262
	culture = western_chubu
}
10000263 = {
	name=dynasty_name_10000263
	culture = western_chubu
}
10000264 = {
	name=dynasty_name_10000264
	culture = western_chubu
}
10000265 = {
	name=dynasty_name_10000265
	culture = western_chubu
}
10000266 = {
	name=dynasty_name_10000266
	culture = western_chubu
}
10000267 = {
	name=dynasty_name_10000267
	culture = western_chubu
}
10000268 = {
	name=dynasty_name_10000268
	culture = western_chubu
}
10000269 = {
	name=dynasty_name_10000269
	culture = western_chubu
}
10000270 = {
	name=dynasty_name_10000270
	culture = western_chubu
}
10000271 = {
	name=dynasty_name_10000271
	culture = western_chubu
}
10000272 = {
	name=dynasty_name_10000272
	culture = western_chubu
}
10000273 = {
	name=dynasty_name_10000273
	culture = western_chubu
}
10000274 = {
	name=dynasty_name_10000274
	culture = western_chubu
}
10000275 = {
	name=dynasty_name_10000275
	culture = western_chubu
}
10000276 = {
	name=dynasty_name_10000276
	culture = western_chubu
}
10000277 = {
	name=dynasty_name_10000277
	culture = western_chubu
}
10000278 = {
	name=dynasty_name_10000278
	culture = western_chubu
}
10000279 = {
	name=dynasty_name_10000279
	culture = western_chubu
}
10000280 = {
	name=dynasty_name_10000280
	culture = western_chubu
}
10000281 = {
	name=dynasty_name_10000281
	culture = western_chubu
}
10000282 = {
	name=dynasty_name_10000282
	culture = western_chubu
}
10000283 = {
	name=dynasty_name_10000283
	culture = western_chubu
}
10000284 = {
	name=dynasty_name_10000284
	culture = western_chubu
}
10000285 = {
	name=dynasty_name_10000285
	culture = western_chubu
}
10000286 = {
	name=dynasty_name_10000286
	culture = western_chubu
}
10000287 = {
	name=dynasty_name_10000287
	culture = western_chubu
}
10000288 = {
	name=dynasty_name_10000288
	culture = western_chubu
}
10000289 = {
	name=dynasty_name_10000289
	culture = western_chubu
}
10000290 = {
	name=dynasty_name_10000290
	culture = western_chubu
}
10000291 = {
	name=dynasty_name_10000291
	culture = western_chubu
}
10000292 = {
	name=dynasty_name_10000292
	culture = western_chubu
}
10000294 = {
	name=dynasty_name_10000294
	culture = western_chubu
}
10000295 = {
	name=dynasty_name_10000295
	culture = western_chubu
}
10000296 = {
	name=dynasty_name_10000296
	culture = western_chubu
}
10000297 = {
	name=dynasty_name_10000297
	culture = western_chubu
}
10000298 = {
	name=dynasty_name_10000298
	culture = western_chubu
}
10000299 = {
	name=dynasty_name_10000299
	culture = western_chubu
}
10000694 = {
	name=dynasty_name_10000694
	culture = western_chubu
}
10000695 = {
	name=dynasty_name_10000695
	culture = western_chubu
}
10000696 = {
	name=dynasty_name_10000696
	culture = western_chubu
}
10000697 = {
	name=dynasty_name_10000697
	culture = western_chubu
}
10000698 = {
	name=dynasty_name_10000698
	culture = western_chubu
}
10000699 = {
	name=dynasty_name_10000699
	culture = western_chubu
}
10000700 = {
	name=dynasty_name_10000700
	culture = western_chubu
}
10000701 = {
	name=dynasty_name_10000701
	culture = western_chubu
}
10000702 = {
	name=dynasty_name_10000702
	culture = western_chubu
}
10000703 = {
	name=dynasty_name_10000703
	culture = western_chubu
}
10000704 = {
	name=dynasty_name_10000704
	culture = western_chubu
}
10000705 = {
	name=dynasty_name_10000705 # Owari=Ikeda, Mino=Ikeda
	culture = western_chubu
}
10000706 = {
	name=dynasty_name_10000706
	culture = western_chubu
}
10000707 = {
	name=dynasty_name_10000707
	culture = western_chubu
}
10000708 = {
	name=dynasty_name_10000708
	culture = western_chubu
}
10000709 = {
	name=dynasty_name_10000709
	culture = western_chubu
}
10000710 = {
	name=dynasty_name_10000710
	culture = western_chubu
}
10000711 = {
	name=dynasty_name_10000711
	culture = western_chubu
}
10000712 = {
	name=dynasty_name_10000712
	culture = western_chubu
}
10000466={
	name=dynasty_name_10000466
	culture=western_chubu
}
10000724={
	name=dynasty_name_10000724
	culture=koshin
}
10000733={
	name=dynasty_name_10000733
	culture=western_chubu
}
10000734={
	name=dynasty_name_10000734
	culture=western_chubu
}
10000735={
	name=dynasty_name_10000735
	culture=western_chubu
}
10000736={
	name=dynasty_name_10000736
	culture=western_chubu
}
10000737={
	name=dynasty_name_10000737
	culture=western_chubu
}
10000738={
	name=dynasty_name_10000738
	culture=western_chubu
}
10000739={
	name=dynasty_name_10000739
	culture=western_chubu
}
10000740={
	name=dynasty_name_10000740
	culture=western_chubu
}
10000741={
	name=dynasty_name_10000741
	culture=western_chubu
}
10000742={
	name=dynasty_name_10000742
	culture=western_chubu
}
10000743={
	name=dynasty_name_10000743
	culture=western_chubu
}
10000744={
	name=dynasty_name_10000744
	culture=western_chubu
}
10000745={
	name=dynasty_name_10000745
	culture=western_chubu
}
10000746={
	name=dynasty_name_10000746
	culture=western_chubu
}
10000747={
	name=dynasty_name_10000747
	culture=tokai
}
10000766={
	name=dynasty_name_10000766
	culture=western_chubu
}
10000836={
	name=dynasty_name_10000836
	culture=koshin
}
10000837={
	name=dynasty_name_10000837
	culture=western_chubu
}
10000838={
	name=dynasty_name_10000838
	culture=western_chubu
}
10000839={
	name=dynasty_name_10000839
	culture=western_chubu
}
10000840={
	name=dynasty_name_10000840
	culture=western_chubu
}
10000841={
	name=dynasty_name_10000841
	culture=western_chubu
}
10000842={
	name=dynasty_name_10000842
	culture=western_chubu
}
10000843={
	name=dynasty_name_10000843
	culture=western_chubu
}
10000844={
	name=dynasty_name_10000844
	culture=chubu_buddhist
}
10000845={
	name=dynasty_name_10000845
	culture=western_chubu
}
10000846={
	name=dynasty_name_10000846
	culture=western_chubu
}
10000847={
	name=dynasty_name_10000847
	culture=western_chubu
}
10000848={
	name=dynasty_name_10000848
	culture=western_chubu
}
10000849={
	name=dynasty_name_10000849
	culture=western_chubu
}
10000850={
	name=dynasty_name_10000850
	culture=western_chubu
}
