﻿10000102 = {
	name=dynasty_name_10000102
	culture = eastern_kanto
}
10000115 = {
	name=dynasty_name_10000115
	culture = eastern_kanto
}
10000116 = {
	name=dynasty_name_10000116
	culture = eastern_kanto
}
10000117 = {
	name=dynasty_name_10000117
	culture = eastern_kanto
}
10000118 = {
	name=dynasty_name_10000118
	culture = eastern_kanto
}
10000119 = {
	name=dynasty_name_10000119
	culture = eastern_kanto
}
10000122 = {
	name=dynasty_name_10000122
	culture = eastern_kanto
}
10000123 = {
	name=dynasty_name_10000123
	culture = eastern_kanto
}
10000124 = {
	name=dynasty_name_10000124
	culture = eastern_kanto
}
10000125 = {
	name=dynasty_name_10000125
	culture = eastern_kanto
}
10000126 = {
	name=dynasty_name_10000126 # Chiba-Hara
	culture = eastern_kanto
}
10000127 = {
	name=dynasty_name_10000127 # Toki-Hara
	culture = eastern_kanto
}
10000133={
	name=dynasty_name_10000133
	culture=eastern_kanto
}
10000134={
	name=dynasty_name_10000134
	culture=eastern_kanto
}
10000135={
	name=dynasty_name_10000135
	culture=eastern_kanto
}