﻿10001660 = {
	name=dynasty_name_10001660
	culture = hokkaido_wajin
}
10001661 = {
	name=dynasty_name_10001661 #In historical fact, Genji-kuruma
	culture = hokkaido_wajin
}
10001662 = {
	name=dynasty_name_10001662
	culture = hokkaido_wajin
}
10001663 = {
	name=dynasty_name_10001663
	culture = hokkaido_wajin
}
10001664 = {
	name=dynasty_name_10001664 #In historical fact, Yugao
	culture = hokkaido_wajin
}
10001665 = {
	name=dynasty_name_10001665 #branch of Hatakeyama clan
	culture = hokkaido_wajin
}
10001666 = {
	name=dynasty_name_10001666
	culture = hokkaido_wajin
}
10001667 = {
	name=dynasty_name_10001667
	culture = hokkaido_wajin
}
10001668 = {
	name=dynasty_name_10001668
	culture = hokkaido_wajin
}
10001669 = {
	name=dynasty_name_10001669
	culture = hokkaido_wajin
}
10001670 = {
	name=dynasty_name_10001670
	culture = hokkaido_wajin
}
10001671 = {
	name=dynasty_name_10001671
	culture = hokkaido_wajin
}
10001672 = {
	name=dynasty_name_10001672 #Itsumoko ni Kenkarahana, in In historical fact, Mutsumoko ni Kenkarahana
	culture = hokkaido_wajin
}
10001673 = {
	name=dynasty_name_10001673
	culture = hokkaido_wajin
}
10001674 = {
	name=dynasty_name_10001674
	culture = hokkaido_wajin
}
10001675 = {
	name=dynasty_name_10001675
	culture = hokkaido_wajin
}
10001727 = {
	name=dynasty_name_10001727
	culture = hokkaido_wajin
}
10001728 = {
	name=dynasty_name_10001728
	culture = hokkaido_wajin
}
