﻿10010500=  ## Original:12
{
	name=dynasty_name_10010500
	culture="mongol"
}
10010501= ## Original:15
{
	name=dynasty_name_10010501
	culture="mongol"
}
10010502=  ## Original:7315
{
	name=dynasty_name_10010502
	culture="mongol"
}
10010503= ## Original:7316
{
	name=dynasty_name_10010503
	culture="mongol"
}
10010504= ## Original:7317
{
	name=dynasty_name_10010504
	culture="mongol"
}
10010505= ## Original:7371
{
	name=dynasty_name_10010505
	culture="mongol"
}
10010506= ## Original:7379
{
	name=dynasty_name_10010506
	culture="mongol"
}
10010507= ## Original:7380
{
	name=dynasty_name_10010507
	culture="mongol"
}
10010508= ## Original:11100
{
	name=dynasty_name_10010508
	culture="mongol"
}
10010509= ## Original:101912
{
	name=dynasty_name_10010509
	culture="mongol"
}
10010510= ## Original:101913
{
	name=dynasty_name_10010510
	culture="mongol"
}
10010511= ## Original:101916
{
	name=dynasty_name_10010511
	culture="mongol"
}
10010512= ## Original:101927
{
	name=dynasty_name_10010512
	culture="mongol"
}
10010513= ## Original:101928
{
	name=dynasty_name_10010513
	culture="mongol"
}
10010514= ## Original:101929
{
	name=dynasty_name_10010514
	culture="mongol"
}
10010515= ## Original:101930
{
	name=dynasty_name_10010515
	culture="mongol"
}
10010516= ## Original: 101931
{
	name=dynasty_name_10010516
	culture="mongol"
}
10010517= ## Original: 101932
{
	name=dynasty_name_10010517
	culture="mongol"
}
10010518= ## Original: 101933
{
	name=dynasty_name_10010518
	culture="mongol"
}
10010519= ## Original: 101934
{
	name=dynasty_name_10010519
	culture="mongol"
}
10010520= ## Original: 101935
{
	name=dynasty_name_10010520
	culture="mongol"
}
10010521= ## Original: 101936
{
	name=dynasty_name_10010521
	culture="mongol"
}
10010522= ## Original: 101937
{
	name=dynasty_name_10010522
	culture="mongol"
}
10010523= ## Original: 101938
{
	name=dynasty_name_10010523
	culture="mongol"
}
10010524= ## Original: 101939
{
	name=dynasty_name_10010524
	culture="mongol"
}
10010525= ## Original: 101940
{
	name=dynasty_name_10010525
	culture="mongol"
}
10010526= ## Original: 101941
{
	name=dynasty_name_10010526
	culture="mongol"
}
10010527= ## Original: 101942
{
	name=dynasty_name_10010527
	culture="mongol"
}
10010528= ## Original: 101943
{
	name=dynasty_name_10010528
	culture="mongol"
}
10010529= ## Original: 101944
{
	name=dynasty_name_10010529
	culture="mongol"
}
10010530= ## Original: 101945
{
	name=dynasty_name_10010530
	culture="mongol"
}
10010531= ## Original: 101946
{
	name=dynasty_name_10010531
	culture="mongol"
}
10010532= ## Original: 101947
{
	name=dynasty_name_10010532
	culture="mongol"
}
10010533= ## Original: 101948
{
	name=dynasty_name_10010533
	culture="mongol"
}
10010534= ## Original: 101949
{
	name=dynasty_name_10010534
	culture="mongol"
}
10010535= ## Original: 1041000
{
	name=dynasty_name_10010535
	culture="mongol"
}
10010536= ## Original: 1041001
{
	name=dynasty_name_10010536
	culture="mongol"
}
10010537= ## Original: 1041002
{
	name=dynasty_name_10010537
	culture="mongol"
}
10010538= ## Original: 214011
{
	name=dynasty_name_10010538
	culture="mongol"
}
10010539= ## Original: 1051120
{
	name=dynasty_name_10010539
	culture="mongol"
}
10010540= ## Original: 1051124
{
	name=dynasty_name_10010540
	culture="mongol"
}
10010541= ## Original: 1051125
{
	name=dynasty_name_10010541
	culture="mongol"
}
10010542= ## Original: 1051138
{
	name=dynasty_name_10010542
	culture="mongol"
}
10010543= ## Original: 1051139
{
	name=dynasty_name_10010543
	culture="mongol"
}
10010544= ## Original: 1051140
{
	name=dynasty_name_10010544
	culture="mongol"
}
10010545= ## Original: 1051210
{
	name=dynasty_name_10010545
	culture="mongol"
}
10010546 = { ## Original: 1045099
	name = dynasty_name_10010546
	culture = mongol
}
10010547 = { ## Original: 1045100
	name = dynasty_name_10010547
	culture = mongol
}
10010548 = { ## Original: 1045101
	name = dynasty_name_10010548
	culture = mongol
}
10010549 = { ## Original: 1045102
	name = dynasty_name_10010549
	culture = mongol
}
10010550 = { ## Original: 1045104
	name = dynasty_name_10010550
	culture = mongol
}
10010551 = { ## Original: 1045105
	name = dynasty_name_10010551
	culture = mongol
}
10010552 = { ## Original: 1040066
	name=dynasty_name_10010552
	culture = mongol
}
10010553 = { ## Original: 1040067
	name=dynasty_name_10010553
	culture = mongol
}
10010554 = { ## Original: 1040068
	name=dynasty_name_10010554
	culture = mongol
}
10010555 = { ## Original: 1040069
	name=dynasty_name_10010555
	culture = mongol
}
10010556 = { ## Original: 1040070
	name=dynasty_name_10010556
	culture = mongol
}
10010557 = { ## Original: 1040071
	name=dynasty_name_10010557
	culture = mongol
}
10010558 = { ## Original: 1040072
	name=dynasty_name_10010558
	culture = mongol
}
10010559 = { ## Original: 1040073
	name=dynasty_name_10010559
	culture = mongol
}
10010560 = { ## Original: 1040074
	name=dynasty_name_10010560
	culture = mongol
}
10010561 = { ## Original: 1040075
	name=dynasty_name_10010561
	culture = mongol
}
10010562 = { ## Original: 7316
	name=dynasty_name_10010562
	culture = mongol
}
10010563 = { ## Original: 1040077
	name=dynasty_name_10010563
	culture = mongol
}
10010564 = { ## Original: 1040078
	name=dynasty_name_10010564
	culture = mongol
}
10010565 = { ## Original: 1040079
	name=dynasty_name_10010565
	culture = mongol
}
10010566 = { ## Original: 1040080
	name=dynasty_name_10010566
	culture = mongol
}
10010567 = { ## Original: 1059021
	name=dynasty_name_10010567
	culture="mongol"
}
10010568 = { ## Original: 1059025
	name=dynasty_name_10010568
	culture="mongol"
}
10010569 = { ## Original: 1059026
	name=dynasty_name_10010569
	culture="mongol"
}
10010570 = { ## Original: 1059027
	name=dynasty_name_10010570
	culture="mongol"
}
10010571 = { ## Original: 1059028
	name=dynasty_name_10010571
	culture="mongol"
}
10010572 = { ## Original: 1059029
	name=dynasty_name_10010572
	culture="mongol"
}
10010573 = { ## Original: 1059030
	name=dynasty_name_10010573
	culture="mongol"
}
10010574 = { ## Original: 1059031
	name=dynasty_name_10010574
	culture="mongol"
}
10010575 = { ## Original: 1059032
	name=dynasty_name_10010575
	culture="mongol"
}
10010576 = { ## Original: 1059034
	name=dynasty_name_10010576
	culture="mongol"
}
10010577= ## Original: 101914
{
	name=dynasty_name_10010577
	culture="maghreb_arabic"
}
10010578 = { ## Original: 1045103
	name = dynasty_name_10010578
	culture = mongol
}
10010579 = {
	name=dynasty_name_10010579
	culture="mongol"
}
10010580 = {
	name=dynasty_name_10010580
	culture="mongol"
}
10010581 = {
	name=dynasty_name_10010581
	culture="mongol"
}
10010582 = {
	name=dynasty_name_10010582
	culture="mongol"
}
10010583 = {
	name=dynasty_name_10010583
	culture="mongol"
}
