﻿10000670 = {
	name=dynasty_name_10000670 # Kii-Utsunomiya
	culture = northern_kyushu
}
10000671 = {
	name=dynasty_name_10000671
	culture = northern_kyushu
}
10000672 = {
	name=dynasty_name_10000672
	culture = northern_kyushu
}
10000673 = {
	name=dynasty_name_10000673
	culture = northern_kyushu
}
10000674 = {
	name=dynasty_name_10000674
	culture = northern_kyushu
}
10000675 = {
	name=dynasty_name_10000675
	culture = northern_kyushu
}
10000676 = {
	name=dynasty_name_10000676
	culture = northern_kyushu
}
10000677 = {
	name=dynasty_name_10000677
	culture = northern_kyushu
}
10000678 = { # Hakata Merchant
	name=dynasty_name_10000678
	culture = northern_kyushu
}
10000679 = { # Hakata Merchant
	name=dynasty_name_10000679
	culture = northern_kyushu
}
10000680 = { # Hakata Merchant
	name=dynasty_name_10000680
	culture = northern_kyushu
}
10000681 = { # Hakata Merchant
	name=dynasty_name_10000681
	culture = northern_kyushu
}
10000682 = { # Hakata Merchant
	name=dynasty_name_10000682
	culture = northern_kyushu
}
10000693 = { # Hakata Merchant
	name=dynasty_name_10000693
	culture = northern_kyushu
}
10000683 = {
	name=dynasty_name_10000683
	culture = northern_kyushu
}
10000684 = {
	name=dynasty_name_10000684
	culture = northern_kyushu
}
10000685 = {
	name=dynasty_name_10000685
	culture = northern_kyushu
}
10000686 = {
	name=dynasty_name_10000686
	culture = northern_kyushu
}
10000687 = {
	name=dynasty_name_10000687
	culture = northern_kyushu
}
10000688 = {
	name=dynasty_name_10000688
	culture = northern_kyushu
}
10000689 = {
	name=dynasty_name_10000689
	culture = northern_kyushu
}
10000690 = {
	name=dynasty_name_10000690
	culture = northern_kyushu
}
10000691 = {
	name=dynasty_name_10000691
	culture = northern_kyushu
}
10000692 = {
	name=dynasty_name_10000692
	culture = northern_kyushu
}
10000616 = {
	name=dynasty_name_10000616
	culture = northern_kyushu
}
10000617 = {
	name=dynasty_name_10000617
	culture = northern_kyushu
}
10000618 = {
	name=dynasty_name_10000618
	culture = northern_kyushu
}
