﻿31600000={
	name=dynasty_name_31600000
	culture=kanto_buddhist
}
31600001={
	name=dynasty_name_31600001
	culture=kanto_buddhist
}
31600002={
	name=dynasty_name_31600002
	culture=kanto_buddhist
}
31600003={
	name=dynasty_name_31600003
	culture=kanto_buddhist
}
31600004={
	name=dynasty_name_31600004
	culture=kanto_buddhist
}
31600005={
	name=dynasty_name_31600005
	culture=kanto_buddhist
}
31600006={
	name=dynasty_name_31600006
	culture=kanto_buddhist
}
31600007={
	name=dynasty_name_31600007
	culture=kanto_buddhist
}
31600008={
	name=dynasty_name_31600008
	culture=kanto_buddhist
}
31600009={
	name=dynasty_name_31600009
	culture=kanto_buddhist
}
