﻿36600296 = {
	name=dynasty_name_36600296
	culture = sakishima
}
36600297 = {
	name=dynasty_name_36600297
	culture = sakishima
}
36600298 = {
	name=dynasty_name_36600298
	culture = sakishima
}
36600299 = {
	name=dynasty_name_36600299
	culture = sakishima
}
36600300 = {
	name=dynasty_name_36600300
	culture = sakishima
}
36600301 = {
	name=dynasty_name_36600301
	culture = sakishima
}
36600302 = {
	name=dynasty_name_36600302
	culture = sakishima
}
36600303 = {
	name=dynasty_name_36600303
	culture = sakishima
}
36600304 = {
	name=dynasty_name_36600304
	culture = sakishima
}