﻿33400000={
	name=dynasty_name_33400000
	culture="central_kinai"
}
33400001={
	name=dynasty_name_33400001
	culture="central_kinai"
}
33400002={
	name=dynasty_name_33400002
	culture="central_kinai"
}
33400003={
	name=dynasty_name_33400003
	culture="central_kinai"
}
33400004={
	name=dynasty_name_33400004
	culture="central_kinai"
}
33400005={
	name=dynasty_name_33400005
	culture="central_kinai"
}
33400006={
	name=dynasty_name_33400006
	culture="central_kinai"
}
33400007={
	name=dynasty_name_33400007
	culture="central_kinai"
}
33400008={
	name=dynasty_name_33400008
	culture="central_kinai"
}
33400009={
	name=dynasty_name_33400009
	culture="central_kinai"
}
33400010={
	name=dynasty_name_33400010
	culture="central_kinai"
}
33400011={
	name=dynasty_name_33400011
	culture="central_kinai"
}
33400012={
	name=dynasty_name_33400012
	culture="central_kinai"
}
33400013={
	name=dynasty_name_33400013
	culture="central_kinai"
}
33400014={
	name=dynasty_name_33400014
	culture="central_kinai"
}
33400015={
	name=dynasty_name_33400015
	culture="central_kinai"
}
33400016={
	name=dynasty_name_33400016
	culture="central_kinai"
}
33400017={
	name=dynasty_name_33400017
	culture="central_kinai"
}
33400018={
	name=dynasty_name_33400018
	culture="central_kinai"
}
33400019={
	name=dynasty_name_33400019
	culture="central_kinai"
}
33400020={
	name=dynasty_name_33400020
	culture="central_kinai"
}
33400021={
	name=dynasty_name_33400021
	culture="central_kinai"
}
33400022={
	name=dynasty_name_33400022
	culture="central_kinai"
}
33400023={
	name=dynasty_name_33400023
	culture="central_kinai"
}
33400024={
	name=dynasty_name_33400024
	culture="central_kinai"
}
33400025={
	name=dynasty_name_33400025
	culture="central_kinai"
}
33400026={
	name=dynasty_name_33400026
	culture="central_kinai"
}
33400027={
	name=dynasty_name_33400027
	culture="central_kinai"
}
33400028={
	name=dynasty_name_33400028
	culture="central_kinai"
}
33400029={
	name=dynasty_name_33400029
	culture="central_kinai"
}
33400030={
	name=dynasty_name_33400030
	culture="central_kinai"
}
33400031={
	name=dynasty_name_33400031
	culture="central_kinai"
}
33400032={
	name=dynasty_name_33400032
	culture="central_kinai"
}
33400033={
	name=dynasty_name_33400033
	culture="central_kinai"
}
33400034={
	name=dynasty_name_33400034
	culture="central_kinai"
}
33400035={
	name=dynasty_name_33400035
	culture="central_kinai"
}
33400036={
	name=dynasty_name_33400036
	culture="central_kinai"
}
33400037={
	name=dynasty_name_33400037
	culture="central_kinai"
}
33400038={
	name=dynasty_name_33400038
	culture="central_kinai"
}
33400039={
	name=dynasty_name_33400039
	culture="central_kinai"
}
33400040={
	name=dynasty_name_33400040
	culture="central_kinai"
}
33400041={
	name=dynasty_name_33400041
	culture="central_kinai"
}
33400042={
	name=dynasty_name_33400042
	culture="central_kinai"
}
33400043={
	name=dynasty_name_33400043
	culture="central_kinai"
}
33400044={
	name=dynasty_name_33400044
	culture="central_kinai"
}
33400045={
	name=dynasty_name_33400045
	culture="central_kinai"
}
33400046={
	name=dynasty_name_33400046
	culture="central_kinai"
}
33400047={
	name=dynasty_name_33400047
	culture="central_kinai"
}
33400048={
	name=dynasty_name_33400048
	culture="central_kinai"
}
33400049={
	name=dynasty_name_33400049
	culture="central_kinai"
}
33400050={
	name=dynasty_name_33400050
	culture="central_kinai"
}
33400051={
	name=dynasty_name_33400051
	culture="central_kinai"
}
33400052={
	name=dynasty_name_33400052
	culture="central_kinai"
}
33400053={
	name=dynasty_name_33400053
	culture="central_kinai"
}
33400054={
	name=dynasty_name_33400054
	culture="central_kinai"
}
33400055={
	name=dynasty_name_33400055
	culture="central_kinai"
}
33400056={
	name=dynasty_name_33400056
	culture="central_kinai"
}
33400057={
	name=dynasty_name_33400057
	culture="central_kinai"
}
33400058={
	name=dynasty_name_33400058
	culture="central_kinai"
}
33400059={
	name=dynasty_name_33400059
	culture="central_kinai"
}
33400060={
	name=dynasty_name_33400060
	culture="central_kinai"
}
33400061={
	name=dynasty_name_33400061
	culture="central_kinai"
}
33400062={
	name=dynasty_name_33400062
	culture="central_kinai"
}
33400708 = {
	name=dynasty_name_33400708
	culture = central_kinai
}
33400709 = {
	name=dynasty_name_33400709
	culture = central_kinai
}
33400710 = {
	name=dynasty_name_33400710
	culture = central_kinai
}
33400711 = {
	name=dynasty_name_33400711
	culture = central_kinai
}
33400712 = {
	name=dynasty_name_33400712
	culture = central_kinai
}
33400713 = {
	name=dynasty_name_33400713
	culture = central_kinai
}
33400714 = {
	name=dynasty_name_33400714
	culture = central_kinai
}
33400715 = {
	name=dynasty_name_33400715
	culture = central_kinai
}
33400716 = {
	name=dynasty_name_33400716
	culture = central_kinai
}
33400717 = {
	name=dynasty_name_33400717
	culture = central_kinai
}
33400718 = {
	name=dynasty_name_33400718
	culture = central_kinai
}
33400719 = {
	name=dynasty_name_33400719
	culture = central_kinai
}
33400720 = {
	name=dynasty_name_33400720
	culture = central_kinai
}
33400721 = {
	name=dynasty_name_33400721
	culture = central_kinai
}
33400722 = {
	name=dynasty_name_33400722
	culture = central_kinai
}
33400723 = {
	name=dynasty_name_33400723
	culture = central_kinai
}
33400724 = {
	name=dynasty_name_33400724
	culture = central_kinai
}
33400725 = {
	name=dynasty_name_33400725
	culture = central_kinai
}
33400726 = {
	name=dynasty_name_33400726
	culture = central_kinai
}
33400727 = {
	name=dynasty_name_33400727
	culture = central_kinai
}
33400728 = {
	name=dynasty_name_33400728
	culture = central_kinai
}
33400729 = {
	name=dynasty_name_33400729
	culture = central_kinai
}
33400730 = {
	name=dynasty_name_33400730
	culture = central_kinai
}
33400731 = {
	name=dynasty_name_33400731
	culture = central_kinai
}
33400732 = {
	name=dynasty_name_33400732
	culture = central_kinai
}
33400733 = {
	name=dynasty_name_33400733
	culture = central_kinai
}
33400734 = {
	name=dynasty_name_33400734
	culture = central_kinai
}
33400735 = {
	name=dynasty_name_33400735
	culture = central_kinai
}
33400736 = {
	name=dynasty_name_33400736
	culture = central_kinai
}
33400737 = {
	name=dynasty_name_33400737
	culture = central_kinai
}
33400738 = {
	name=dynasty_name_33400738
	culture = central_kinai
}
33400739 = {
	name=dynasty_name_33400739
	culture = central_kinai
}
33400740 = {
	name=dynasty_name_33400740
	culture = central_kinai
}
33400741 = {
	name=dynasty_name_33400741
	culture = central_kinai
}
33400742 = {
	name=dynasty_name_33400742
	culture = central_kinai
}
33400743 = {
	name=dynasty_name_33400743
	culture = central_kinai
}
33400744 = {
	name=dynasty_name_33400744
	culture = central_kinai
}
33400745 = {
	name=dynasty_name_33400745
	culture = central_kinai
}
33400746 = {
	name=dynasty_name_33400746
	culture = central_kinai
}
33400747 = {
	name=dynasty_name_33400747
	culture = central_kinai
}
33400748 = {
	name=dynasty_name_33400748
	culture = central_kinai
}
33400749 = {
	name=dynasty_name_33400749
	culture = central_kinai
}
33400750 = {
	name=dynasty_name_33400750
	culture = central_kinai
}
33400751 = {
	name=dynasty_name_33400751
	culture = central_kinai
}
33400752 = {
	name=dynasty_name_33400752
	culture = central_kinai
}
33400753 = {
	name=dynasty_name_33400753
	culture = central_kinai
}
33400754 = {
	name=dynasty_name_33400754
	culture = central_kinai
}
33400755 = {
	name=dynasty_name_33400755
	culture = central_kinai
}
33400756 = {
	name=dynasty_name_33400756
	culture = central_kinai
}
33400757 = {
	name=dynasty_name_33400757
	culture = central_kinai
}
33400758 = {
	name=dynasty_name_33400758
	culture = central_kinai
}
33400759 = {
	name=dynasty_name_33400759
	culture = central_kinai
}
33400760 = {
	name=dynasty_name_33400760
	culture = central_kinai
}
33400761 = {
	name=dynasty_name_33400761
	culture = central_kinai
}
33400762 = {
	name=dynasty_name_33400762
	culture = central_kinai
}
33400763 = {
	name=dynasty_name_33400763
	culture = central_kinai
}
33400764 = {
	name=dynasty_name_33400764
	culture = central_kinai
}
33400765 = {
	name=dynasty_name_33400765
	culture = central_kinai
}
33400766 = {
	name=dynasty_name_33400766
	culture = central_kinai
}
33400767 = {
	name=dynasty_name_33400767
	culture = central_kinai
}
33400768 = {
	name=dynasty_name_33400768
	culture = central_kinai
}
33400769 = {
	name=dynasty_name_33400769
	culture = central_kinai
}
33400770 = {
	name=dynasty_name_33400770
	culture = central_kinai
}
33400771 = {
	name=dynasty_name_33400771
	culture = central_kinai
}
33400772 = {
	name=dynasty_name_33400772
	culture = central_kinai
}
33400773 = {
	name=dynasty_name_33400773
	culture = central_kinai
}
33400774 = {
	name=dynasty_name_33400774
	culture = central_kinai
}
33400775 = {
	name=dynasty_name_33400775
	culture = central_kinai
}
33400776 = {
	name=dynasty_name_33400776
	culture = central_kinai
}
33400777 = {
	name=dynasty_name_33400777
	culture = central_kinai
}
33400778 = {
	name=dynasty_name_33400778
	culture = central_kinai
}
33400779 = {
	name=dynasty_name_33400779
	culture = central_kinai
}
33400780 = {
	name=dynasty_name_33400780
	culture = central_kinai
}
33400781 = {
	name=dynasty_name_33400781
	culture = central_kinai
}
33400782 = {
	name=dynasty_name_33400782
	culture = central_kinai
}
33400783 = {
	name=dynasty_name_33400783
	culture = central_kinai
}
33400784 = {
	name=dynasty_name_33400784
	culture = central_kinai
}
33400785 = {
	name=dynasty_name_33400785
	culture = central_kinai
}