﻿34400038={
	name=dynasty_name_34400038
	culture="western_chugoku"
}
34400039={
	name=dynasty_name_34400039
	culture="western_chugoku"
}
34400040={
	name=dynasty_name_34400040
	culture="western_chugoku"
}
34400966 = {
	name=dynasty_name_34400966
	culture = western_chugoku
}
34400967 = {
	name=dynasty_name_34400967
	culture = western_chugoku
}
34400968 = {
	name=dynasty_name_34400968
	culture = western_chugoku
}
34400969 = {
	name=dynasty_name_34400969
	culture = western_chugoku
}
34400970 = {
	name=dynasty_name_34400970
	culture = western_chugoku
}
34400971 = {
	name=dynasty_name_34400971
	culture = western_chugoku
}
34400972 = {
	name=dynasty_name_34400972
	culture = western_chugoku
}
34400973 = {
	name=dynasty_name_34400973
	culture = western_chugoku
}
34400974 = {
	name=dynasty_name_34400974
	culture = western_chugoku
}
34400975 = {
	name=dynasty_name_34400975
	culture = western_chugoku
}
34400976 = {
	name=dynasty_name_34400976
	culture = western_chugoku
}
34400977 = {
	name=dynasty_name_34400977
	culture = western_chugoku
}
34400978 = {
	name=dynasty_name_34400978
	culture = western_chugoku
}
34400979 = {
	name=dynasty_name_34400979
	culture = western_chugoku
}
34400980 = {
	name=dynasty_name_34400980
	culture = western_chugoku
}
34400981 = {
	name=dynasty_name_34400981
	culture = western_chugoku
}
34400982 = {
	name=dynasty_name_34400982
	culture = western_chugoku
}
34400983 = {
	name=dynasty_name_34400983
	culture = western_chugoku
}
34400984 = {
	name=dynasty_name_34400984
	culture = western_chugoku
}
34400985 = {
	name=dynasty_name_34400985
	culture = western_chugoku
}
34400986 = {
	name=dynasty_name_34400986
	culture = western_chugoku
}
34400987 = {
	name=dynasty_name_34400987
	culture = western_chugoku
}
34400988 = {
	name=dynasty_name_34400988
	culture = western_chugoku
}
34400989 = {
	name=dynasty_name_34400989
	culture = western_chugoku
}
34400990 = {
	name=dynasty_name_34400990
	culture = western_chugoku
}
34400991 = {
	name=dynasty_name_34400991
	culture = western_chugoku
}
34400992 = {
	name=dynasty_name_34400992
	culture = western_chugoku
}
34400993 = {
	name=dynasty_name_34400993
	culture = western_chugoku
}
34400994 = {
	name=dynasty_name_34400994
	culture = western_chugoku
}
34400995 = {
	name=dynasty_name_34400995
	culture = western_chugoku
}
34400996 = {
	name=dynasty_name_34400996
	culture = western_chugoku
}
34400997 = {
	name=dynasty_name_34400997
	culture = western_chugoku
}
34400998 = {
	name=dynasty_name_34400998
	culture = western_chugoku
}
34400999 = {
	name=dynasty_name_34400999
	culture = western_chugoku
}
34400000 = {
	name=dynasty_name_34400000
	culture = western_chugoku
}
34400001 = {
	name=dynasty_name_34400001
	culture = western_chugoku
}
34400002 = {
	name=dynasty_name_34400002
	culture = western_chugoku
}
34400003 = {
	name=dynasty_name_34400003
	culture = western_chugoku
}
34400004 = {
	name=dynasty_name_34400004
	culture = western_chugoku
}
34400005 = {
	name=dynasty_name_34400005
	culture = western_chugoku
}
34400006 = {
	name=dynasty_name_34400006
	culture = western_chugoku
}
34400007 = {
	name=dynasty_name_34400007
	culture = western_chugoku
}
34400008 = {
	name=dynasty_name_34400008
	culture = western_chugoku
}
34400009 = {
	name=dynasty_name_34400009
	culture = western_chugoku
}
34400010 = {
	name=dynasty_name_34400010
	culture = western_chugoku
}
34400011 = {
	name=dynasty_name_34400011
	culture = western_chugoku
}
34400012 = {
	name=dynasty_name_34400012
	culture = western_chugoku
}
34400013 = {
	name=dynasty_name_34400013
	culture = western_chugoku
}
34400014 = {
	name=dynasty_name_34400014
	culture = western_chugoku
}
34400015 = {
	name=dynasty_name_34400015
	culture = western_chugoku
}
34400016 = {
	name=dynasty_name_34400016
	culture = western_chugoku
}
34400017 = {
	name=dynasty_name_34400017
	culture = western_chugoku
}
34400018 = {
	name=dynasty_name_34400018
	culture = western_chugoku
}
34400019 = {
	name=dynasty_name_34400019
	culture = western_chugoku
}
34400020 = {
	name=dynasty_name_34400020
	culture = western_chugoku
}
34400021 = {
	name=dynasty_name_34400021
	culture = western_chugoku
}
34400022 = {
	name=dynasty_name_34400022
	culture = western_chugoku
}
34400023 = {
	name=dynasty_name_34400023
	culture = western_chugoku
}
34400024 = {
	name=dynasty_name_34400024
	culture = western_chugoku
}
34400025 = {
	name=dynasty_name_34400025
	culture = western_chugoku
}
34400026 = {
	name=dynasty_name_34400026
	culture = western_chugoku
}
34400027 = {
	name=dynasty_name_34400027
	culture = western_chugoku
}
34400028 = {
	name=dynasty_name_34400028
	culture = western_chugoku
}
34400029 = {
	name=dynasty_name_34400029
	culture = western_chugoku
}
34400030 = {
	name=dynasty_name_34400030
	culture = western_chugoku
}
34400031 = {
	name=dynasty_name_34400031
	culture = western_chugoku
}
34400032 = {
	name=dynasty_name_34400032
	culture = western_chugoku
}
34400033 = {
	name=dynasty_name_34400033
	culture = western_chugoku
}
34400034 = {
	name=dynasty_name_34400034
	culture = western_chugoku
}
34400035 = {
	name=dynasty_name_34400035
	culture = western_chugoku
}
34400036 = {
	name=dynasty_name_34400036
	culture = western_chugoku
}
34400037 = {
	name=dynasty_name_34400037
	culture = western_chugoku
}
34400038={
	name=dynasty_name_34400038
	culture="western_chugoku"
}
34400039={
	name=dynasty_name_34400039
	culture="western_chugoku"
}
34400040={
	name=dynasty_name_34400040
	culture="western_chugoku"
}
34400041={
	name=dynasty_name_34400041
	culture="western_chugoku"
}
34400042={
	name=dynasty_name_34400042
	culture="western_chugoku"
}
34400044={
	name=dynasty_name_34400044
	culture="western_chugoku"
}
34400045={
	name=dynasty_name_34400045
	culture="western_chugoku"
}
34400047={
	name=dynasty_name_34400047
	culture="western_chugoku"
}
34400048={
	name=dynasty_name_34400048
	culture="western_chugoku"
}
34400050={
	name=dynasty_name_34400050
	culture="western_chugoku"
}
34400051={
	name=dynasty_name_34400051
	culture="western_chugoku"
}
34400052={
	name=dynasty_name_34400052
	culture="western_chugoku"
}
34400053={
	name=dynasty_name_34400053
	culture="western_chugoku"
}
34400054={
	name=dynasty_name_34400054
	culture="western_chugoku"
}
34400055={
	name=dynasty_name_34400055
	culture="western_chugoku"
}