﻿36200269 = {
	name=dynasty_name_36200269
	culture = amami
}
36200270 = {
	name=dynasty_name_36200270
	culture = amami
}
36200271 = {
	name=dynasty_name_36200271
	culture = amami
}
36200272 = {
	name=dynasty_name_36200272
	culture = amami
}
36200273 = {
	name=dynasty_name_36200273
	culture = amami
}
36200274 = {
	name=dynasty_name_36200274
	culture = amami
}
36200275 = {
	name=dynasty_name_36200275
	culture = amami
}
36200276 = {
	name=dynasty_name_36200276
	culture = amami
}
36200277 = {
	name=dynasty_name_36200277
	culture = amami
}
36200278 = {
	name=dynasty_name_36200278
	culture = amami
}
36200279 = {
	name=dynasty_name_36200279
	culture = amami
}
36200280 = {
	name=dynasty_name_36200280
	culture = amami
}