﻿38200338={
	name=dynasty_name_38200338
	culture="karafuto_ainu"
}
38200339={
	name=dynasty_name_38200339
	culture="karafuto_ainu"
}
38200340={
	name=dynasty_name_38200340
	culture="karafuto_ainu"
}
38200341={
	name=dynasty_name_38200341
	culture=karafuto_ainu
}
38200342={
	name=dynasty_name_38200342
	culture=karafuto_ainu
}
38200343={
	name=dynasty_name_38200343
	culture=karafuto_ainu
}
38200344={
	name=dynasty_name_38200344
	culture=karafuto_ainu
}
38200345={
	name=dynasty_name_38200345
	culture=karafuto_ainu
}
38200346={
	name=dynasty_name_38200346
	culture=karafuto_ainu
}
38200347={
	name=dynasty_name_38200347
	culture=karafuto_ainu
}