﻿32400000={
	name=dynasty_name_32400000
	culture="koshin"
}
32400001={
	name=dynasty_name_32400001
	culture="koshin"
}
32400002={
	name=dynasty_name_32400002
	culture="koshin"
}
32400003={
	name=dynasty_name_32400003
	culture="koshin"
}
32400004={
	name=dynasty_name_32400004
	culture="koshin"
}
32400005={
	name=dynasty_name_32400005
	culture="koshin"
}
32400006={
	name=dynasty_name_32400006
	culture="koshin"
}
32400007={
	name=dynasty_name_32400007
	culture="koshin"
}
32400008={
	name=dynasty_name_32400008
	culture="koshin"
}
32400009={
	name=dynasty_name_32400009
	culture="koshin"
}
32400010={
	name=dynasty_name_32400010
	culture="koshin"
}
32400011={
	name=dynasty_name_32400011
	culture="koshin"
}
32400012={
	name=dynasty_name_32400012
	culture="koshin"
}
32400013={
	name=dynasty_name_32400013
	culture="koshin"
}
32400014={
	name=dynasty_name_32400014
	culture="koshin"
}
32400015={
	name=dynasty_name_32400015
	culture="koshin"
}
32400016={
	name=dynasty_name_32400016
	culture="koshin"
}
32400017={
	name=dynasty_name_32400017
	culture="koshin"
}
32400018={
	name=dynasty_name_32400018
	culture="koshin"
}
32400019={
	name=dynasty_name_32400019
	culture="koshin"
}
32400020={
	name=dynasty_name_32400020
	culture="koshin"
}
32400021={
	name=dynasty_name_32400021
	culture="koshin"
}
32400022={
	name=dynasty_name_32400022
	culture="koshin"
}
32400023={
	name=dynasty_name_32400023
	culture="koshin"
}
32400024={
	name=dynasty_name_32400024
	culture="koshin"
}
32400025={
	name=dynasty_name_32400025
	culture="koshin"
}
32400026={
	name=dynasty_name_32400026
	culture="koshin"
}
32400027={
	name=dynasty_name_32400027
	culture="koshin"
}
32400028={
	name=dynasty_name_32400028
	culture="koshin"
}
32400029={
	name=dynasty_name_32400029
	culture="koshin"
}
32400030={
	name=dynasty_name_32400030
	culture="koshin"
}
32400031={
	name=dynasty_name_32400031
	culture="koshin"
}
32400032={
	name=dynasty_name_32400032
	culture="koshin"
}
32400033={
	name=dynasty_name_32400033
	culture="koshin"
}
32400034={
	name=dynasty_name_32400034
	culture="koshin"
}
32400035={
	name=dynasty_name_32400035
	culture="koshin"
}
32400036={
	name=dynasty_name_32400036
	culture="koshin"
}
32400037={
	name=dynasty_name_32400037
	culture="koshin"
}
32400038={
	name=dynasty_name_32400038
	culture="koshin"
}
32400039={
	name=dynasty_name_32400039
	culture="koshin"
}
32400040={
	name=dynasty_name_32400040
	culture="koshin"
}
32400041={
	name=dynasty_name_32400041
	culture="koshin"
}
32400042={
	name=dynasty_name_32400042
	culture="koshin"
}
32400043={
	name=dynasty_name_32400043
	culture="koshin"
}
32400044={
	name=dynasty_name_32400044
	culture="koshin"
}
32400045={
	name=dynasty_name_32400045
	culture="koshin"
}
32400046={
	name=dynasty_name_32400046
	culture="koshin"
}
32400047={
	name=dynasty_name_32400047
	culture="koshin"
}
32400048={
	name=dynasty_name_32400048
	culture="koshin"
}
32400049={
	name=dynasty_name_32400049
	culture="koshin"
}
32400050={
	name=dynasty_name_32400050
	culture="koshin"
}
32400051={
	name=dynasty_name_32400051
	culture="koshin"
}
32400052={
	name=dynasty_name_32400052
	culture="koshin"
}
32400053={
	name=dynasty_name_32400053
	culture="koshin"
}
32400054={
	name=dynasty_name_32400054
	culture="koshin"
}
32400055={
	name=dynasty_name_32400055
	culture="koshin"
}
32400056={
	name=dynasty_name_32400056
	culture="koshin"
}
32400057={
	name=dynasty_name_32400057
	culture="koshin"
}
32400058={
	name=dynasty_name_32400058
	culture="koshin"
}
32400059={
	name=dynasty_name_32400059
	culture="koshin"
}
32400060={
	name=dynasty_name_32400060
	culture="koshin"
}
32400061={
	name=dynasty_name_32400061
	culture="koshin"
}
32400062={
	name=dynasty_name_32400062
	culture="koshin"
}
32400063={
	name=dynasty_name_32400063
	culture="koshin"
}
32400064={
	name=dynasty_name_32400064
	culture="koshin"
}
32400065={
	name=dynasty_name_32400065
	culture="koshin"
}
32400066={
	name=dynasty_name_32400066
	culture="koshin"
}
32400067={
	name=dynasty_name_32400067
	culture="koshin"
}
32400068={
	name=dynasty_name_32400068
	culture="koshin"
}
32400069={
	name=dynasty_name_32400069
	culture="koshin"
}
32400070={
	name=dynasty_name_32400070
	culture="koshin"
}
32400071={
	name=dynasty_name_32400071
	culture="koshin"
}
32400072={
	name=dynasty_name_32400072
	culture="koshin"
}
32400073={
	name=dynasty_name_32400073
	culture="koshin"
}
32400074={
	name=dynasty_name_32400074
	culture="koshin"
}
32400075={
	name=dynasty_name_32400075
	culture="koshin"
}
32400076={
	name=dynasty_name_32400076
	culture="koshin"
}
32400077={
	name=dynasty_name_32400077
	culture="koshin"
}
32400078={
	name=dynasty_name_32400078
	culture="koshin"
}
32400079={
	name=dynasty_name_32400079
	culture="koshin"
}
32400080={
	name=dynasty_name_32400080
	culture="koshin"
}
32400081={
	name=dynasty_name_32400081
	culture="koshin"
}
32400082={
	name=dynasty_name_32400082
	culture="koshin"
}
32400083={
	name=dynasty_name_32400083
	culture="koshin"
}
32400084={
	name=dynasty_name_32400084
	culture="koshin"
}
32400085={
	name=dynasty_name_32400085
	culture="koshin"
}
32400086={
	name=dynasty_name_32400086
	culture="koshin"
}
32400087={
	name=dynasty_name_32400087
	culture="koshin"
}
32400088={
	name=dynasty_name_32400088
	culture="koshin"
}
32400089={
	name=dynasty_name_32400089
	culture="koshin"
}
32400090={
	name=dynasty_name_32400090
	culture="koshin"
}
32400091={
	name=dynasty_name_32400091
	culture="koshin"
}
32400465 = {
	name=dynasty_name_32400465
	culture = koshin
}
32400466 = {
	name=dynasty_name_32400466
	culture = koshin
}
32400467 = {
	name=dynasty_name_32400467
	culture = koshin
}
32400468 = {
	name=dynasty_name_32400468
	culture = koshin
}
32400469 = {
	name=dynasty_name_32400469
	culture = koshin
}
32400470 = {
	name=dynasty_name_32400470
	culture = koshin
}
32400471 = {
	name=dynasty_name_32400471
	culture = koshin
}
32400472 = {
	name=dynasty_name_32400472
	culture = koshin
}
32400473 = {
	name=dynasty_name_32400473
	culture = koshin
}
32400474 = {
	name=dynasty_name_32400474
	culture = koshin
}
32400475 = {
	name=dynasty_name_32400475
	culture = koshin
}
32400476 = {
	name=dynasty_name_32400476
	culture = koshin
}
32400477 = {
	name=dynasty_name_32400477
	culture = koshin
}
32400478 = {
	name=dynasty_name_32400478
	culture = koshin
}
32400479 = {
	name=dynasty_name_32400479
	culture = koshin
}
32400480 = {
	name=dynasty_name_32400480
	culture = koshin
}
32400481 = {
	name=dynasty_name_32400481
	culture = koshin
}
32400482 = {
	name=dynasty_name_32400482
	culture = koshin
}
32400483 = {
	name=dynasty_name_32400483
	culture = koshin
}
32400484 = {
	name=dynasty_name_32400484
	culture = koshin
}
32400485 = {
	name=dynasty_name_32400485
	culture = koshin
}
32400486 = {
	name=dynasty_name_32400486
	culture = koshin
}
32400487 = {
	name=dynasty_name_32400487
	culture = koshin
}
32400488 = {
	name=dynasty_name_32400488
	culture = koshin
}
32400489 = {
	name=dynasty_name_32400489
	culture = koshin
}
32400490 = {
	name=dynasty_name_32400490
	culture = koshin
}
32400491 = {
	name=dynasty_name_32400491
	culture = koshin
}
32400492 = {
	name=dynasty_name_32400492
	culture = koshin
}
32400493 = {
	name=dynasty_name_32400493
	culture = koshin
}
32400494 = {
	name=dynasty_name_32400494
	culture = koshin
}
32400495 = {
	name=dynasty_name_32400495
	culture = koshin
}
32400496 = {
	name=dynasty_name_32400496
	culture = koshin
}
32400497 = {
	name=dynasty_name_32400497
	culture = koshin
}
32400498 = {
	name=dynasty_name_32400498
	culture = koshin
}
32400499 = {
	name=dynasty_name_32400499
	culture = koshin
}
32400500 = {
	name=dynasty_name_32400500
	culture = koshin
}
32400501 = {
	name=dynasty_name_32400501
	culture = koshin
}
32400502 = {
	name=dynasty_name_32400502
	culture = koshin
}
32400503 = {
	name=dynasty_name_32400503
	culture = koshin
}
32400504 = {
	name=dynasty_name_32400504
	culture = koshin
}
32400505 = {
	name=dynasty_name_32400505
	culture = koshin
}
32400506 = {
	name=dynasty_name_32400506
	culture = koshin
}
32400507 = {
	name=dynasty_name_32400507
	culture = koshin
}
32400508 = {
	name=dynasty_name_32400508
	culture = koshin
}
32400509 = {
	name=dynasty_name_32400509
	culture = koshin
}
32400510 = {
	name=dynasty_name_32400510
	culture = koshin
}
32400511 = {
	name=dynasty_name_32400511
	culture = koshin
}
32400512 = {
	name=dynasty_name_32400512
	culture = koshin
}
32400513 = {
	name=dynasty_name_32400513
	culture = koshin
}
32400514 = {
	name=dynasty_name_32400514
	culture = koshin
}
32400515 = {
	name=dynasty_name_32400515
	culture = koshin
}
32400516 = {
	name=dynasty_name_32400516
	culture = koshin
}
32400517 = {
	name=dynasty_name_32400517
	culture = koshin
}
32400518 = {
	name=dynasty_name_32400518
	culture = koshin
}
32400519 = {
	name=dynasty_name_32400519
	culture = koshin
}
32400520 = {
	name=dynasty_name_32400520
	culture = koshin
}
32400521 = {
	name=dynasty_name_32400521
	culture = koshin
}
32400522 = {
	name=dynasty_name_32400522
	culture = koshin
}
32400523 = {
	name=dynasty_name_32400523
	culture = koshin
}
32400524 = {
	name=dynasty_name_32400524
	culture = koshin
}
32400525 = {
	name=dynasty_name_32400525
	culture = koshin
}
32400526 = {
	name=dynasty_name_32400526
	culture = koshin
}
32400527 = {
	name=dynasty_name_32400527
	culture = koshin
}
32400528={
	name=dynasty_name_32400528
	culture="koshin"
}