﻿37800323={
	name=dynasty_name_37800323
	culture="donan_ainu"
}
37800324={
	name=dynasty_name_37800324
	culture="donan_ainu"
}
37800325={
	name=dynasty_name_37800325
	culture="donan_ainu"
}