﻿30000000 = {
	name=dynasty_name_30000000
	culture = northern_oshu
}
30000001 = {
	name=dynasty_name_30000001
	culture = northern_oshu
}
30000002 = {
	name=dynasty_name_30000002
	culture = northern_oshu
}
30000003 = {
	name=dynasty_name_30000003
	culture = northern_oshu
}
30000004 = {
	name=dynasty_name_30000004
	culture = northern_oshu
}
30000005 = {
	name=dynasty_name_30000005
	culture = northern_oshu
}
30000006 = {
	name=dynasty_name_30000006
	culture = northern_oshu
}
30000007 = {
	name=dynasty_name_30000007
	culture = northern_oshu
}
30000008 = {
	name=dynasty_name_30000008
	culture = northern_oshu
}
30000009 = {
	name=dynasty_name_30000009
	culture = northern_oshu
}
30000010 = {
	name=dynasty_name_30000010
	culture = northern_oshu
}
30000011 = {
	name=dynasty_name_30000011
	culture = northern_oshu
}
30000012 = {
	name=dynasty_name_30000012
	culture = northern_oshu
}
30000013 = {
	name=dynasty_name_30000013
	culture = northern_oshu
}
30000014 = {
	name=dynasty_name_30000014
	culture = northern_oshu
}
30000015 = {
	name=dynasty_name_30000015
	culture = northern_oshu
}
30000016 = {
	name=dynasty_name_30000016
	culture = northern_oshu
}
30000017 = {
	name=dynasty_name_30000017
	culture = northern_oshu
}
30000018 = {
	name=dynasty_name_30000018
	culture = northern_oshu
}
30000019 = {
	name=dynasty_name_30000019
	culture = northern_oshu
}
30000020 = {
	name=dynasty_name_30000020
	culture = northern_oshu
}
30000021 = {
	name=dynasty_name_30000021
	culture = northern_oshu
}
30000022 = {
	name=dynasty_name_30000022
	culture = northern_oshu
}
30000023 = {
	name=dynasty_name_30000023
	culture = northern_oshu
}
30000024 = {
	name=dynasty_name_30000024
	culture = northern_oshu
}
30000025 = {
	name=dynasty_name_30000025
	culture = northern_oshu
}
30000026 = {
	name=dynasty_name_30000026
	culture = northern_oshu
}
30000027 = {
	name=dynasty_name_30000027
	culture = northern_oshu
}
30000028 = {
	name=dynasty_name_30000028
	culture = northern_oshu
}
30000029 = {
	name=dynasty_name_30000029
	culture = northern_oshu
}
30000030 = {
	name=dynasty_name_30000030
	culture = northern_oshu
}
30000031 = {
	name=dynasty_name_30000031
	culture = northern_oshu
}
30000032 = {
	name=dynasty_name_30000032
	culture = northern_oshu
}
30000033 = {
	name=dynasty_name_30000033
	culture = northern_oshu
}
30000034 = {
	name=dynasty_name_30000034
	culture = northern_oshu
}
30000035 = {
	name=dynasty_name_30000035
	culture = northern_oshu
}
30000036 = {
	name=dynasty_name_30000036
	culture = northern_oshu
}
30000037 = {
	name=dynasty_name_30000037
	culture = northern_oshu
}
30000038 = {
	name=dynasty_name_30000038
	culture = northern_oshu
}
30000039 = {
	name=dynasty_name_30000039
	culture = northern_oshu
}
30000040 = {
	name=dynasty_name_30000040
	culture = northern_oshu
}
30000041 = {
	name=dynasty_name_30000041
	culture = northern_oshu
}