﻿34800000={
	name=dynasty_name_34800000
	culture=saigoku_buddhist
}
34800001={
	name=dynasty_name_34800001
	culture=saigoku_buddhist
}
34800002={
	name=dynasty_name_34800002
	culture=saigoku_buddhist
}
34800003={
	name=dynasty_name_34800003
	culture=saigoku_buddhist
}
34800004={
	name=dynasty_name_34800004
	culture=saigoku_buddhist
}
34800005={
	name=dynasty_name_34800005
	culture=saigoku_buddhist
}
34800006={
	name=dynasty_name_34800006
	culture=saigoku_buddhist
}
34800007={
	name=dynasty_name_34800007
	culture=saigoku_buddhist
}
34800008={
	name=dynasty_name_34800008
	culture=saigoku_buddhist
}
34800009={
	name=dynasty_name_34800009
	culture=saigoku_buddhist
}
