﻿36400281 = {
	name=dynasty_name_36400281
	culture = okinawa
}
36400282 = {
	name=dynasty_name_36400282
	culture = okinawa
}
36400283 = {
	name=dynasty_name_36400283
	culture = okinawa
}
36400284 = {
	name=dynasty_name_36400284
	culture = okinawa
}
36400285 = {
	name=dynasty_name_36400285
	culture = okinawa
}
36400286 = {
	name=dynasty_name_36400286
	culture = okinawa
}
36400287 = {
	name=dynasty_name_36400287
	culture = okinawa
}
36400288 = {
	name=dynasty_name_36400288
	culture = okinawa
}
36400289 = {
	name=dynasty_name_36400289
	culture = okinawa
}
36400290 = {
	name=dynasty_name_36400290
	culture = okinawa
}
36400291 = {
	name=dynasty_name_36400291
	culture = okinawa
}
36400292 = {
	name=dynasty_name_36400292
	culture = okinawa
}
36400293 = {
	name=dynasty_name_36400293
	culture = okinawa
}
36400294 = {
	name=dynasty_name_36400294
	culture = okinawa
}
36400295 = {
	name=dynasty_name_36400295
	culture = okinawa
}
