﻿10001400 = {
	name=dynasty_name_10001400
	culture = okinawa
}
10001401 = {
	name=dynasty_name_10001401
	culture = okinawa
}
10001402 = {
	name=dynasty_name_10001402
	culture = okinawa
}
10001403 = {
	name=dynasty_name_10001403
	culture = okinawa
}
10001404 = {
	name=dynasty_name_10001404
	culture = okinawa
}
10001405 = {
	name=dynasty_name_10001405
	culture = okinawa
}
10001406 = {
	name=dynasty_name_10001406
	culture = okinawa
}
10001407 = {
	name=dynasty_name_10001407
	culture = okinawa
}
10001408 = {
	name=dynasty_name_10001408
	culture = okinawa
}
10001409 = {
	name=dynasty_name_10001409
	culture = okinawa
}
10001410 = {
	name=dynasty_name_10001410
	culture = okinawa
}
10001411 = {
	name=dynasty_name_10001411
	culture = okinawa
}
10001412 = {
	name=dynasty_name_10001412
	culture = okinawa
}
10001413 = {
	name=dynasty_name_10001413
	culture = okinawa
}
10001414 = {
	name=dynasty_name_10001414
	culture = okinawa
}
10001415 = {
	name=dynasty_name_10001415
	culture = okinawa
}
10001416 = {
	name=dynasty_name_10001416
	culture = okinawa
}
10001417 = {
	name=dynasty_name_10001417
	culture = okinawa
}
10001418 = {
	name=dynasty_name_10001418
	culture = okinawa
}
10001419 = {
	name=dynasty_name_10001419
	culture = okinawa
}
10001420 = {
	name=dynasty_name_10001420
	culture = okinawa
}
10001421 = {
	name=dynasty_name_10001421
	culture = okinawa
}
10001422 = {
	name=dynasty_name_10001422
	culture = okinawa
}
10001423 = {
	name=dynasty_name_10001423
	culture = okinawa
}
10001424 = {
	name=dynasty_name_10001424
	culture = okinawa
}
10001425 = {
	name=dynasty_name_10001425
	culture = okinawa
}
10001426={
	name=dynasty_name_10001426
	culture=okinawa
}
10001427={
	name=dynasty_name_10001427
	culture=okinawa
}
10001428={
	name=dynasty_name_10001428
	culture=okinawa
}
10001429={
	name=dynasty_name_10001429
	culture=okinawa
}
10001430={
	name=dynasty_name_10001430
	culture=okinawa
}
10001431={
	name=dynasty_name_10001431
	culture=okinawa
}
10001432={
	name=dynasty_name_10001432
	culture=okinawa
}
10001433={
	name=dynasty_name_10001433
	culture=okinawa
}
10001434={
	name=dynasty_name_10001434
	culture=okinawa
}
10001435={
	name=dynasty_name_10001435
	culture=okinawa
}
10001436={
	name=dynasty_name_10001436
	culture=okinawa
}
10001437={
	name=dynasty_name_10001437
	culture=okinawa
}
10001438={
	name=dynasty_name_10001438
	culture=okinawa
}
10001439={
	name=dynasty_name_10001439
	culture=okinawa
}
10001440={
	name=dynasty_name_10001440
	culture=okinawa
}
10001441={
	name=dynasty_name_10001441
	culture=okinawa
}
10001442={
	name=dynasty_name_10001442
	culture=okinawa
}
10001443={
	name=dynasty_name_10001443
	culture=okinawa
}
10001444={
	name=dynasty_name_10001444
	culture=okinawa
}
10001445={
	name=dynasty_name_10001445
	culture=okinawa
}
10001446={
	name=dynasty_name_10001446
	culture=okinawa
}
10001447={
	name=dynasty_name_10001447
	culture=okinawa
}
10001448={
	name=dynasty_name_10001448
	culture=okinawa
}
10001449={
	name=dynasty_name_10001449
	culture=okinawa
}
10001450={
	name=dynasty_name_10001450
	culture=okinawa
}
10001451={
	name=dynasty_name_10001451
	culture=okinawa
}
10001452={
	name=dynasty_name_10001452
	culture=okinawa
}
10001453={
	name=dynasty_name_10001453
	culture=okinawa
}
10001454={
	name=dynasty_name_10001454
	culture=okinawa
}
10001455={
	name=dynasty_name_10001455
	culture=okinawa
}
10001456={
	name=dynasty_name_10001456
	culture=okinawa
}
10001457={
	name=dynasty_name_10001457
	culture=okinawa
}
10001458={
	name=dynasty_name_10001458
	culture=okinawa
}
10001460 = {
	name=dynasty_name_10001460
	culture = amami
}
10001461 = {
	name=dynasty_name_10001461
	culture = amami
}
10001465 = {
	name=dynasty_name_10001465
	culture = amami
}
10001466 = {
	name=dynasty_name_10001466
	culture = amami
}
10001462 = {
	name=dynasty_name_10001462
	culture = sakishima
}
10001463 = {
	name=dynasty_name_10001463
	culture = sakishima
}
10001464 = {
	name=dynasty_name_10001464
	culture = sakishima
}
10001467 = {
	name=dynasty_name_10001467
	culture = sakishima
}
10001468 = {
	name=dynasty_name_10001468
	culture = sakishima
}
10001469 = {
	name=dynasty_name_10001469
	culture = sakishima
}
10001470 = {
	name=dynasty_name_10001470
	culture = sakishima
}
10001471={
	name=dynasty_name_10001471
	culture=amami
}
10001472={
	name=dynasty_name_10001472
	culture=amami
}
10001473={
	name=dynasty_name_10001473
	culture=amami
}
10001474={
	name=dynasty_name_10001474
	culture=amami
}
10001475={
	name=dynasty_name_10001475
	culture=amami
}
10001476={
	name=dynasty_name_10001476
	culture=amami
}
10001477={
	name=dynasty_name_10001477
	culture=amami
}
10001478={
	name=dynasty_name_10001478
	culture=amami
}
10001479={
	name=dynasty_name_10001479
	culture=amami
}
10001480={
	name=dynasty_name_10001480
	culture=amami
}
10001481={
	name=dynasty_name_10001481
	culture=amami
}
10001482={
	name=dynasty_name_10001482
	culture=sakishima
}
10001483={
	name=dynasty_name_10001483
	culture=sakishima
}
10001484={
	name=dynasty_name_10001484
	culture=sakishima
}
10001485={
	name=dynasty_name_10001485
	culture=sakishima
}
10001486={
	name=dynasty_name_10001486
	culture=sakishima
}
10001487={
	name=dynasty_name_10001487
	culture=sakishima
}
