﻿10000580 = {
	name=dynasty_name_10000580
	culture = shikoku
}
10000581 = {
	name=dynasty_name_10000581
	culture = shikoku
}
10000582 = {
	name=dynasty_name_10000582
	culture = shikoku
}
10000583 = {
	name=dynasty_name_10000583
	culture = shikoku
}
10000584 = {
	name=dynasty_name_10000584
	culture = shikoku
}
10000585 = {
	name=dynasty_name_10000585
	culture = shikoku
}
10000586 = {
	name=dynasty_name_10000586
	culture = shikoku
}
10000587 = {
	name=dynasty_name_10000587
	culture = shikoku
}
10000588 = {
	name=dynasty_name_10000588
	culture = shikoku
}
10000589 = {
	name=dynasty_name_10000589
	culture = shikoku
}
10000590 = {
	name=dynasty_name_10000590
	culture = shikoku
}
10000592 = {
	name=dynasty_name_10000592 #In historical fact, Mitsu-shina-Matsu
	culture = shikoku
}
10000593 = {
	name=dynasty_name_10000593
	culture = shikoku
}
10000594 = {
	name=dynasty_name_10000594 #In historical fact, Marunouchi Ishidatami
	culture = shikoku
}
10000595 = {
	name=dynasty_name_10000595 #In historical fact, Kenkara Hana
	culture = shikoku
}
10000596 = {
	name=dynasty_name_10000596
	culture = shikoku
}
10000597 = {
	name=dynasty_name_10000597 #In historical fact, Maru ni Tsugai-gan
	culture = shikoku
}
10000598 = {
	name=dynasty_name_10000598 #In historical fact, Unknown
	culture = shikoku
}
10000599 = {
	name=dynasty_name_10000599 #In historical fact, Unknown
	culture = shikoku
}
10000787={
	name=dynasty_name_10000787
	culture=shikoku
}
10000788={
	name=dynasty_name_10000788
	culture=shikoku
}
10000789={
	name=dynasty_name_10000789
	culture=shikoku
}
10000790={
	name=dynasty_name_10000790
	culture=shikoku
}
10000791={
	name=dynasty_name_10000791
	culture=shikoku
}
10000792={
	name=dynasty_name_10000792
	culture=shikoku
}
10000793={
	name=dynasty_name_10000793
	culture=shikoku
}
10000794={
	name=dynasty_name_10000794
	culture=shikoku
}
10000795={
	name=dynasty_name_10000795
	culture=shikoku
}
10000796={
	name=dynasty_name_10000796
	culture=shikoku
}
10000797={
	name=dynasty_name_10000797
	culture=shikoku
}
10000798={
	name=dynasty_name_10000798
	culture=shikoku
}
10000799={
	name=dynasty_name_10000799
	culture=shikoku
}
10000800={
	name=dynasty_name_10000800
	culture=shikoku
}
10000801={
	name=dynasty_name_10000801
	culture=shikoku
}
10000802={
	name=dynasty_name_10000802
	culture=shikoku
}
10000803={
	name=dynasty_name_10000803
	culture=shikoku
}
10000804={
	name=dynasty_name_10000804
	culture=shikoku
}
10000805={
	name=dynasty_name_10000805
	culture=shikoku
}
10000806={
	name=dynasty_name_10000806
	culture=shikoku
}
10000807={
	name=dynasty_name_10000807
	culture=saigoku_buddhist
}
