﻿10000600 = {
	name=dynasty_name_10000600
	culture = southern_kyushu
}
10000601 = {
	name=dynasty_name_10000601
	culture = southern_kyushu
}
10000602 = {
	name=dynasty_name_10000602
	culture = southern_kyushu
}
10000603 = {
	name=dynasty_name_10000603
	culture = southern_kyushu
}
10000604 = {
	name=dynasty_name_10000604
	culture = southern_kyushu
}
10000605 = {
	name=dynasty_name_10000605
	culture = southern_kyushu
}
10000606 = {
	name=dynasty_name_10000606
	culture = southern_kyushu
}
10000610 = {
	name=dynasty_name_10000610
	culture = southern_kyushu
}
10000615 = {
	name=dynasty_name_10000615
	culture = southern_kyushu
}