﻿10000350 = {
	name=dynasty_name_10000350
	culture = western_hokuriku
}
10000351 = {
	name=dynasty_name_10000351
	culture = western_hokuriku
}
10000352 = {
	name=dynasty_name_10000352
	culture = western_hokuriku
}
10000353 = {
	name=dynasty_name_10000353
	culture = western_hokuriku
}
10000354={
	name=dynasty_name_10000354
	culture=western_hokuriku
}
10000355={
	name=dynasty_name_10000355
	culture=western_hokuriku
}
10000356={
	name=dynasty_name_10000356
	culture=western_hokuriku
}
10000357={
	name=dynasty_name_10000357
	culture=western_hokuriku
}
10000358={
	name=dynasty_name_10000358
	culture=western_hokuriku
}
10000359={
	name=dynasty_name_10000359
	culture=western_hokuriku
}
10000360={
	name=dynasty_name_10000360
	culture=western_hokuriku
}
10000361={
	name=dynasty_name_10000361
	culture=western_hokuriku
}
10000362={
	name=dynasty_name_10000362
	culture=western_hokuriku
}
10000363={
	name=dynasty_name_10000363
	culture=western_hokuriku
}
10000364={
	name=dynasty_name_10000364
	culture=western_hokuriku
}
10000365={
	name=dynasty_name_10000365
	culture=western_hokuriku
}
10000366={
	name=dynasty_name_10000366
	culture=western_hokuriku
}
10000367={
	name=dynasty_name_10000367
	culture=western_hokuriku
}
10000368={
	name=dynasty_name_10000368
	culture=western_hokuriku
}
10000369={
	name=dynasty_name_10000369
	culture=western_hokuriku
}
10000370 = {
	name=dynasty_name_10000370
	culture = hokuriku_buddhist
}
10000371 = {
	name=dynasty_name_10000371
	culture = western_hokuriku
}
10000372 = {
	name=dynasty_name_10000372
	culture = hokuriku_buddhist
}
10000373 = {
	name=dynasty_name_10000373
	culture = hokuriku_buddhist
}
10000374 = {
	name=dynasty_name_10000374
	culture = hokuriku_buddhist
}
10000375 = {
	name=dynasty_name_10000375
	culture = hokuriku_buddhist
}
10000376={
	name=dynasty_name_10000376
	culture=hokuriku_buddhist
}
10000377={
	name=dynasty_name_10000377
	culture=hokuriku_buddhist
}
10000378={
	name=dynasty_name_10000378
	culture=western_hokuriku
}
