c_nmih_esashi = {
	1.1.1 = { change_development_level = 0 }
	100.1.1 = { change_development_level = 0 }
	900.1.1 = { change_development_level = 0 }
	1819.8.21 = { change_development_level = 0 }

	0100.1.1={
	}
	1170.1.1={
		liege=0
		holder=10154601 # Bungi
	}
	1210.1.1={
		liege=0
		holder=0 # 
	}
	1270.1.1={
		holder=10157203
	}
	1320.1.1={
		liege=0
		holder=0 # 
	}
	1450.1.1={
		holder=10151303
	}
	1470.1.1={
		holder=10151300
	}
	1500.1.1={
		holder=10151301
	}
	1560.1.1={
		holder=10151302
	}

}
