c_nmih_eso = {
	1.1.1 = { change_development_level = 10 }
	1100.1.1 = { change_development_level = 10 }
	1331.1.1 = { change_development_level = 10 }

	100.1.1={
	}
	1180.1.1={
		liege = "d_nmih_bingo"
		holder=12660301 # Nuka Takanobu
	}
	1184.10.1={
		liege=0
		holder=0 #
	}
	1221.8.15={
		liege="d_nmih_bingo"
		holder=10130585 #　Yamanouchi Munetoshi
	}
	1316.1.1={
		holder=10130598 #　Yamanouchi Michisuke
	}
	1451.7.18={
		liege="d_nmih_bingo"
		holder=10056503 #　Yamanouchi Yasumichi
	}
	1467.6.27={
		liege=0
		holder=10056503 #　Yamanouchi Yasumichi
	}
	1490.1.1={
		liege="d_nmih_bingo" #　Yamana Toyotoshi
		holder=10056501 # Yamanouchi Toyoshige
	}
	1499.1.1={
		liege=0
	}
	1507.1.1={
		liege="d_nmih_bingo"
		holder=10056500 # Yamanouchi Naomichi
	}
	1521.1.1={
		liege="d_nmih_izumo"
	}
	1538.1.1={
		holder = 10056508 # Yamanouchi Takamichi
	}
	1553.1.1={
		liege="d_nmih_aki"
	}

}
