c_nmih_ishikari = {
	1.1.1 = { change_development_level = 0 }
	100.1.1 = { change_development_level = 0 }
	900.1.1 = { change_development_level = 0 }
	1600.1.1 = { change_development_level = 20 }
	1694.1.1 = { change_development_level = 20 }

	0100.1.1={
	}
	1066.1.1={
		holder=10150201 # Ponyaunpet
	}
	1130.1.1={
		liege=0
		holder=0 # 
	}
	1170.1.1={
		liege="d_nmih_ishikari"
		holder=10154100 # Oko
	}
	1210.1.1={
		liege=0
		holder=0 # 
	}
	1270.1.1={
		holder=10157202
	}
	1310.1.1={
		liege=0
		holder=0 # 
	}
	1450.1.1={
		liege="d_nmih_ishikari"
		holder=10154002
	}
	1490.1.1={
		holder=10154000
	}
	1540.1.1={
		holder=10154001
	}

}
