c_nmih_mashiki = {
	1.1.1 = { change_development_level = 20 }
	1100.1.1 = { change_development_level = 20 }

	100.1.1={
	}
	220.1.1={
		holder=10290080 # Uchisatu
		liege=d_nmih_higo
	}
	280.1.1={
		liege=0
	}
	295.1.1={
		holder=10290081 # Kubisatsu
	}
	1180.1.1={
		liege="d_nmih_higo"
		holder=12780652 # Kikuchi Hidenao
	}
	1185.4.25={
		liege=0
		holder=0 # Battle of Dan-no-ura
	}
	1484.1.1={
		holder=10066202 # Aso Korenori
	}
	1500.1.1={
		holder=10066203 # Aso Korenaga
	}
	1505.1.1={
		holder=10066201 # Aso Koretoyo
	}
	1513.1.1={
		holder=10066200 # Aso Koresaki
	}
	1543.1.1={
		holder=10066201 # Aso Koretoyo
	}
	1559.1.1={
		holder=10066204 # Aso Koremasa
	}
	1579.1.1={
		liege=d_nmih_bungo
	}

}
