c_nmih_menashi = {
	1.1.1 = { change_development_level = 0 }
	100.1.1 = { change_development_level = 0 }
	1000.1.1 = { change_development_level = 0 }
	1854.2.1 = { change_development_level = 0 }

	0100.1.1={
	}
	1170.1.1={
		liege=0
		holder=10152600 # Dankan
	}
	1210.1.1={
		holder=0 # 
	}
	1450.1.1={
		holder=10152502
	}
	1490.1.1={
		holder=10152500
	}
	1540.1.1={
		holder=10152501
	}

}
