c_nmih_mino = {
	1.1.1 = { change_development_level = 20 }

	100.1.1={
	}
	1180.1.1={
		liege=0
		holder=12661200 # Masuda Kanehide
	}
	1190.1.1={
		liege=0
		holder=0 # Taira's escape to the west
	}
	1391.10.14={
		liege="d_nmih_iwami"
		holder=10055927 # Masuda Kaneyo
	}
	1407.01.18={
		liege="d_nmih_iwami"
		holder=10055926 # Masuda Hidekane
	}
	1419.03.12={
		liege="d_nmih_iwami"
		holder=10055920 # Masuda Kanemichi
	}
	1431.08.06={
		liege="d_nmih_iwami"
		holder=10055914 #　Masuda　Kanetaka
	}
	1461.1.1={
		liege="k_nmih_western_chugoku"
		holder=10055901 #　Masuda Sadakane
	}
	1483.1.1={
		holder = 10055900 # Masuda Munekane
	}
	1544.2.12={
		holder = 10055903 # Masuda Fujikane
	}
	1551.9.30={
		liege="d_nmih_nagato"
	}
	1556.1.1={
		liege="d_nmih_aki"
	}
}
