c_nmih_mitsugi = {
	1.1.1 = { change_development_level = 30 }
	1100.1.1 = { change_development_level = 30 }
	1331.1.1 = { change_development_level = 30 }

	100.1.1={
	}
	1180.1.1={
		liege="d_nmih_bingo"
		holder=12660100 # Tachibana Kanetaka
	}
	1197.1.1={
		liege=0
		holder=0 #
	}
	1434.1.1={
		holder=10057615 # Shibukawa Norinao
	}
	1479.1.1={
		holder = 10057601 # Shibukawa Tadashige
	}
	1523.1.1={
		holder = 10057600 # Shibukawa Yoshitaka
	}
	1538.9.13={
		holder = 10057602 # Shibukawa Yoshimasa
	}
	1560.3.2={
		liege="d_nmih_aki"
	}
	1565.1.1={
		holder = 10057604 # Shibukawa Yoshimitsu
	}
	1573.3.20={
		holder=10056016 # Kobayakawa Takakage
	}

}
