c_nmih_muroran = {
	1.1.1 = { change_development_level = 0 }
	100.1.1 = { change_development_level = 0 }
	900.1.1 = { change_development_level = 0 }
	1600.1.1 = { change_development_level = 20 }
	1799.1.1 = { change_development_level = 20 }

	0100.1.1={
	}
	1170.1.1={
		liege="d_nmih_iburi"
		holder=10150103 # Kakinsu
	}
	1210.1.1={
		liege=0
		holder=0 # 
	}
	1420.1.1={
		holder=10150500
	}
	1457.5.15={
		holder=10150502
	}
	1515.6.22={
		holder=10150504
	}
	1560.1.1={
		holder=10150505 #Kuturayn
	}
	1575.3.15={
		holder=10150506 #Kaera
	}
}
