c_nmih_niitoi = {
	1.1.1 = { change_development_level = 0 }
	100.1.1 = { change_development_level = 0 }
	1400.1.1 = { change_development_level = 0 }

	0100.1.1={
	}
	1170.1.1={
		liege="d_nmih_shisuka"
		holder=10155600 # Naebo
	}
	1210.1.1={
		liege=0
		holder=0 # 
	}
	1270.1.1={
		holder=10157221
	}
	1310.1.1={
		liege=0
		holder=0 # 
	}
	1450.1.1={
		liege="d_nmih_shisuka"
		holder=10155500
	}
	1510.1.1={
		holder=10155501
	}
	1550.1.1={
		holder=10155502
	}
}
