c_nmih_nishi = {
	1.1.1 = { change_development_level = 0 }
	100.1.1 = { change_development_level = 0 }
	900.1.1 = { change_development_level = 0 }
	1442.1.1 = { change_development_level = 10 }
	1528.6.1 = { change_development_level = 10 }

	0100.1.1={
	}
	1170.1.1={
		liege=0
		holder=10150100 # Kinkana
	}
	1210.1.1={
		liege=0
		holder=0 # 
	}
	1457.1.1={
		liege="d_nmih_wajinchi"
		holder=10159001 # Kakizaki Nobuhiro
	}
	1493.6.23={
		holder=10159002 # Kakizaki Mitsuhiro
	}
	1518.8.18={
		holder=10159000 # Kakizaki Yoshihiro
	}
	1525.2.1={
		liege="d_nmih_sum_kur"
		holder=10150000 #Tanakasashi
	}
	1529.3.26={
		holder=10150002 #Tarikona
	}
	1536.6.23={
		holder=10150003 #Hashitayn
	}
	1570.1.1={
		holder=10150004 #Totake
	}
}
