c_nmih_oshoro = {
	1.1.1 = { change_development_level = 0 }
	100.1.1 = { change_development_level = 0 }
	900.1.1 = { change_development_level = 0 }
	1600.1.1 = { change_development_level = 10 }
	1674.2.1 = { change_development_level = 10 }

	0100.1.1={
	}
	1170.1.1={
		liege="d_nmih_shiribeshi"
		holder=10155102 # Sitakapet
	}
	1210.1.1={
		liege=0
		holder=0 # 
	}
	1270.1.1={
		holder=10157201
	}
	1310.1.1={
		liege=0
		holder=0 # 
	}
	1450.1.1={
		liege="d_nmih_shiribeshi"
		holder=10155003
	}
	1490.1.1={
		holder=10155000
	}
	1530.1.1={
		holder=10155001
	}
	1560.1.1={
		holder=10155002
	}

}
