c_nmih_rutaka = {
	1.1.1 = { change_development_level = 0 }
	100.1.1 = { change_development_level = 0 }
	1200.1.1 = { change_development_level = 0 }

	0100.1.1={
	}
	1170.1.1={
		holder=10156100 # Maukaaino
	}
	1210.1.1={
		holder=0 # 
	}
	1280.1.1={
		holder=10157224
	}
	1340.1.1={
		liege=0
		holder=0 # 
	}
	1455.1.1={
		holder=10156000
	}
	1515.1.1={
		holder=10156001
	}
	1575.1.1={
		holder=10156002
	}

}
