c_nmih_saga = {
	1.1.1 = { change_development_level = 30 }
	1100.1.1 = { change_development_level = 30 }
	1331.1.1 = { change_development_level = 30 }
	1547.1.1 = { change_development_level = 30 }
	1600.1.1 = { change_development_level = 30 }

	100.1.1={
	}
	220.1.1={
		holder=10290090 # Oyodohime
		liege=d_nmih_chikuzen
	}
	295.1.1={
		holder=10290093 # Oarata
		liege=0
	}
	1180.1.1={
		liege="d_nmih_hizen"
		holder=10240113	# Takagi Muneie
	}
	1200.1.1={
		liege=0
		holder=0 # 
	}
	1468.1.1={
		holder=10068001 # Shoni Masasuke
	}
	1497.5.21={
		holder=10068000 # Shoni Sukemoto
	}
	1536.9.19={
		holder=10057002 # Ouchi Yoshitaka
	}
	1540.1.11={
		holder=10068003 # Shoni Fuyuhisa
	}
	1547.1.1={
		holder=10068320 # Ryuzoji Takanobu
	}
}
