c_nmih_samani = {
	1.1.1 = { change_development_level = 0 }
	100.1.1 = { change_development_level = 0 }
	900.1.1 = { change_development_level = 0 }
	1600.1.1 = { change_development_level = 10 }
	1799.1.1 = { change_development_level = 10 }

	0100.1.1={
	}
	1170.1.1={
		liege="d_nmih_menasi_kur"
		holder=10151600 # Tanroin
	}
	1210.1.1={
		liege=0
		holder=0 # 
	}
	1370.1.1={
		liege=d_nmih_menasi_kur
		holder=10151550
	}
	1400.1.1={
		holder=10151555
	}
	1430.1.1={
		holder=10151551
	}
	1450.1.1={
		holder=10151556
	}
	1490.1.1={
		holder=10151500
	}
	1530.1.1={
		holder=10151501
	}
	1550.1.1={
		holder=10151502
	}
	1590.1.1={
		holder=10151503
	}

}
