c_nmih_shana = {
	1.1.1 = { change_development_level = 0 }
	100.1.1 = { change_development_level = 0 }
	1200.1.1 = { change_development_level = 0 }
	1800.1.1 = { change_development_level = 10 }
	1806.1.1 = { change_development_level = 10 }

	0100.1.1={
	}
	1170.1.1={
		liege="d_nmih_chishima"
		holder=10153100 # Atoi
	}
	1210.1.1={
		liege=0
		holder=0 # 
	}
	1450.1.1={
		liege="d_nmih_chishima"
		holder=10153000
	}
	1510.1.1={
		holder=10153001
	}

}
