c_nmih_taka = {
	1.1.1 = { change_development_level = 10 }
	1100.1.1 = { change_development_level = 10 }
	1331.1.1 = { change_development_level = 10 }

	100.1.1={
	}
	1179.12.18={
		liege = "d_nmih_harima"
		holder=10110070 # Taira Yukimori
	}
	1183.8.17={
		liege=0
		holder=0 # Taira's escape to the west
	}
	1467.7.1={
		holder=10053518 # Akamatsu Masanori
	}
	1496.6.6={
		holder=10053519 # Akamatsu Yoshimura
	}
	1520.10.1={
		holder=10053502 # Akamatsu Harumasa
	}
	1565.2.16={
		holder=10053533 # Akamatsu Yoshisuke
	}
	1570.1.1={
		holder=10053536 # Akamatsu Norifusa
	}
	1577.10.1={
		liege="d_nmih_harima"
	}
}
