c_nmih_tokoro = {
	1.1.1 = { change_development_level = 0 }
	100.1.1 = { change_development_level = 0 }
	900.1.1 = { change_development_level = 0 }

	0100.1.1={
	}
	1170.1.1={
		liege=0
		holder=10154602 # Shuren
	}
	1210.1.1={
		liege=0
		holder=0 # 
	}
	1390.1.1={
		holder=10151803
	}
	1450.1.1={
		holder=10151804
	}
	1485.1.1={
		holder=10151800
	}
	1530.1.1={
		holder=10151801
	}
	1550.1.1={
		holder=10151802
	}

}
