c_nmih_tsugaru1 = {
	1.1.1 = { change_development_level = 0 }
	100.1.1 = { change_development_level = 0 }
	900.1.1 = { change_development_level = 0 }
	1180.1.1 = { change_development_level = 20 }
	1400.1.1 = { change_development_level = 30 }
	1420.1.1 = { change_development_level = 40 }
	1600.1.1 = { change_development_level = 50 }

	0100.1.1={
	}
	1170.1.1={
		liege=0
		holder=10159990 # Matsumae Yoshiyuki
	}
	1210.1.1={
		liege=0
		holder=0 # 
	}
	1457.1.1={
		liege="k_nmih_wajinchi"
		holder=10000124 # Ando Sadasue
	}
	1485.1.1={
		holder=10000125 # Ando Tsunesue
	}
	1496.12.30={
		holder=10159401 # Aihara Suetane
	}
	1513.6.27={
		holder=10159002 # Kakizaki Mitsuhiro
	}
	1518.8.18={
		holder=10159000 # Kakizaki Yoshihiro
	}
	1545.9.24={
		holder=10159003 # Kakizaki Suehiro
	}
}
