c_nmih_ushiro = {
	1.1.1 = { change_development_level = 0 }
	100.1.1 = { change_development_level = 0 }
	1400.1.1 = { change_development_level = 0 }
	1859.1.1 = { change_development_level = 0 }
	1865.1.1 = { change_development_level = 10 }

	0100.1.1={
	}
	1170.1.1={
		liege="d_nmih_esutoru"
		holder=10156600 # Chiuere
	}
	1210.1.1={
		liege=0
		holder=0 # 
	}
	1270.1.1={
		holder=10157222
	}
	1310.1.1={
		liege=0
		holder=0 # 
	}
	1435.1.1={
		liege="d_nmih_esutoru"
		holder=10156500
	}
	1495.1.1={
		holder=10156501
	}
	1535.1.1={
		holder=10156502
	}
	1555.1.1={
		holder=10156503
	}
}
