c_nmih_uwa = {
	1.1.1 = { change_development_level = 20 }
	1100.1.1 = { change_development_level = 20 }
	1483.1.1 = { change_development_level = 30 }

	100.1.1={
	}
	1180.1.1={
		liege=0
		holder=12690607 # Tachibana Kiminaga
	}
	1181.1.6={
		liege="d_nmih_awa"
		holder=12690001 # Awata Shigeyoshi
	}
	1185.1.1={
		liege=0
		holder=0 # 
	}
	1440.1.1={
		holder=10058707 # Saionji Kintoshi
	}
	1480.1.1={
		holder=10058701 # Saionji Kinsue
	}
	1504.1.1={
		holder=10058700 # Saionji Kinie
	}
	1544.1.1={
		holder=10058702 # Saionji Sanemitsu
	}
	1565.1.1={
		holder=10058714 # Saionji Kinhiro
	}
}
