d_nmih_chikugo = {
	0100.1.1={
	}
	0701.1.1={
		liege="e_nmih_tenno"
	}
	764.11.6={
		holder=10041023 # Empress Koken/Shotoku
	}
	1180.1.1={
		liege=0
		holder=0 # 
	}
	1206.1.1={
		holder=10130538 # Otomo Yoshinao
	}
	1223.12.20={
		holder=0
	}
	1241.1.1={
		holder=10131970 # Hojo Tokiaki
	}
	1272.1.1={
		holder=10064006 # Otomo Yoriyasu
	}
	1277.1.1={
		holder=10131999 # Hojo Munemasa
	}
	1281.1.1={
		holder=0
	}
	1286.1.1={
		holder=10068025 # Shoni Moritsune
	}
	1288.1.1={
		holder=0
	}
	1295.1.1={
		holder=0 # Utsunomiya Michifusa
	}
	1305.9.2={
		holder=0 # Utsunomiya Yorifusa
	}
	1315.1.1={
		holder=0
	}
	1317.2.1={
		holder=10132256 # Hojo Yukitoki
	}
	1321.12.25={
		holder=10132200 # Hojo Hidetoki
	}
	1333.7.1={
		holder=0
	}
	1334.1.9={
		holder=12130051 # Kii Fuyutsuna
	}
	1349.1.1={
		holder=0 # Takuma Munenao
	}
	1363.1.1={
		holder=10064014 # Otomo Ujitoki
	}
	1364.1.1={
		holder=10064015 # Otomo Ujitsugu
	}
	1375.1.1={
		holder=10060029 # Shimazu Ujihisa
	}
	1375.7.1={
		holder=12395221 # Imagawa Sadayo
	}
	1391.1.1={
		holder=10064016 # Otomo Chikayo
	}
	1401.1.1={
		holder=10064017 # Otomo Chikaaki
	}
	1427.1.1={
		holder=10066007 # Kikuchi Mochitomo
	}
	1446.8.2={
		holder=10066006 # Kikuchi Tamekuni
	}
	1466.1.1={
		holder=10066005 # Kikuchi Shigetomo
	}
	1469.1.1={
		holder=10064020 # Otomo Chikashige
	}
	1476.1.1={
		holder=10064022 # Otomo Masachika
	}
	1484.1.1={
		holder=10064024 # Otomo Yoshisuke
	}
	1496.7.7={
		holder=10064022 # Otomo Masachika
	}
	1496.7.20={
		holder=10064023 # Otomo Chikaharu
	}
	1497.1.1={
		holder=10064001 # Otomo Yoshinaga
	}
	1515.1.1={
		holder=0
	}
}
