d_nmih_nanghael_wei = {
	1412.1.1={
		liege="d_nmih_nanghael_wei"
		holder=10158010
	}
	1420.1.1={
		holder=10158011
	}
	1450.1.1={
		holder=10158012
	}
	1490.1.1={
		holder=10158000
	}
	1530.1.1={
		holder=10158001
	}
	1550.1.1={
		holder=10158002
	}
	1580.1.1={
		holder=10158003
	}
}
