d_nmih_oshu_shugo = {
	100.1.1={
	}
	1335.8.28={
		holder=12071020 # Date Yukitomo
	}
	1348.6.6={
		holder=12071025 # Date Munetoo
	}
	1385.6.28={
		holder=12071030 # Date Masamune
	}
	1405.10.7={
		holder=12071033 # Date Ujimune
	}
	1412.8.24={
		liege=0
		holder=12071035 # Date Mochimune
	}
	1469.2.19={
		holder=12071040 # Date Narimune
	}
	1487.10.11={
		holder=12071045 # Date Hisamune
	}
	1514.5.28={
		holder=10001001 # Date Tanemune
	}
	1542.6.1={
		liege=0 # Tenbun War
		holder=10001002 # Date Harumune
	}
	1555.1.1={
		liege="k_nmih_oshu_tandai" # Date became Oshu Tandai.
	}
	1564.1.1={
		holder=10001021 # Date Terumune
	}
	1584.10.6={
		holder=10001035 # Date Masamune
	}

}
