d_nmih_southern_omi = {
	100.1.1={
	}
	1334.1.1={
		liege="e_nmih_japan"
		holder=10044007 # Rokkaku Ujiyori
	}
	1370.6.30={
		holder=10044008 # Rokkaku Mitsutaka
	}
	1416.12.6={
		holder=10044010 # Rokkaku Mitsutsuna
	}
	1441.10.1={
		holder=10044013 # Rokkaku Mochitsuna
	}
	1445.3.1={
		liege=0
		holder=10044012 # Rokkaku Tokitsuna
	}
	1446.10.4={
		liege="e_nmih_japan"
		holder=10044011 # Rokkaku Hisayori
	}
	1456.11.8={
		holder=10044001 # Rokkaku Takayori
	}
	1487.9.28={
		liege=0
	}
	1495.12.1={
		liege="e_nmih_japan"
	}
	1507.8.1={
		liege=0
	}
	1508.7.28={
		liege="k_nmih_southern_kinai"
	}
	1511.9.6={
		liege=0
	}
	1520.12.9={
		holder=10044000 # Rokkaku Sadayori
	}
	1552.1.21={
		holder=10044003 # Rokkaku Yoshikata
	}
	1575.1.1={
		liege=0
		holder=0 # 
	}
}
