k_nmih_hokuriku = {
	0001.1.1={
	}
	1179.12.18={
		liege="e_nmih_japan"
		holder=10110032 # Taira Norimori
	}
	1183.6.22={
		liege=0
		holder=10120084 # Minamoto [Kiso] Yoshinaka. Battle of Shinohara
	}
	1183.8.17={
		holder=0
	}
	1582.6.21={ # Honno-ji Incident
		liege=0
		holder=10029280 # Shibata Katsuie
	}

}
