k_nmih_kanrei = {
	1000.1.1={
	}
	1000.1.1={
		liege="e_nmih_japan"
	}
	1367.1.1 = {
		holder = 10040535 # Hosokawa Yoriyuki
	}
	1412.3.1 = {
		holder = 10040538 # Hosokawa Mitsumoto
	}
	1432.1.1 = {
		holder = 10040539 # Hosokawa Mochiyuki
	}
	1445.1.1 = {
		holder = 10040543 # Hosokawa Katsumoto
	}
	1452.1.1 = {
		holder = 10040543 # Hosokawa Katsumoto
	}
	1467.1.1 ={ # De facto
		holder = 10040543 # Hosokawa Katsumoto
	}
	1473.6.6={ # De facto
		holder = 10040544 # Hosokawa Masamoto
	}
	1507.8.1 = {
		holder = 10040567 # Hosokawa Sumiyuki
	}
	1507.9.7 = {
		holder = 10040501 # Hosokawa Sumimoto
	}
	1508.7.18 = {
		holder = 10040566 # Hosokawa Takakuni
	}
	1527.3.14={
		liege=0
		holder = 10040500 # Hosokawa Harumoto, De-Facto Kanrei
	}
	1534.1.1={
		liege="e_nmih_japan"
	}
	1549.7.18={
		holder=0
	}

}
