k_nmih_sanyo = {
	1179.12.18={
		liege="e_nmih_japan"
		holder=10110042 # Taira Munemori
	}
	1181.3.20={
		holder=0
	}
	1582.6.21={ # Honno-ji Incident
		liege=0
		holder=10029400 # Hashiba Hideyoshi
	}
}
