﻿12150100={
	name=character_name_12150100 # Tsunekane
	dynasty=10000116 # Chiba
	father=10110530 # Taira Tsunenaga
	religion="shinto"
	culture="eastern_kanto"
	learning=6
	prowess=10
	1045.9.28={
		birth=yes
	}
	1126.4.4={
		trait="jugoi_ge"
		give_nickname="nick_jio"
		death=yes
	}
}
12150110={
	name=character_name_12150110 # Tsuneshige
	dynasty=10000116 # Chiba
	father=12150100 # Chiba Tsunekane
	religion="shinto"
	culture="eastern_kanto"
	learning=5
	prowess=11
	1083.4.18={
		birth=yes
	}
	1126.4.4={
		give_nickname="nick_the_shimousa_no_suke"
	}
	1180.5.28={
		death=yes
	}
}
12150111={
	name=character_name_12150111 # Tsuneyasu
	dynasty=10000116 # Chiba
	father=12150100 # Chiba Tsunekane
	religion="shinto"
	culture="eastern_kanto"
	learning=6
	prowess=12
	1106.1.1={
		birth=yes
	}
	1116.1.1={
		dynasty=10007022 # Usui
	}
	1186.1.1={
		give_nickname="nick_rokuro"
		death=yes
	}
}
12150112={
	name=character_name_12150112 # Tsunetsuna
	dynasty=10000116 # Chiba
	father=12150100 # Chiba Tsunekane
	religion="shinto"
	culture="eastern_kanto"
	learning=6
	prowess=9
	1087.1.1={
		birth=yes
	}
	1107.1.1={
		dynasty=10007167 # Sosa
	}
	1137.1.1={
		death=yes
	}
}
12150113={
	name=character_name_12150113 # Tsunehiro
	dynasty=10000116 # Chiba
	father=12150100 # Chiba Tsunekane
	religion="shinto"
	culture="eastern_kanto"
	learning=5
	prowess=11
	1089.1.1={
		birth=yes
	}
	1139.1.1={
		death=yes
	}
}
12150114={
	name=character_name_12150114 # Tsunehira
	dynasty=10000116 # Chiba
	father=12150100 # Chiba Tsunekane
	religion="shinto"
	culture="eastern_kanto"
	learning=6
	prowess=12
	1093.1.1={
		birth=yes
	}
	1113.1.1={
		dynasty=10007023 # Unakami
	}
	1143.1.1={
		death=yes
	}
}
12150120={
	name=character_name_12150120 # Tsunetane
	dynasty=10000116 # Chiba
	father=12150110 # Chiba Tsuneshige
	religion="shinto"
	culture="eastern_kanto"
	martial=5
	diplomacy=6
	intrigue=7
	stewardship=5
	learning=7
	trait="education_diplomacy_3"
	trait="brave"
	trait="content"
	trait="compassionate"
	prowess=10
	1118.6.14={
		birth=yes
	}
	1140.1.1={
		add_spouse=12200050 # daughter of Chichibu Shigehiro
	}
	1180.5.28={
		give_nickname="nick_the_shimousa_no_suke"
	}
	1201.4.28={
		death=yes
	}
}
12150121={
	name=character_name_12150121 # Tanesumi
	dynasty=10000116 # Chiba
	father=12150110 # Chiba Tsuneshige
	religion="shinto"
	culture="eastern_kanto"
	learning=6
	prowess=12
	1119.1.1={
		birth=yes
	}
	1169.1.1={
		death=yes
	}
}
12150122={
	name=character_name_12150122 # Tanemitsu
	dynasty=10000116 # Chiba
	father=12150110 # Chiba Tsuneshige
	religion="shinto"
	culture="eastern_kanto"
	learning=7
	prowess=11
	1120.1.1={
		birth=yes
	}
	1136.1.1={
		give_nickname="nick_goro"
	}
	1140.1.1={
		dynasty=10000310 # Shiina
	}
	1190.1.1={
		death=yes
	}
}
12150123={
	name=character_name_12150123 # Tanemasa
	dynasty=10000116 # Chiba
	father=12150120 # Chiba Tsunetane
	mother=12200050 # daughter of Shibuya Shigehiro
	religion="shinto"
	culture="eastern_kanto"
	learning=7
	prowess=10
	1141.5.8={
		birth=yes
	}
	1201.4.28={
		give_nickname="nick_the_shimousa_no_suke"
	}
	1202.1.1={
		trait="jugoi_ge"
	}
	1203.8.28={
		death=yes
	}
}
12150124={
	name=character_name_12150124 # Morotsune
	dynasty=10000116 # Chiba
	father=12150120 # Chiba Tsunetane
	mother=12200050 # daughter of Shibuya Shigehiro
	religion="shinto"
	culture="eastern_kanto"
	prowess=11
	1143.1.1={
		birth=yes
	}
	1159.1.1={
		give_nickname="nick_jio"
		dynasty=10000067 # Soma
	}
	1205.12.26={
		death=yes
	}
}
12150125={
	name=character_name_12150125 # Tanemori
	dynasty=10000116 # Chiba
	father=12150120 # Chiba Tsunetane
	mother=12200050 # daughter of Shibuya Shigehiro
	religion="shinto"
	culture="eastern_kanto"
	learning=7
	prowess=10
	1146.1.1={
		birth=yes
	}
	1162.1.1={
		give_nickname="nick_saburo"
	}
	1166.1.1={
		dynasty=10007024 # Takeishi
	}
	1215.7.11={
		death=yes
	}
}
12150126={
	name=character_name_12150126 # Tanenobu
	dynasty=10000116 # Chiba
	father=12150120 # Chiba Tsunetane
	mother=12200050 # daughter of Shibuya Shigehiro
	religion="shinto"
	culture="eastern_kanto"
	learning=6
	prowess=10
	1148.1.1={
		birth=yes
	}
	1164.1.1={
		give_nickname="nick_shiro"
	}
	1168.1.1={
		dynasty=10007025 # Osuga
	}
	1215.10.10={
		death=yes
	}
}
12150127={
	name=character_name_12150127 # Tanemichi
	dynasty=10000116 # Chiba
	father=12150120 # Chiba Tsunetane
	mother=12200050 # daughter of Shibuya Shigehiro
	religion="shinto"
	culture="eastern_kanto"
	learning=6
	prowess=11
	1150.1.1={
		birth=yes
	}
	1166.1.1={
		give_nickname="nick_goro"
	}
	1170.1.1={
		dynasty=10007026 # Kokubu
	}
	1210.1.1={
		death=yes
	}
}
12150128={
	name=character_name_12150128 # Taneyori
	dynasty=10000116 # Chiba
	father=12150120 # Chiba Tsunetane
	mother=12200050 # daughter of Shibuya Shigehiro
	religion="shinto"
	culture="eastern_kanto"
	learning=6
	trait="education_diplomacy_3"
	trait="poet"
	prowess=11
	1155.1.1={
		birth=yes
	}
	1171.1.1={
		give_nickname="nick_rokuro"
	}
	1175.1.1={
		dynasty=10000275 # To
		trait="jugoi_ge"
	}
	1179.12.18={
		employer=10110025 # Taira no Kiyomori
	}
	1180.6.20={
		employer=12150120 # Chiba Tsunetane
	}
	1228.11.10={
		death=yes
	}
}
12150129={
	name=character_name_12150129 # Nichiin
	dynasty=10000116 # Chiba
	father=12150120 # Chiba Tsunetane
	religion="shinto"
	culture="kinai_buddhist"
	learning=5
	prowess=11
	1160.1.1={
		birth=yes
	}
	1180.1.1={
		employer=10041245 # Ene, Onjo-ji
	}
	1180.6.20={
		death=yes
	}
}
12150130={
	name=character_name_12150130 # Naritane
	dynasty=10000116 # Chiba
	father=12150123 # Chiba Tanemasa
	religion="shinto"
	culture="eastern_kanto"
	learning=6
	prowess=10
	1155.4.5={
		birth=yes
	}
	1203.8.28={
		give_nickname="nick_the_shimousa_no_suke"
	}
	1218.5.6={
		death=yes
	}
}
12150131={
	name=character_name_12150131 # Tsunehide
	dynasty=10000116 # Chiba
	father=12150123 # Chiba Tanemasa
	religion="shinto"
	culture="eastern_kanto"
	learning=6
	prowess=9
	1165.1.1={
		birth=yes
	}
	1185.1.1={
		dynasty=10007027 # Sakai
		trait="jugoi_ge"
	}
	1235.1.1={
		death=yes
	}
}
12150132={
	female=yes
	name=character_name_12150132 # Masako
	dynasty=10000116 # Chiba
	father=12150123 # Chiba Tanemasa
	religion="shinto"
	culture="eastern_kanto"
	learning=6
	prowess=11
	1167.1.1={
		birth=yes
	}
	1237.1.1={
		death=yes
	}
}
12150135={
	name=character_name_12150135 # Tanetsuna
	dynasty=10000116 # Chiba
	father=12150130 # Chiba Naritane
	religion="shinto"
	culture="eastern_kanto"
	learning=6
	prowess=9
	1198.11.14={
		birth=yes
	}
	1218.5.6={
		give_nickname="nick_the_shimousa_no_suke"
	}
	1228.7.1={
		death=yes
	}
}
12150140={
	name=character_name_12150140 # Tokitane
	dynasty=10000116 # Chiba
	father=12150135 # Chiba Tanetsuna
	religion="shinto"
	culture="eastern_kanto"
	learning=5
	prowess=10
	1218.9.2={
		birth=yes
	}
	1228.7.1={
		give_nickname="nick_the_shimousa_no_suke"
	}
	1241.10.23={
		death=yes
	}
}
12150141={
	name=character_name_12150141 # Yasutane
	dynasty=10000116 # Chiba
	father=12150135 # Chiba Tanetsuna
	religion="shinto"
	culture="eastern_kanto"
	trait="education_learning_3"
	trait="zealous"
	prowess=12
	1220.1.1={
		birth=yes
	}
	1251.1.1={
		death=yes
	}
}
12150145={
	name=character_name_12150145 # Yoritane
	dynasty=10000116 # Chiba
	father=12150140 # Chiba Tokitane
	religion="shinto"
	culture="eastern_kanto"
	learning=7
	prowess=10
	1239.12.16={
		birth=yes
	}
	1241.10.23={
		give_nickname="nick_the_shimousa_no_suke"
	}
	1260.1.1={
		add_spouse=12150181 # Chiba Yasutane's daughter
	}
	1275.9.7={
		death=yes
	}
}
12150146={
	female=yes
	name=character_name_12150146 # Kazuko
	dynasty=10000116 # Chiba
	father=12150140 # Chiba Tokitane
	religion="shinto"
	culture="eastern_kanto"
	learning=5
	prowess=10
	1240.1.1={
		birth=yes
	}
	1290.1.1={
		death=yes
	}
}
12150150={
	name=character_name_12150150 # Munetane
	dynasty=10000116 # Chiba
	father=12150145 # Chiba Yoritane
	mother=12150181 # Chiba Yasutane's daughter
	religion="shinto"
	culture="eastern_kanto"
	learning=5
	prowess=10
	1265.1.1={
		birth=yes
	}
	1281.1.1={
		give_nickname="nick_taro"
	}
	1294.2.12={
		death=yes
	}
}
12150151={
	name=character_name_12150151 # Tanemune
	dynasty=10000116 # Chiba
	father=12150145 # Chiba Yoritane
	mother=12150181 # Chiba Yasutane's daughter
	religion="shinto"
	culture="eastern_kanto"
	learning=7
	prowess=11
	1268.10.31={
		birth=yes
	}
	1291.1.1={
		add_spouse=10132095 # daughter of Hojo Akitoki
	}
	1312.5.5={
		death=yes
	}
}
12150155={
	name=character_name_12150155 # Tanesada
	dynasty=10000116 # Chiba
	father=12150150 # Chiba Munetane
	religion="shinto"
	culture="eastern_kanto"
	learning=7
	prowess=12
	1288.1.1={
		birth=yes
	}
	1336.12.22={
		death=yes
	}
}
12150156={
	name=character_name_12150156 # Taneyasu
	dynasty=10000116 # Chiba
	father=12150150 # Chiba Munetane
	religion="shinto"
	culture="eastern_kanto"
	learning=7
	prowess=9
	1290.1.1={
		birth=yes
	}
	1306.1.1={
		give_nickname="nick_taro"
	}
	1340.1.1={
		death=yes
	}
}
12150160={
	name=character_name_12150160 # Sadatane
	dynasty=10000116 # Chiba
	father=12150151 # Chiba Tanemune
	mother=10132095 # daughter of Hojo Akitoki
	religion="shinto"
	culture="eastern_kanto"
	learning=5
	prowess=10
	1292.1.6={
		birth=yes
	}
	1351.1.28={
		trait="jushii_ge"
		death=yes
	}
}
12150165={
	name=character_name_12150165 # Kazutane
	dynasty=10000116 # Chiba
	father=12150160 # Chiba Sadatane
	religion="shinto"
	culture="eastern_kanto"
	learning=6
	prowess=12
	1315.1.1={
		birth=yes
	}
	1336.2.28={
		death={
			death_reason=death_battle
		}
	}
}
12150166={
	name=character_name_12150166 # Ujitane
	dynasty=10000116 # Chiba
	father=12150160 # Chiba Sadatane
	religion="shinto"
	culture="eastern_kanto"
	learning=6
	prowess=11
	1337.6.10={
		birth=yes
	}
	1355.1.1={
		add_spouse=12185046 # Nitta Yoshisada's daughter
	}
	1365.9.28={
		trait="jugoi_ge"
		trait="poet"
		death=yes
	}
}
12150167={
	female=yes
	name=character_name_12150167 # Otoduru
	dynasty=10000116 # Chiba
	father=12150160 # Chiba Sadatane
	religion="shinto"
	culture="eastern_kanto"
	learning=6
	prowess=9
	1317.1.1={
		birth=yes
	}
	1367.1.1={
		death=yes
	}
}
12150170={
	name=character_name_12150170 # Mitsutane
	dynasty=10000116 # Chiba
	father=12150166 # Chiba Ujitane
	mother=12185046 # Nitta Yoshisada's daughter
	religion="shinto"
	culture="eastern_kanto"
	learning=6
	prowess=12
	1359.1.1={
		birth=yes
	}
	1426.7.12={
		trait="jugoi_ge"
		death=yes
	}
}
12150171={
	name=character_name_12150171 # Shigetane
	dynasty=10000116 # Chiba
	father=12150166 # Chiba Ujitane
	mother=12185046 # Nitta Yoshisada's daughter
	religion="shinto"
	culture="eastern_kanto"
	learning=5
	prowess=11
	1360.1.1={
		birth=yes
	}
	1410.1.1={
		death=yes
	}
}
12150172={
	name=character_name_12150172 # Shoso
	dynasty=10000116 # Chiba
	father=12150166 # Chiba Ujitane
	religion="shinto"
	culture="eastern_kanto"
	learning=6
	prowess=11
	1365.8.16={
		birth=yes
	}
	1376.1.1={
		culture="kanto_buddhist"
		trait="devoted"
	}
	1440.8.15={
		death=yes
	}
}
12150173={
	name=character_name_12150173 # Tanetaka
	dynasty=10000126 # Hara
	father=12150166 # Chiba Ujitane
	religion="shinto"
	culture="eastern_kanto"
	prowess=11
	1365.1.1={
		birth=yes
	}
	1426.1.1={
		death=yes
	}
}
12150175={
	name=character_name_12150175 # Kanetane
	dynasty=10000116 # Chiba
	father=12150170 # Chiba Mitsutane
	religion="shinto"
	culture="eastern_kanto"
	learning=6
	prowess=10
	1392.8.10={
		birth=yes
	}
	1410.1.1={
		add_spouse=10017069 # Uesugi Zenshu's daughter
	}
	1430.7.7={
		death=yes
	}
}
12150176={
	name=character_name_12150176 # Yasutane
	dynasty=10000116 # Chiba
	father=12150170 # Chiba Mitsutane
	religion="shinto"
	culture="eastern_kanto"
	learning=6
	prowess=11
	1398.1.1={
		birth=yes
	}
	1456.11.28={
		death={
			death_reason=death_battle
			killer=12425028 # To no Tsunefuchi
		}
	}
}
12150180={
	name=character_name_12150180 # Hokushin
	female=yes
	dynasty=10000116 # Chiba
	father=12150141 # Chiba Yasutane
	religion="shinto"
	culture="eastern_kanto"
	prowess=11
	1240.1.1={
		birth=yes
	}
	1300.1.1={
		death=yes
	}
}
12150181={
	name=character_name_12150181 # Myoken
	female=yes
	dynasty=10000116 # Chiba
	father=12150141 # Chiba Yasutane
	religion="shinto"
	culture="eastern_kanto"
	prowess=12
	1242.1.1={
		birth=yes
	}
	1300.1.1={
		death=yes
	}
}
12150185={
	name=character_name_12150185 # Takatane
	dynasty=10000116 # Chiba
	father=12150155 # Chiba Tanesada
	religion="shinto"
	culture="eastern_kanto"
	prowess=11
	1310.1.1={
		birth=yes
	}
	1330.1.1={
		death=yes
	}
}
12150186={
	name=character_name_12150186 # Tanehira
	dynasty=10000116 # Chiba
	father=12150155 # Chiba Tanesada
	religion="shinto"
	culture="eastern_kanto"
	prowess=12
	1312.1.1={
		birth=yes
	}
	1335.1.1={
		death=yes
	}
}
12150187={
	name=character_name_12150187 # Tanetsugu
	dynasty=10000116 # Chiba
	father=12150155 # Chiba Tanesada
	religion="shinto"
	culture="eastern_kanto"
	prowess=12
	1314.1.1={
		birth=yes
	}
	1370.1.1={
		death=yes
	}
}
12150300={
	name=character_name_12150300 # Shigetane
	dynasty=10000275 # To
	father=12150128 # To Taneyori
	religion="shinto"
	culture="eastern_kanto"
	learning=7
	trait="poet"
	prowess=10
	1177.1.1={
		birth=yes
	}
	1192.1.1={
		add_spouse=12127810 # daughter of Shimokobe Yukitsuna
	}
	1208.1.1={
		add_spouse=12130011 # daughter of Utsunomiya Tomotsuna
	}
	1247.1.1={
		death=yes
	}
}
12150301={
	name=character_name_12150301 # Taneyasu
	dynasty=10000275 # To
	father=12150128 # To Taneyori
	religion="shinto"
	culture="eastern_kanto"
	learning=6
	prowess=10
	1178.1.1={
		birth=yes
	}
	1228.1.1 ={
		death=yes
	}
}
12150302={
	name=character_name_12150302 # Yoritane
	dynasty=10000275 # To
	father=12150128 # To Taneyori
	religion="shinto"
	culture="eastern_kanto"
	learning=6
	prowess=9
	1179.1.1={
		birth=yes
	}
	1229.1.1={
		death=yes
	}
}
12150303={
	name=character_name_12150303 # Tanetomo
	dynasty=10000275 # To
	father=12150128 # To Taneyori
	religion="shinto"
	culture="eastern_kanto"
	learning=6
	prowess=12
	1187.1.1={
		birth=yes
	}
	1196.1.1={
		add_spouse=12155250
	}
	1203.1.1={
		add_matrilineal_spouse=12155250 # daughter of 2155012:Kiuchi Tsunenori
	}
	1249.5.19={
		death=yes
	}
}
12150304={
	name=character_name_12150304 # Sadatane
	dynasty=10000275 # To
	father=12150300 # To Shigetane
	mother=12127810 # daughter of Shimokobe Yukitsuna
	religion="shinto"
	culture="eastern_kanto"
	learning=6
	prowess=12
	1193.1.1={
		birth=yes
	}
	1214.1.1={
		death=yes
	}
}
12150305={
	name=character_name_12150305 # Taneyuki
	dynasty=10000275 # To
	father=12150300 # To Shigetane
	mother=12127810 # daughter of Shimokobe Yukitsuna
	religion="shinto"
	culture="eastern_kanto"
	learning=6
	prowess=9
	1194.1.1={
		birth=yes
	}
	1273.10.3={
		trait="poet"
		death=yes
	}
}
12150306={
	name=character_name_12150306 # Tanekata
	dynasty=10000275 # To
	father=12150300 # To Shigetane
	mother=12130011 # daughter of Utsunomiya Tomotsuna
	religion="shinto"
	culture="eastern_kanto"
	learning=5
	prowess=9
	1210.1.1={
		birth=yes
	}
	1230.1.1={
		dynasty=10007279 # Unakami
	}
	1260.1.1={
		death=yes
	}
}
12150307={
	name=character_name_12150307 # Taneari
	dynasty=10000275 # To
	father=12150300 # To Shigetane
	mother=12130011 # daughter of Utsunomiya Tomotsuna
	religion="shinto"
	culture="eastern_kanto"
	learning=7
	prowess=11
	1212.1.1={
		birth=yes
	}
	1262.1.1={
		death=yes
	}
}
12150308={
	name=character_name_12150308 # Tanehisa
	dynasty=10000275 # To
	father=12150300 # To Shigetane
	mother=12130011 # daughter of Utsunomiya Tomotsuna
	religion="shinto"
	culture="eastern_kanto"
	learning=7
	prowess=10
	1214.1.1={
		birth=yes
	}
	1264.1.1={
		death=yes
	}
}
12150310={
	name=character_name_12150310 # Yasuyuki
	dynasty=10000275 # To
	father=12150305 # Chiba Taneyuki
	religion="shinto"
	culture="eastern_kanto"
	learning=6
	prowess=10
	1212.1.1={
		birth=yes
	}
	1282.1.1={
		death=yes
	}
}
12150311={
	name=character_name_12150311 # Yukiuji
	dynasty=10000275 # To
	father=12150305 # Chiba Taneyuki
	religion="shinto"
	culture="eastern_kanto"
	learning=6
	prowess=11
	1228.1.1={
		birth=yes
	}
	1300.10.2={
		death=yes
	}
}
12150313={
	name=character_name_12150313 # Yoshiyuki
	dynasty=10000275 # To
	father=12150305 # Chiba Taneyuki
	religion="shinto"
	culture="eastern_kanto"
	learning=8
	prowess=10
	1230.1.1={
		birth=yes
	}
	1280.1.1={
		death=yes
	}
}
12150314={
	female=yes
	name=character_name_12150314 # Yukiko
	dynasty=10000275 # To
	father=12150305 # Chiba Taneyuki
	religion="shinto"
	culture="eastern_kanto"
	learning=5
	prowess=12
	1231.1.1={
		birth=yes
	}
	1281.1.1={
		death=yes
	}
}
12150315={
	female=yes
	name=character_name_12150315 # Nakatsukasa
	dynasty=10000275 # To
	father=12150305 # Chiba Taneyuki
	religion="shinto"
	culture="eastern_kanto"
	learning=6
	prowess=11
	1233.1.1={
		birth=yes
	}
	1283.1.1={
		trait="poet"
		death=yes
	}
}
12150316={
	female=yes
	name=character_name_12150316 # Yasuko 
	dynasty=10000275 # To
	father=12150305 # Chiba Taneyuki
	religion="shinto"
	culture="eastern_kanto"
	learning=5
	prowess=10
	1235.1.1={
		birth=yes
	}
	1285.1.1={
		death=yes
	}
}
12150317={
	name=character_name_12150317 # Moritane
	dynasty=10000275 # To
	father=12150305 # Chiba Taneyuki
	religion="shinto"
	culture="eastern_kanto"
	learning=6
	prowess=11
	1242.1.1={
		birth=yes
	}
	1299.8.1={
		death=yes
	}
}
12150318={
	name=character_name_12150318 # Ujimura
	dynasty=10000275 # To
	father=12150305 # Chiba Taneyuki
	religion="shinto"
	culture="eastern_kanto"
	learning=7
	prowess=11
	1273.1.1={
		birth=yes
	}
	1377.9.4={
		trait="poet"
		death=yes
	}
}
12150320={
	name=character_name_12150320 # Yukinaga
	dynasty=10000275 # To
	father=12150310 # To Yasuyuki
	religion="shinto"
	culture="eastern_kanto"
	learning=4
	prowess=11
	1230.1.1={
		birth=yes
	}
	1280.1.1={
		death=yes
	}
}
12150321={
	name=character_name_12150321 # Yoriyuki
	dynasty=10000275 # To
	father=12150310 # To Yasuyuki
	religion="shinto"
	culture="eastern_kanto"
	learning=6
	prowess=10
	1232.1.1={
		birth=yes
	}
	1282.1.1={
		death=yes
	}
}
12150322={
	name=character_name_12150322 # Moriyuki
	dynasty=10000275 # To
	father=12150310 # To Yasuyuki
	religion="shinto"
	culture="eastern_kanto"
	learning=8
	prowess=12
	1234.1.1={
		birth=yes
	}
	1284.1.1={
		death=yes
	}
}
12150323={
	name=character_name_12150323 # Yasutane
	dynasty=10000275 # To
	father=12150310 # To Yasuyuki
	religion="shinto"
	culture="eastern_kanto"
	learning=8
	prowess=10
	1240.1.1={
		birth=yes
	}
	1290.1.1={
		death=yes
	}
}
12150324={
	name=character_name_12150324 # Yasuie
	dynasty=10000275 # To
	father=12150310 # To Yasuyuki
	religion="shinto"
	culture="eastern_kanto"
	learning=5
	prowess=9
	1245.1.1={
		birth=yes
	}
	1295.1.1={
		death=yes
	}
}
12150330={
	name=character_name_12150330 # Yukimune
	dynasty=10000275 # To
	father=12150320 # To Yukinaga
	religion="shinto"
	culture="eastern_kanto"
	learning=6
	prowess=11
	1270.1.1={
		birth=yes
	}
	1333.1.1={
		death=yes
	}
}
12150331={
	name=character_name_12150331 # Yukitane
	dynasty=10000275 # To
	father=12150320 # To Yukinaga
	religion="shinto"
	culture="eastern_kanto"
	learning=6
	prowess=11
	1271.1.1={
		birth=yes
	}
	1345.1.1={
		death=yes
	}
}
12150332={
	name=character_name_12150332 # Tanekore
	dynasty=10000275 # To
	father=12150320 # To Yukinaga
	religion="shinto"
	culture="eastern_kanto"
	learning=6
	prowess=10
	1272.1.1={
		birth=yes
	}
	1322.1.1={
		death=yes
	}
}
12150333={
	name=character_name_12150333 # Taneteru
	dynasty=10000275 # To
	father=12150320 # To Yukinaga
	religion="shinto"
	culture="eastern_kanto"
	learning=7
	prowess=10
	1273.1.1={
		birth=yes
	}
	1323.1.1={
		death=yes
	}
}
12150340={
	name=character_name_12150340 # Taneaki
	dynasty=10000275 # To
	father=12150330 # To Yukimune
	religion="shinto"
	culture="eastern_kanto"
	learning=4
	prowess=12
	1300.1.1={
		birth=yes
	}
	1360.1.1={
		death=yes
	}
}
12150345={
	name=character_name_12150345 # Tanehide
	dynasty=10000275 # To
	father=12150340 # To Taneaki
	religion="shinto"
	culture="eastern_kanto"
	learning=5
	prowess=11
	1325.1.1={
		birth=yes
	}
	1375.1.1={
		death=yes
	}
}
12150346={
	name=character_name_12150346 # Taneuji
	dynasty=10000275 # To
	father=12150340 # To Taneaki
	religion="shinto"
	culture="eastern_kanto"
	learning=5
	prowess=10
	1326.1.1={
		birth=yes
	}
	1376.1.1={
		death=yes
	}
}
12150347={
	name=character_name_12150347 # Tanemoto
	dynasty=10000275 # To
	father=12150346 # To Taneuji
	religion="shinto"
	culture="eastern_kanto"
	learning=6
	prowess=12
	1351.1.1={
		birth=yes
	}
	1401.1.1={
		death=yes
	}
}
12150350={
	name=character_name_12150350 # Tanemitsu
	dynasty=10000275 # To
	father=12150345 # To Tanehide
	religion="shinto"
	culture="eastern_kanto"
	learning=6
	prowess=11
	1350.1.1={
		birth=yes
	}
	1400.1.1={
		death=yes
	}
}
12150355={
	name=character_name_12150355 # Mitsuaki
	dynasty=10000275 # To
	father=12150350 # To Tanemitsu
	religion="shinto"
	culture="eastern_kanto"
	learning=5
	prowess=10
	1375.1.1={
		birth=yes
	}
	1425.1.1={
		death=yes
	}
}
12150400={
	name=character_name_12150400 # Tokimichi
	dynasty=10007026 # Kokubu
	father=12150127 # Kokubu Tanemichi
	religion="shinto"
	culture="eastern_kanto"
	learning=4
	prowess=11
	1180.1.1={
		birth=yes
	}
	1250.1.1={
		death=yes
	}
}
12150402={
	name=character_name_12150402 # Tsunemichi
	dynasty=10007026 # Kokubu
	father=12150127 # Kokubu Tanemichi
	religion="shinto"
	culture="eastern_kanto"
	learning=6
	prowess=10
	1181.1.1={
		birth=yes
	}
	1231.1.1={
		death=yes
	}
}
12150403={
	name=character_name_12150403 # Chikatane
	dynasty=10007026 # Kokubu
	father=12150127 # Kokubu Tanemichi
	religion="shinto"
	culture="eastern_kanto"
	learning=8
	prowess=12
	1182.1.1={
		birth=yes
	}
	1232.1.1={
		death=yes
	}
}
12150404={
	name=character_name_12150404 # Arimichi
	dynasty=10007026 # Kokubu
	father=12150127 # Kokubu Tanemichi
	religion="shinto"
	culture="eastern_kanto"
	learning=6
	prowess=10
	1185.1.1={
		birth=yes
	}
	1235.1.1={
		death=yes
	}
}
12150405={
	name=character_name_12150405 # Tsuneyoshi
	dynasty=10007026 # Kokubu
	father=12150127 # Kokubu Tanemichi
	religion="shinto"
	culture="eastern_kanto"
	learning=6
	prowess=11
	1186.1.1={
		birth=yes
	}
	1236.1.1={
		death=yes
	}
}
12150407={
	name=character_name_12150407 # Tsunetomo
	dynasty=10007026 # Kokubu
	father=12150402 # Kokubu Tsunemichi
	religion="shinto"
	culture="eastern_kanto"
	learning=6
	prowess=9
	1211.1.1={
		birth=yes
	}
	1261.1.1={
		death=yes
	}
}
12150410={
	name=character_name_12150410 # Shigetsune
	dynasty=10007026 # Kokubu
	father=12150407 # Kokubu Tsunetomo
	religion="shinto"
	culture="eastern_kanto"
	learning=8
	prowess=11
	1241.1.1={
		birth=yes
	}
	1291.1.1={
		death=yes
	}
}
12150411={
	name=character_name_12150411 # Tomotane
	dynasty=10007026 # Kokubu
	father=12150407 # Kokubu Tsunetomo
	religion="shinto"
	culture="eastern_kanto"
	learning=7
	prowess=11
	1245.1.1={
		birth=yes
	}
	1295.1.1={
		death=yes
	}
}
12150415={
	name=character_name_12150415 # Taneshige
	dynasty=10007026 # Kokubu
	father=12150410 # Kokubu Shigetsune
	religion="shinto"
	culture="eastern_kanto"
	learning=5
	prowess=10
	1270.1.1={
		birth=yes
	}
	1330.1.1={
		death=yes
	}
}
12150416={
	name=character_name_12150416 # Doko
	dynasty=10007026 # Kokubu
	father=12150410 # Kokubu Shigetsune
	religion="shinto"
	culture="eastern_kanto"
	learning=6
	prowess=12
	1275.1.1={
		birth=yes
	}
	1325.1.1={
		death=yes
	}
}
12150420={
	name=character_name_12150420 # Tanetsura
	dynasty=10007026 # Kokubu
	father=12150415 # Kokubu Taneshige
	religion="shinto"
	culture="eastern_kanto"
	learning=6
	prowess=11
	1295.1.1={
		birth=yes
	}
	1345.1.1={
		death=yes
	}
}
12150421={
	name=character_name_12150421 # Raikaku
	dynasty=10007026 # Kokubu
	father=12150415 # Kokubu Taneshige
	religion="shinto"
	culture="eastern_kanto"
	learning=7
	prowess=12
	1300.1.1={
		birth=yes
	}
	1350.1.1={
		death=yes
	}
}
12150425={
	name=character_name_12150425 # Tanekazu
	dynasty=10007026 # Kokubu
	father=12150420 # Kokubu Tanetsura
	religion="shinto"
	culture="eastern_kanto"
	learning=6
	prowess=11
	1320.1.1={
		birth=yes
	}
	1370.1.1={
		death=yes
	}
}
12150430={
	name=character_name_12150430 # Tomotoshi
	dynasty=10007026 # Kokubu
	father=12150411 # Kokubu Tomotane
	religion="shinto"
	culture="eastern_kanto"
	learning=8
	prowess=11
	1270.1.1={
		birth=yes
	}
	1320.1.1={
		death=yes
	}
}
12150431={
	name=character_name_12150431 # Mitsutane
	dynasty=10007026 # Kokubu
	father=12150411 # Kokubu Tomotane
	religion="shinto"
	culture="eastern_kanto"
	learning=7
	prowess=12
	1272.1.1={
		birth=yes
	}
	1322.1.1={
		death=yes
	}
}
12150432={
	name=character_name_12150432 # Tanemori
	dynasty=10007026 # Kokubu
	father=12150411 # Kokubu Tomotane
	religion="shinto"
	culture="eastern_kanto"
	learning=5
	prowess=9
	1275.1.1={
		birth=yes
	}
	1325.1.1={
		death=yes
	}
}
12150433={
	name=character_name_12150433 # Yasutomo
	dynasty=10007026 # Kokubu
	father=12150411 # Kokubu Tomotane
	religion="shinto"
	culture="eastern_kanto"
	learning=6
	prowess=10
	1279.1.1={
		birth=yes
	}
	1329.1.1={
		death=yes
	}
}
12150434={
	name=character_name_12150434 # Tanetsugu
	dynasty=10007026 # Kokubu
	father=12150411 # Kokubu Tomotane
	religion="shinto"
	culture="eastern_kanto"
	learning=4
	prowess=12
	1280.1.1={
		birth=yes
	}
	1330.1.1={
		death=yes
	}
}
12150436={
	name=character_name_12150436 # Tanetoki
	dynasty=10007026 # Kokubu
	father=12150430 # Kokubu Tomotoshi
	religion="shinto"
	culture="eastern_kanto"
	learning=6
	prowess=12
	1295.1.1={
		birth=yes
	}
	1345.1.1={
		death=yes
	}
}
12150437={
	name=character_name_12150437 # Tomotsuna
	dynasty=10007026 # Kokubu
	father=12150430 # Kokubu Tomotoshi
	religion="shinto"
	culture="eastern_kanto"
	learning=6
	prowess=12
	1300.1.1={
		birth=yes
	}
	1350.1.1={
		death=yes
	}
}
12150440={
	name=character_name_12150440 # Nobutane
	dynasty=10007026 # Kokubu
	father=12150404 # Kokubu Arimichi
	religion="shinto"
	culture="eastern_kanto"
	learning=8
	prowess=9
	1210.1.1={
		birth=yes
	}
	1260.1.1={
		death=yes
	}
}
12150441={
	name=character_name_12150441 # Moroyasu
	dynasty=10007026 # Kokubu
	father=12150404 # Kokubu Arimichi
	religion="shinto"
	culture="eastern_kanto"
	learning=6
	prowess=9
	1215.1.1={
		birth=yes
	}
	1265.1.1={
		death=yes
	}
}
12150445={
	name=character_name_12150445 # Tomomichi
	dynasty=10007026 # Kokubu
	father=12150441 # Kokubu Moroyasu
	religion="shinto"
	culture="eastern_kanto"
	learning=7
	prowess=11
	1240.1.1={
		birth=yes
	}
	1290.1.1={
		death=yes
	}
}
12150446={
	name=character_name_12150446 # Tanemoto
	dynasty=10007026 # Kokubu
	father=12150441 # Kokubu Moroyasu
	religion="shinto"
	culture="eastern_kanto"
	learning=8
	prowess=10
	1245.1.1={
		birth=yes
	}
	1295.1.1={
		death=yes
	}
}
12150447={
	name=character_name_12150447 # Yoriyasu
	dynasty=10007026 # Kokubu
	father=12150441 # Kokubu Moroyasu
	religion="shinto"
	culture="eastern_kanto"
	learning=4
	prowess=10
	1250.1.1={
		birth=yes
	}
	1300.1.1={
		death=yes
	}
}
12150470={
	name=character_name_12150470 # Tanezane
	dynasty=10007026 # Kokubu
	father=12150405 # Kokubu Tsuneyoshi
	religion="shinto"
	culture="eastern_kanto"
	learning=6
	prowess=11
	1206.1.1={
		birth=yes
	}
	1261.1.1={
		death=yes
	}
}
12150471={
	name=character_name_12150471 # Tsuneuji
	dynasty=10007026 # Kokubu
	father=12150405 # Kokubu Tsuneyoshi
	religion="shinto"
	culture="eastern_kanto"
	learning=5
	prowess=9
	1214.1.1={
		birth=yes
	}
	1264.1.1={
		death=yes
	}
}
12150472={
	name=character_name_12150472 # Taneyoshi
	dynasty=10007026 # Kokubu
	father=12150405 # Kokubu Tsuneyoshi
	religion="shinto"
	culture="eastern_kanto"
	learning=6
	prowess=11
	1217.1.1={
		birth=yes
	}
	1267.1.1={
		death=yes
	}
}
12150473={
	name=character_name_12150473 # Yukitsune
	dynasty=10007026 # Kokubu
	father=12150405 # Kokubu Tsuneyoshi
	religion="shinto"
	culture="eastern_kanto"
	learning=8
	prowess=12
	1220.1.1={
		birth=yes
	}
	1270.1.1={
		death=yes
	}
}
12150475={
	name=character_name_12150475 # Tanenaga
	dynasty=10007026 # Kokubu
	father=12150470 # Kokubu Tanezane
	religion="shinto"
	culture="eastern_kanto"
	learning=7
	prowess=11
	1226.1.1={
		birth=yes
	}
	1286.1.1={
		death=yes
	}
}
12150480={
	name=character_name_12150480 # Yasutane
	dynasty=10007026 # Kokubu
	father=12150475 # Kokubu Tanenaga
	religion="shinto"
	culture="eastern_kanto"
	learning=6
	prowess=11
	1250.1.1={
		birth=yes
	}
	1296.1.1={
		death=yes
	}
}
12150485={
	name=character_name_12150485 # Taneuji
	dynasty=10007026 # Kokubu
	father=12150480 # Kokubu Yasutane
	religion="shinto"
	culture="eastern_kanto"
	learning=6
	prowess=9
	1280.1.1={
		birth=yes
	}
	1330.1.1={
		death=yes
	}
}
12150486={
	name=character_name_12150486 # Taneto
	dynasty=10007026 # Kokubu
	father=12150480 # Kokubu Yasutane
	religion="shinto"
	culture="eastern_kanto"
	learning=6
	prowess=10
	1290.1.1={
		birth=yes
	}
	1376.1.1={
		death=yes
	}
}
12150487={
	name=character_name_12150487 # Ujitane
	dynasty=10007026 # Kokubu
	father=12150480 # Kokubu Yasutane
	religion="shinto"
	culture="eastern_kanto"
	learning=4
	prowess=11
	1295.1.1={
		birth=yes
	}
	1377.1.1={
		death=yes
	}
}
12150490={
	name=character_name_12150490 # Taneaki
	dynasty=10007026 # Kokubu
	father=12150485 # Kokubu Taneuji
	religion="shinto"
	culture="eastern_kanto"
	learning=5
	prowess=11
	1310.1.1={
		birth=yes
	}
	1380.1.1={
		death=yes
	}
}
12150491={
	name=character_name_12150491 # Moritane
	dynasty=10007026 # Kokubu
	father=12150485 # Kokubu Taneuji
	religion="shinto"
	culture="eastern_kanto"
	learning=5
	prowess=12
	1312.1.1={
		birth=yes
	}
	1362.1.1={
		death=yes
	}
}
12150495={
	name=character_name_12150495 # Tadatane
	dynasty=10007026 # Kokubu
	father=12150490 # Kokubu Taneaki
	religion="shinto"
	culture="eastern_kanto"
	prowess=11
	1360.1.1={
		birth=yes
	}
	1420.1.1={
		death=yes
	}
}
12150496={
	name=character_name_12150496 # Taneshige
	dynasty=10007026 # Kokubu
	father=12150490 # Kokubu Taneaki
	religion="shinto"
	culture="eastern_kanto"
	prowess=11
	1362.1.1={
		birth=yes
	}
	1420.1.1={
		death=yes
	}
}
12150500={
	name=character_name_12150500 # Noritane
	dynasty=10007026 # Kokubu
	father=12150495 # Kokubu Tadatane
	religion="shinto"
	culture="eastern_kanto"
	prowess=10
	1400.1.1={
		birth=yes
	}
	1460.1.1={
		death=yes
	}
}
12150505={
	name=character_name_12150505 # Yukitane
	dynasty=10007026 # Kokubu
	father=12150500 # Kokubu Noritane
	religion="shinto"
	culture="eastern_kanto"
	prowess=10
	1430.1.1 ={
		birth=yes
	}
	1490.1.1={
		death=yes
	}
}
12150510={
	name=character_name_12150510 # Tanemori
	dynasty=10007026 # Kokubu
	father=12150505 # Kokubu Yukitane
	religion="shinto"
	culture="eastern_kanto"
	prowess=10
	1460.1.1={
		birth=yes
	}
	1520.1.1={
		death=yes
	}
}
12150515={
	name=character_name_12150515 # Tanesuke
	dynasty=10007026 # Kokubu
	father=12150510 # Kokubu Tanemori
	religion="shinto"
	culture="eastern_kanto"
	prowess=10
	1480.1.1={
		birth=yes
	}
	1540.1.1={
		death=yes
	}
}
12150520={
	name=character_name_12150520 # Tomotane
	dynasty=10007026 # Kokubu
	father=12150515 # Kokubu Tanesuke
	religion="shinto"
	culture="eastern_kanto"
	prowess=10
	1500.1.1={
		birth=yes
	}
	1550.1.1={
		death=yes
	}
}
12150525={
	name=character_name_12150525 # Katsutane
	dynasty=10007026 # Kokubu
	father=12150520 # Kokubu Tomotane
	religion="shinto"
	culture="eastern_kanto"
	prowess=10
	1530.1.1={
		birth=yes
	}
	1550.1.1={
		death=yes
	}
}
12150526={
	name=character_name_12150526 # Tanenori
	dynasty=10007026 # Kokubu
	father=12150520 # Kokubu Tomotane
	religion="shinto"
	culture="eastern_kanto"
	prowess=12
	1532.1.1={
		birth=yes
	}
	1562.5.1={
		death=yes
	}
}
12150530={
	name=character_name_12150530 # Tanemasa
	dynasty=10007026 # Kokubu
	father=12150526 # Kokubu Tanenori
	religion="shinto"
	culture="eastern_kanto"
	prowess=10
	1560.1.1={
		birth=yes
	}
	1585.1.1={
		death=yes
	}
}
12150535={
	name=character_name_12150535 # Tanemitsu
	dynasty=10007026 # Kokubu
	father=12150530 # Kokubu Tanemasa
	religion="shinto"
	culture="eastern_kanto"
	prowess=10
	1580.1.1={
		birth=yes
	}
	1640.1.1={
		death=yes
	}
}
12150600={
	name=character_name_12150600 # Tanetaka
	dynasty=10000310 # Shiina
	father=12150122 # Shiina Tanemitsu
	religion="shinto"
	culture="eastern_kanto"
	learning=6
	prowess=11
	1140.1.1={
		birth=yes
	}
	1200.1.1={
		death=yes
	}
}
12150601={
	name=character_name_12150601 # Taneshige
	dynasty=10000310 # Shiina
	father=12150122 # Shiina Tanemitsu
	religion="shinto"
	culture="eastern_kanto"
	learning=7
	prowess=11
	1145.1.1={
		birth=yes
	}
	1195.1.1={
		death=yes
	}
}
12150602={
	name=character_name_12150602 # Tanenari
	dynasty=10000310 # Shiina
	father=12150122 # Shiina Tanemitsu
	religion="shinto"
	culture="eastern_kanto"
	learning=5
	prowess=10
	1150.1.1={
		birth=yes
	}
	1200.1.1={
		death=yes
	}
}
12150610={
	name=character_name_12150610 # Tanehide
	dynasty=10000310 # Shiina
	father=12150600 # Shiina Tanetaka
	religion="shinto"
	culture="eastern_kanto"
	learning=7
	prowess=12
	1170.1.1={
		birth=yes
	}
	1220.1.1={
		death=yes
	}
}
12150611={
	name=character_name_12150611 # Tanetsugu
	dynasty=10000310 # Shiina
	father=12150600 # Shiina Tanetaka
	religion="shinto"
	culture="eastern_kanto"
	learning=5
	prowess=11
	1173.1.1={
		birth=yes
	}
	1223.1.1={
		death=yes
	}
}
12150612={
	name=character_name_12150612 # Tanekata
	dynasty=10000310 # Shiina
	father=12150600 # Shiina Tanetaka
	religion="shinto"
	culture="eastern_kanto"
	learning=8
	prowess=12
	1176.1.1={
		birth=yes
	}
	1226.1.1={
		death=yes
	}
}
12150613={
	name=character_name_12150613 # Tanehira
	dynasty=10000310 # Shiina
	father=12150600 # Shiina Tanetaka
	religion="shinto"
	culture="eastern_kanto"
	learning=5
	prowess=12
	1179.1.1={
		birth=yes
	}
	1229.1.1={
		death=yes
	}
}
12150614={
	name=character_name_12150614 # Tanetsune
	dynasty=10000310 # Shiina
	father=12150600 # Shiina Tanetaka
	religion="shinto"
	culture="eastern_kanto"
	learning=5
	prowess=10
	1182.1.1={
		birth=yes
	}
	1232.1.1={
		death=yes
	}
}
12150615={
	name=character_name_12150615 # Taneharu
	dynasty=10000310 # Shiina
	father=12150610 # Shiina Tanehide
	religion="shinto"
	culture="eastern_kanto"
	learning=8
	prowess=10
	1195.1.1={
		birth=yes
	}
	1245.1.1={
		death=yes
	}
}
12150620={
	name=character_name_12150620 # Kiyotane
	dynasty=10000310 # Shiina
	father=12150611 # Shiina Tanetsugu
	religion="shinto"
	culture="eastern_kanto"
	learning=7
	prowess=11
	1198.1.1={
		birth=yes
	}
	1248.1.1={
		death=yes
	}
}
12150630={
	name=character_name_12150630 # Tanekazu
	dynasty=10000310 # Shiina
	father=12150612 # Shiina Tanekata
	religion="shinto"
	culture="eastern_kanto"
	learning=6
	prowess=10
	1201.1.1={
		birth=yes
	}
	1251.1.1={
		death=yes
	}
}
12150631={
	name=character_name_12150631 # Narikazu
	dynasty=10000310 # Shiina
	father=12150612 # Shiina Tanekata
	religion="shinto"
	culture="eastern_kanto"
	learning=6
	prowess=10
	1204.1.1={
		birth=yes
	}
	1254.1.1={
		death=yes
	}
}
12150632={
	name=character_name_12150632 # Mitsutane
	dynasty=10000310 # Shiina
	father=12150612 # Shiina Tanekata
	religion="shinto"
	culture="eastern_kanto"
	learning=8
	prowess=10
	1207.1.1={
		birth=yes
	}
	1257.1.1={
		death=yes
	}
}
12150633={
	name=character_name_12150633 # Hachiro
	dynasty=10000310 # Shiina
	father=12150612 # Shiina Tanekata
	religion="shinto"
	culture="eastern_kanto"
	learning=6
	prowess=12
	1210.1.1={
		birth=yes
	}
	1260.1.1={
		death=yes
	}
}
12150634={
	name=character_name_12150634 # Morotane
	dynasty=10000310 # Shiina
	father=12150612 # Shiina Tanekata
	religion="shinto"
	culture="eastern_kanto"
	learning=4
	prowess=12
	1213.1.1={
		birth=yes
	}
	1263.1.1={
		death=yes
	}
}
12150635={
	name=character_name_12150635 # Koretane
	dynasty=10000310 # Shiina
	father=12150612 # Shiina Tanekata
	religion="shinto"
	culture="eastern_kanto"
	learning=7
	prowess=11
	1216.1.1={
		birth=yes
	}
	1266.1.1={
		death=yes
	}
}
12150636={
	name=character_name_12150636 # Tanenaga
	dynasty=10000310 # Shiina
	father=12150634 # Shiina Morotane
	religion="shinto"
	culture="eastern_kanto"
	learning=6
	prowess=12
	1238.1.1={
		birth=yes
	}
	1288.1.1={
		death=yes
	}
}
12150650={
	name=character_name_12150650 # Taneyoshi
	dynasty=10000310 # Shiina
	father=12150601 # Shiina Taneshige
	religion="shinto"
	culture="eastern_kanto"
	learning=7
	prowess=10
	1170.1.1={
		birth=yes
	}
	1230.1.1={
		death=yes
	}
}
12150651={
	name=character_name_12150651 # Tanehira
	dynasty=10000310 # Shiina
	father=12150601 # Shiina Taneshige
	religion="shinto"
	culture="eastern_kanto"
	learning=6
	prowess=12
	1173.1.1={
		birth=yes
	}
	1233.1.1={
		death=yes
	}
}
12150652={
	name=character_name_12150652 # Tanetomo
	dynasty=10000310 # Shiina
	father=12150601 # Shiina Taneshige
	religion="shinto"
	culture="eastern_kanto"
	learning=7
	prowess=12
	1176.1.1={
		birth=yes
	}
	1236.1.1={
		death=yes
	}
}
12150653={
	name=character_name_12150653 # Tanemasu
	dynasty=10000310 # Shiina
	father=12150601 # Shiina Taneshige
	religion="shinto"
	culture="eastern_kanto"
	learning=7
	prowess=10
	1179.1.1={
		birth=yes
	}
	1239.1.1={
		death=yes
	}
}
12150654={
	name=character_name_12150654 # Yukitane
	dynasty=10000310 # Shiina
	father=12150601 # Shiina Taneshige
	religion="shinto"
	culture="eastern_kanto"
	learning=6
	prowess=11
	1182.1.1={
		birth=yes
	}
	1242.1.1={
		death=yes
	}
}
12150660={
	name=character_name_12150660 # Yoshinari
	dynasty=10000310 # Shiina
	father=12150650 # Shiina Taneyoshi
	religion="shinto"
	culture="eastern_kanto"
	learning=7
	prowess=11
	1195.1.1={
		birth=yes
	}
	1245.1.1={
		death=yes
	}
}
12150662={
	name=character_name_12150662 # Jiro
	dynasty=10000310 # Shiina
	father=12150660 # Shiina Yoshinari
	religion="shinto"
	culture="eastern_kanto"
	learning=6
	prowess=9
	1220.1.1={
		birth=yes
	}
	1270.1.1={
		death=yes
	}
}
12150663={
	name=character_name_12150663 # Yoshiaki
	dynasty=10000310 # Shiina
	father=12150660 # Shiina Yoshinari
	religion="shinto"
	culture="eastern_kanto"
	learning=7
	prowess=11
	1225.1.1={
		birth=yes
	}
	1275.1.1={
		death=yes
	}
}
12150664={
	name=character_name_12150664 # Yagoro
	dynasty=10000310 # Shiina
	father=12150662 # Shiina Jiro
	religion="shinto"
	culture="eastern_kanto"
	learning=8
	prowess=12
	1245.1.1={
		birth=yes
	}
	1295.1.1={
		death=yes
	}
}
12150666={
	name=character_name_12150666 # Tanenori
	dynasty=10000310 # Shiina
	father=12150664 # Shiina Yagoro
	religion="shinto"
	culture="eastern_kanto"
	learning=7
	prowess=11
	1270.1.1={
		birth=yes
	}
	1320.1.1={
		death=yes
	}
}
12150667={
	name=character_name_12150667 # Sanetane
	dynasty=10000310 # Shiina
	father=12150664 # Shiina Yagoro
	religion="shinto"
	culture="eastern_kanto"
	learning=7
	prowess=10
	1275.1.1={
		birth=yes
	}
	1325.1.1={
		death=yes
	}
}
12150668={
	name=character_name_12150668 # Magosaburo
	dynasty=10000310 # Shiina
	father=12150664 # Shiina Yagoro
	religion="shinto"
	culture="eastern_kanto"
	learning=6
	prowess=11
	1280.1.1={
		birth=yes
	}
	1330.1.1={
		death=yes
	}
}
12150800={
	name=character_name_12150800 # Yoshitane
	dynasty=10000067 # Soma
	father=12150124 # Soma Morotsune
	religion="shinto"
	culture="eastern_kanto"
	prowess=11
	1188.1.1={
		birth=yes
	}
	1204.1.1={
		give_nickname="nick_goro"
	}
	1238.1.1={
		death=yes
	}
}
12150810={
	name=character_name_12150810 # Tanetsuna
	dynasty=10000067 # Soma
	father=12150800 # Soma Yoshitane
	religion="shinto"
	culture="eastern_kanto"
	prowess=11
	1228.1.1={
		birth=yes
	}
	1244.1.1={
		give_nickname="nick_Kojio"
	}
	1278.1.1={
		death=yes
	}
}
12150820={
	name=character_name_12150820 # Tanemura
	dynasty=10000067 # Soma
	father=12150810 # Soma Tanetsuna
	religion="shinto"
	culture="eastern_kanto"
	prowess=12
	1248.1.1={
		birth=yes
	}
	1264.1.1={
		give_nickname="nick_goro"
	}
	1298.1.1={
		death=yes
	}
}
12150830={
	name=character_name_12150830 # Morotane
	dynasty=10000067 # Soma
	father=12150820 # Soma Tanemura
	religion="shinto"
	culture="eastern_kanto"
	prowess=10
	1268.1.1={
		birth=yes
	}
	1284.1.1={
		give_nickname="nick_Hikosaburo"
	}
	1318.1.1={
		death=yes
	}
}
12150831={
	name=character_name_12150831 # Taneuji
	dynasty=10000067 # Soma
	father=12150820 # Soma Tanemura
	religion="shinto"
	culture="eastern_kanto"
	prowess=10
	1270.1.1={
		birth=yes
	}
	1286.1.1={
		give_nickname="nick_shiro"
	}
	1320.1.1={
		death=yes
	}
}
12150900={
	name=character_name_12150900 # Taneshige
	dynasty=10007024 # Takeishi
	father=12150125 # Takeshi Tanemori
	religion="shinto"
	culture="eastern_kanto"
	prowess=10
	1180.1.1={
		birth=yes
	}
	1240.1.1={
		death=yes
	}
}
12150905={
	name=character_name_12150905 # Hirotane
	dynasty=10007024 # Takeishi
	father=12150900 # Takeshi Taneshige
	religion="shinto"
	culture="eastern_kanto"
	prowess=9
	1210.1.1={
		birth=yes
	}
	1260.1.1={
		death=yes
	}
}
12150906={
	name=character_name_12150906 # Tomotane
	dynasty=10007024 # Takeishi
	father=12150900 # Takeshi Taneshige
	religion="shinto"
	culture="eastern_kanto"
	prowess=11
	1212.1.1={
		birth=yes
	}
	1270.1.1={
		death=yes
	}
}
12150907={
	name=character_name_12150907 # Taneuji
	dynasty=10007024 # Takeishi
	father=12150900 # Takeshi Taneshige
	religion="shinto"
	culture="eastern_kanto"
	prowess=11
	1214.1.1={
		birth=yes
	}
	1270.1.1={
		death=yes
	}
}
12150910={
	name=character_name_12150910 # Muneuji
	dynasty=10007024 # Takeishi
	father=12150907 # Takeshi Taneuji
	religion="shinto"
	culture="eastern_kanto"
	prowess=11
	1240.1.1={
		birth=yes
	}
	1300.1.1={
		death=yes
	}
}
12150915={
	name=character_name_12150915 # Tanetsugu
	dynasty=10007024 # Takeishi
	father=12150910 # Takeshi Muneuji
	religion="shinto"
	culture="southern_oshu"
	prowess=11
	1272.1.1={
		birth=yes
	}
	1331.1.1={
		death=yes
	}
}
12150920={
	name=character_name_12150920 # Takahiro
	dynasty=10007024 # Takeishi
	father=12150915 # Takeshi Tanetsugu
	religion="shinto"
	culture="southern_oshu"
	prowess=10
	1297.1.1={
		birth=yes
	}
	1339.1.1={
		death=yes
	}
}
12151000={
	name=character_name_12151000 # Tsunemiki
	dynasty=10007023 # Unakami
	father=12150114 # 
	religion="shinto"
	culture="eastern_kanto"
	prowess=12
	1120.1.1={
		birth=yes
	}
	1160.1.1={
		death=yes
	}
}
12151001={
	name=character_name_12151001 # Mikikage # Iwase Yoichi
	dynasty=10007206 # Iwase
	father=12151000 # 
	religion="shinto"
	culture="eastern_kanto"
	trait="education_diplomacy_3"
	trait="brave"
	trait="just"
	prowess=10
	1150.1.1={
		birth=yes
	}
	1180.1.1={
		employer=12122002
	}
	1180.11.22={
		employer=10120075 # Minamoto Yoritomo
	}
	1210.1.1={
		death=yes
	}
}
12151002={
	name=character_name_12151002 # Tsuneharu
	dynasty=10007207 # Kataoka
	father=12151000 # 
	religion="shinto"
	culture="eastern_kanto"
	trait="education_martial_3"
	prowess=14
	1152.1.1={
		birth=yes
	}
	1180.1.1={
		employer=12160120 # Chida Chikamasa
	}
	1180.10.4={
		employer=10120075 # Minamoto Yoritomo
	}
	1189.6.15={
		death=yes
	}
}
12151003={
	name=character_name_12151003 # Hirotsune
	dynasty=10007207 # Kataoka
	father=12151000 # 
	religion="shinto"
	culture="eastern_kanto"
	trait="education_martial_2"
	prowess=13
	1154.1.1={
		birth=yes
	}
	1180.1.1={
		employer=12160120 # Chida Chikamasa
	}
	1180.10.4={
		employer=10120075 # Minamoto Yoritomo
	}
	1189.6.15={
		death=yes
	}
}
12151020={
	name=character_name_12151020 # Moritane
	dynasty=10007279 # Unakami
	father=12150306 # Unakami Tanekata
	religion="shinto"
	culture="eastern_kanto"
	prowess=11
	1230.1.1={
		birth=yes
	}
	1280.1.1={
		death=yes
	}
}
12151021={
	name=character_name_12151021 # Nagatane
	dynasty=10007279 # Unakami
	father=12150306 # Unakami Tanekata
	religion="shinto"
	culture="eastern_kanto"
	prowess=11
	1232.1.1={
		birth=yes
	}
	1280.1.1={
		death=yes
	}
}
12151022={
	name=character_name_12151022 # Kanetane
	dynasty=10007279 # Unakami
	father=12150306 # Unakami Tanekata
	religion="shinto"
	culture="eastern_kanto"
	prowess=10
	1234.1.1={
		birth=yes
	}
	1280.1.1={
		death=yes
	}
}
12151023={
	name=character_name_12151023 # Yukitane
	dynasty=10007279 # Unakami
	father=12150306 # Unakami Tanekata
	religion="shinto"
	culture="eastern_kanto"
	prowess=12
	1236.1.1={
		birth=yes
	}
	1280.1.1={
		death=yes
	}
}
12151024={
	name=character_name_12151024 # Tanekage
	dynasty=10007279 # Unakami
	father=12150306 # Unakami Tanekata
	religion="shinto"
	culture="eastern_kanto"
	prowess=12
	1238.1.1={
		birth=yes
	}
	1280.1.1={
		death=yes
	}
}
12151030={
	name=character_name_12151030 # Noritane
	dynasty=10007279 # Unakami
	father=12151024 # Unakami Tanekage
	religion="shinto"
	culture="eastern_kanto"
	prowess=11
	1260.1.1={
		birth=yes
	}
	1320.1.1={
		death=yes
	}
}
12151031={
	name=character_name_12151031 # Tanetoshi
	dynasty=10007279 # Unakami
	father=12151024 # Unakami Tanekage
	religion="shinto"
	culture="eastern_kanto"
	prowess=9
	1262.1.1={
		birth=yes
	}
	1320.1.1={
		death=yes
	}
}
12151032={
	name=character_name_12151032 # Taneyasu
	dynasty=10007279 # Unakami
	father=12151024 # Unakami Tanekage
	religion="shinto"
	culture="eastern_kanto"
	prowess=10
	1264.1.1={
		birth=yes
	}
	1320.1.1={
		death=yes
	}
}
12151035={
	name=character_name_12151035 # Morotane
	dynasty=10007279 # Unakami
	father=12151032 # Unakami Taneyasu
	religion="shinto"
	culture="eastern_kanto"
	prowess=11
	1290.1.1={
		birth=yes
	}
	1350.1.1={
		death=yes
	}
}
12151040={
	name=character_name_12151040 # Kimitane
	dynasty=10007279 # Unakami
	father=12151035 # Unakami Morotane
	religion="shinto"
	culture="eastern_kanto"
	prowess=10
	1320.1.1={
		birth=yes
	}
	1390.1.1={
		death=yes
	}
}
12151045={
	name=character_name_12151045 # Noritane
	dynasty=10007279 # Unakami
	father=12151040 # Unakami Kimitane
	religion="shinto"
	culture="eastern_kanto"
	prowess=10
	1360.1.1={
		birth=yes
	}
	1430.1.1={
		death=yes
	}
}
12151050={
	name=character_name_12151050 # Yoritane
	dynasty=10007279 # Unakami
	father=12151045 # Unakami Noritane
	religion="shinto"
	culture="eastern_kanto"
	prowess=12
	1390.1.1={
		birth=yes
	}
	1450.1.1={
		death=yes
	}
}
12151055={
	name=character_name_12151055 # Morotane
	dynasty=10007279 # Unakami
	father=12151050 # Unakami Yoritane
	religion="shinto"
	culture="eastern_kanto"
	prowess=10
	1420.1.1={
		birth=yes
	}
	1480.1.1={
		death=yes
	}
}
12151056={
	name=character_name_12151056 # Tanesada
	dynasty=10007279 # Unakami
	father=12151050 # Unakami Yoritane
	religion="shinto"
	culture="eastern_kanto"
	prowess=11
	1425.1.1={
		birth=yes
	}
	1480.1.1={
		death=yes
	}
}
12151057={
	name=character_name_12151057 # Tanetada
	dynasty=10007279 # Unakami
	father=12151050 # Unakami Yoritane
	religion="shinto"
	culture="eastern_kanto"
	prowess=10
	1430.1.1={
		birth=yes
	}
	1500.1.1={
		death=yes
	}
}
12151060={
	name=character_name_12151060 # Sukehide
	dynasty=10007279 # Unakami
	father=12151057 # Unakami Tanetada
	religion="shinto"
	culture="eastern_kanto"
	prowess=11
	1460.1.1={
		birth=yes
	}
	1520.1.1={
		death=yes
	}
}
12151065={
	name=character_name_12151065 # Takehide
	dynasty=10007279 # Unakami
	father=12151060 # Unakami Sukehide
	religion="shinto"
	culture="eastern_kanto"
	prowess=9
	1480.1.1={
		birth=yes
	}
	1520.1.1={
		death=yes
	}
}
12151066={
	name=character_name_12151066 # Tadahide
	dynasty=10007279 # Unakami
	father=12151060 # Unakami Sukehide
	religion="shinto"
	culture="eastern_kanto"
	prowess=9
	1482.1.1={
		birth=yes
	}
	1520.1.1={
		death=yes
	}
}
12151070={
	name=character_name_12151070 # Mochihide
	dynasty=10007279 # Unakami
	father=12151065 # Unakami Takehide
	religion="shinto"
	culture="eastern_kanto"
	prowess=11
	1500.1.1={
		birth=yes
	}
	1550.1.1={
		death=yes
	}
}
12151071={
	name=character_name_12151071 # Munehide
	dynasty=10007279 # Unakami
	father=12151065 # Unakami Takehide
	religion="shinto"
	culture="eastern_kanto"
	prowess=11
	1502.1.1={
		birth=yes
	}
	1560.1.1={
		death=yes
	}
}
12151072={
	name=character_name_12151072 # Nobuhide
	dynasty=10007279 # Unakami
	father=12151065 # Unakami Takehide
	religion="shinto"
	culture="eastern_kanto"
	prowess=12
	1504.1.1={
		birth=yes
	}
	1560.1.1={
		death=yes
	}
}
12151075={
	name=character_name_12151075 # Tanehide
	dynasty=10007279 # Unakami
	father=12151070 # Unakami Mochihide
	religion="shinto"
	culture="eastern_kanto"
	prowess=11
	1530.1.1={
		birth=yes
	}
	1584.3.5={
		death=yes
	}
}
12151080={
	name=character_name_12151080 # Taneyasu
	dynasty=10007279 # Unakami
	father=12151075 # Unakami Tanehide
	religion="shinto"
	culture="eastern_kanto"
	prowess=9
	1550.1.1={
		birth=yes
	}
	1600.1.1={
		death=yes
	}
}
12151100={
	name=character_name_12151100 # Tsunetada
	dynasty=10007022 # Usui
	father=12150111 # Usui Tsuneyasu
	religion="shinto"
	culture="eastern_kanto"
	prowess=11
	1140.1.1={
		birth=yes
	}
	1200.1.1={
		death=yes
	}
}
12151101={
	name=character_name_12151101 # Naritsune
	dynasty=10007022 # Usui
	father=12151100 # Usui Tsunetada
	religion="shinto"
	culture="eastern_kanto"
	prowess=10
	1160.1.1={
		birth=yes
	}
	1220.1.1={
		death=yes
	}
}
12151102={
	name=character_name_12151102 # Hisatsune
	dynasty=10007022 # Usui
	father=12151100 # Usui Tsunetada
	religion="shinto"
	culture="eastern_kanto"
	prowess=9
	1162.1.1={
		birth=yes
	}
	1220.1.1={
		death=yes
	}
}
12151105={
	name=character_name_12151105 # Moritsune
	dynasty=10007022 # Usui
	father=12151101 # Usui Naritsune
	religion="shinto"
	culture="eastern_kanto"
	prowess=12
	1190.1.1={
		birth=yes
	}
	1250.1.1={
		death=yes
	}
}
12151110={
	name=character_name_12151110 # Ietsune
	dynasty=10007022 # Usui
	father=12151102 # Usui Hisatsune
	religion="shinto"
	culture="eastern_kanto"
	prowess=12
	1192.1.1={
		birth=yes
	}
	1250.1.1={
		death=yes
	}
}
12151115={
	name=character_name_12151115 # Seigen
	dynasty=10007022 # Usui
	father=12151110 # Usui Ietsune
	religion="shinto"
	culture="eastern_kanto"
	prowess=11
	1215.1.1={
		birth=yes
	}
	1275.1.1={
		death=yes
	}
}
12151120={
	name=character_name_12151120 # Yasutane
	dynasty=10007022 # Usui
	father=12151115 # Usui Seigen
	religion="shinto"
	culture="eastern_kanto"
	prowess=10
	1240.1.1={
		birth=yes
	}
	1300.1.1={
		death=yes
	}
}
12151125={
	name=character_name_12151125 # Masatane
	dynasty=10007022 # Usui
	father=12151120 # Usui Yasutane
	religion="shinto"
	culture="eastern_kanto"
	prowess=9
	1265.1.1={
		birth=yes
	}
	1310.1.1={
		death=yes
	}
}
12151130={
	name=character_name_12151130 # Suketane
	dynasty=10007022 # Usui
	father=12151125 # Usui Masatane
	religion="shinto"
	culture="eastern_kanto"
	prowess=10
	1290.1.1={
		birth=yes
	}
	1314.1.1={
		death=yes
	}
}
12151135={
	name=character_name_12151135 # Okitane
	dynasty=10007022 # Usui
	father=12151130 # Usui Suketane
	religion="shinto"
	culture="eastern_kanto"
	prowess=10
	1312.1.1={
		birth=yes
	}
	1364.4.18={
		death=yes
	}
}
12151140={
	name=character_name_12151140 # Hisatane
	dynasty=10007022 # Usui
	father=12151135 # Usui Okitane
	religion="shinto"
	culture="eastern_kanto"
	prowess=12
	1330.1.1={
		birth=yes
	}
	1376.7.13={
		death=yes
	}
}
12151145={
	name=character_name_12151145 # Kanetane
	dynasty=10007022 # Usui
	father=12151140 # Usui Hisatane
	religion="shinto"
	culture="eastern_kanto"
	prowess=11
	1350.1.1={
		birth=yes
	}
	1383.11.3={
		death=yes
	}
}
12151150={
	name=character_name_12151150 # Fuyutane
	dynasty=10007022 # Usui
	father=12151145 # Usui Kanetane
	religion="shinto"
	culture="eastern_kanto"
	prowess=10
	1370.1.1={
		birth=yes
	}
	1402.8.23={
		death=yes
	}
}
12151155={
	name=character_name_12151155 # Yukitane
	dynasty=10007022 # Usui
	father=12151150 # Usui Fuyutane
	religion="shinto"
	culture="eastern_kanto"
	prowess=10
	1390.1.1={
		birth=yes
	}
	1430.5.12={
		death=yes
	}
}
12151160={
	name=character_name_12151160 # Noritane
	dynasty=10007022 # Usui
	father=12151155 # Usui Yukitane
	religion="shinto"
	culture="eastern_kanto"
	prowess=11
	1420.1.1={
		birth=yes
	}
	1465.5.22={
		death=yes
	}
}
12151165={
	name=character_name_12151165 # Toshitane
	dynasty=10007022 # Usui
	father=12151160 # Usui Noritane
	religion="shinto"
	culture="eastern_kanto"
	prowess=10
	1459.1.1={
		birth=yes
	}
	1517.5.17={
		death=yes
	}
}
12151170={
	name=character_name_12151170 # Kagetane
	dynasty=10007022 # Usui
	father=12151165 # Usui Toshitane
	religion="shinto"
	culture="eastern_kanto"
	prowess=11
	1496.1.1={
		birth=yes
	}
	1557.10.15={
		death=yes
	}
}
12151175={
	name=character_name_12151175 # Hisatane
	dynasty=10007022 # Usui
	father=12151170 # Usui Kagetane
	religion="shinto"
	culture="eastern_kanto"
	prowess=10
	1544.1.1={
		birth=yes
	}
	1574.1.1={
		death=yes
	}
}
12151200={
	name=character_name_12151200 # Hidetane
	dynasty=10007027 # Sakai
	father=12150131 # Sakai Tsunehide
	religion="shinto"
	culture="eastern_kanto"
	trait="education_diplomacy_3"
	prowess=10
	1190.1.1={
		birth=yes
	}
	1218.1.1={
		add_spouse=12211063 # Miura Yoshimura's daughter
	}
	1247.7.10={
		death=yes
	}
}
12151201={
	name=character_name_12151201 # Tokitsune
	dynasty=10007027 # Sakai
	father=12150131 # Sakai Tsunehide
	religion="shinto"
	culture="eastern_kanto"
	trait="education_martial_3"
	prowess=15
	1192.1.1={
		birth=yes
	}
	1247.7.10={
		death=yes
	}
}
12151205={
	name=character_name_12151205 # Tokihide
	dynasty=10007027 # Sakai
	father=12151200 # Sakai Hidetane
	mother=12211063 # Miura Hanagasa
	religion="shinto"
	culture="eastern_kanto"
	prowess=11
	1220.1.1={
		birth=yes
	}
	1247.7.10={
		death=yes
	}
}
12151206={
	name=character_name_12151206 # Masahide
	dynasty=10007027 # Sakai
	father=12151200 # Sakai Hidetane
	mother=12211063 # Miura Hanagasa
	religion="shinto"
	culture="eastern_kanto"
	prowess=11
	1222.1.1={
		birth=yes
	}
	1247.7.10={
		death=yes
	}
}
12151207={
	name=character_name_12151207 # Yasuhide
	dynasty=10007027 # Sakai
	father=12151200 # Sakai Hidetane
	mother=12211063 # Miura Hanagasa
	religion="shinto"
	culture="eastern_kanto"
	prowess=11
	1224.1.1={
		birth=yes
	}
	1247.7.10={
		death=yes
	}
}
12151208={
	name=character_name_12151208 # Kagehide
	dynasty=10007027 # Sakai
	father=12151200 # Sakai Hidetane
	mother=12211063 # Miura Hanagasa
	religion="shinto"
	culture="eastern_kanto"
	prowess=12
	1226.1.1={
		birth=yes
	}
	1247.7.10={
		death=yes
	}
}
12154000={
	name=character_name_12154000 # Mitsunori
	dynasty=10005112 # Noda
	father=12436040 # Noda Shigesue
	religion="shinto"
	culture="eastern_kanto"
	trait="education_diplomacy_3"
	prowess=9
	1370.1.1={
		birth=yes
	}
	1430.1.1={
		death=yes
	}
}
12154001={
	name=character_name_12154001 # Mochitada
	dynasty=10005112 # Noda
	father=12154000 # Noda Mitsunori
	religion="shinto"
	culture="eastern_kanto"
	trait="education_diplomacy_3"
	prowess=10
	1410.1.1={
		birth=yes
	}
	1470.1.1={
		death=yes
	}
}
12154005={
	name=character_name_12154005 # Ujinori
	dynasty=10005112 # Noda
	father=12154001 # Noda Mochitada
	religion="shinto"
	culture="eastern_kanto"
	trait="education_diplomacy_3"
	prowess=10
	1440.1.1={
		birth=yes
	}
	1500.1.1={
		death=yes
	}
}
12154010={
	name=character_name_12154010 # Shigetomo
	dynasty=10005112 # Noda
	father=12154005 # Noda Ujinori
	religion="shinto"
	culture="eastern_kanto"
	trait="education_diplomacy_3"
	prowess=9
	1470.1.1={
		birth=yes
	}
	1520.1.1={
		death=yes
	}
}
12154015={
	name=character_name_12154015 # Masatomo
	dynasty=10005112 # Noda
	father=12154010 # Noda Shigetomo
	religion="shinto"
	culture="eastern_kanto"
	trait="education_diplomacy_3"
	prowess=10
	1500.1.1={
		birth=yes
	}
	1554.1.1={
		death=yes
	}
}
12154016={
	name=character_name_12154016 # Masayasu
	dynasty=10005112 # Noda
	father=12154010 # Noda Shigetomo
	religion="shinto"
	culture="eastern_kanto"
	trait="education_diplomacy_3"
	prowess=11
	1510.1.1={
		birth=yes
	}
	1550.1.1={
		death=yes
	}
}
12154020={
	name=character_name_12154020 # Hirotomo
	dynasty=10005112 # Noda
	father=12154016 # Noda Masayasu
	religion="shinto"
	culture="eastern_kanto"
	trait="education_diplomacy_3"
	prowess=11
	1530.1.1={
		birth=yes
	}
	1564.1.1={
		death=yes
	}
}
12154021={
	name=character_name_12154021 # Kagenori
	dynasty=10005112 # Noda
	father=12154016 # Noda Masayasu
	religion="shinto"
	culture="eastern_kanto"
	trait="education_diplomacy_3"
	prowess=12
	1540.1.1={
		birth=yes
	}
	1624.1.1={
		death=yes
	}
}
12155000={
	name=character_name_12155000 # Tsuneharu
	dynasty=10007009 # Kazusa
	father=10110530 # Taira Tsunenaga
	religion="shinto"
	culture="eastern_kanto"
	learning=8
	prowess=11
	1050.1.1={
		birth=yes
	}
	1130.1.1={
		death=yes
	}
}
12155001={
	name=character_name_12155001 # Tsunezumi
	dynasty=10007009 # Kazusa
	father=12155000 # Kazusa Tsuneharu
	religion="shinto"
	culture="eastern_kanto"
	learning=7
	prowess=10
	1090.1.1={
		birth=yes
	}
	1161.2.1={
		death=yes
	}
}
12155010={
	name=character_name_12155010 # Tsunekage
	dynasty=10007009 # Kazusa
	father=12155001 # Kazusa Tsunezumi
	religion="shinto"
	culture="eastern_kanto"
	learning=6
	prowess=11
	1115.1.1={
		birth=yes
	}
	1135.1.1={
		dynasty=10007028 # Inzai
	}
	1141.1.1={
		add_spouse=12162021 # daughter of 2162010:Nagasa Tsuneyasu
	}
	1165.1.1={
		death={
			death_reason=death_murder
			killer=12155011 # Into Tsuneshige
		}
	}
}
12155011={
	name=character_name_12155011 # Tsuneshige
	dynasty=10007009 # Kazusa
	father=12155001 # Kazusa Tsunezumi
	religion="shinto"
	culture="eastern_kanto"
	learning=8
	trait="education_martial_2"
	trait="greedy"
	trait="ambitious"
	prowess=12
	1118.1.1={
		birth=yes
	}
	1138.1.1={
		dynasty=10007017 # Into
	}
	1180.11.12={
		death={
			death_reason=death_battle
		}
	}
}
12155012={
	name=character_name_12155012 # Tsunenori
	dynasty=10007009 # Kazusa
	father=12155001 # Kazusa Tsunezumi
	religion="shinto"
	culture="eastern_kanto"
	learning=5
	prowess=10
	1119.1.1={
		birth=yes
	}
	1191.1.1={
		death=yes
	}
}
12155013={
	name=character_name_12155013 # Tsunenari
	dynasty=10007009 # Kazusa
	father=12155001 # Kazusa Tsunezumi
	religion="shinto"
	culture="eastern_kanto"
	learning=5
	prowess=9
	1120.1.1={
		birth=yes
	}
	1140.1.1={
		dynasty=10007014 # Sosa
	}
	1182.1.1={
		death=yes
	}
}
12155014={
	name=character_name_12155014 # Ena
	dynasty=10007009 # Kazusa
	father=12155001 # Kazusa Tsunezumi
	religion="shinto"
	culture="eastern_kanto"
	learning=6
	prowess=10
	1121.1.1={
		birth=yes
	}
	1171.1.1={
		death=yes
	}
}
12155015={
	name=character_name_12155015 # Koretsune
	dynasty=10007009 # Kazusa
	father=12155001 # Kazusa Tsunezumi
	religion="shinto"
	culture="eastern_kanto"
	learning=6
	prowess=10
	1122.1.1={
		birth=yes
	}
	1172.1.1={
		death=yes
	}
}
12155016={
	name=character_name_12155016 # Tsunemasu
	dynasty=10007009 # Kazusa
	father=12155001 # Kazusa Tsunezumi
	religion="shinto"
	culture="eastern_kanto"
	learning=7
	prowess=9
	1123.1.1={
		birth=yes
	}
	1173.1.1={
		death=yes
	}
}
12155017={
	name=character_name_12155017 # Hirotsune
	dynasty=10007009 # Kazusa
	father=12155001 # Kazusa Tsunezumi
	religion="shinto"
	culture="eastern_kanto"
	martial=6
	diplomacy=6
	intrigue=6
	stewardship=4
	learning=6
	trait="education_martial_3"
	trait="arrogant"
	trait="ambitious"
	prowess=13
	1124.1.1={
		birth=yes
	}
	1184.2.3={
		death={
			death_reason=death_execution
		}
	}
}
12155018={
	name=character_name_12155018 # Tsunekiyo
	dynasty=10007009 # Kazusa
	father=12155001 # Kazusa Tsunezumi
	religion="shinto"
	culture="eastern_kanto"
	learning=7
	prowess=11
	1128.1.1={
		birth=yes
	}
	1148.1.1={
		dynasty=10007011 # Soma
	}
	1184.2.3={
		death=yes
	}
}
12155019={
	name=character_name_12155019 # Hidetsune
	dynasty=10007009 # Kazusa
	father=12155001 # Kazusa Tsunezumi
	religion="shinto"
	culture="eastern_kanto"
	learning=6
	prowess=11
	1129.1.1={
		birth=yes
	}
	1149.1.1={
		dynasty=10007010 # Amaha
	}
	1186.1.1={
		death=yes
	}
}
12155020={
	name=character_name_12155020 # Yoritsugu
	dynasty=10007009 # Kazusa
	father=12155001 # Kazusa Tsunezumi
	religion="shinto"
	culture="eastern_kanto"
	learning=8
	prowess=11
	1130.1.1={
		birth=yes
	}
	1150.1.1={
		dynasty=10007013 # Kaneda
	}
	1153.1.1={
		add_spouse=12211037 # Miura Miya, daughter of Miura Yoshiaki
	}
	1184.2.3={
		death=yes
	}
}
12155021={
	female=yes
	name=character_name_12155021 # Sumiko
	dynasty=10007009 # Kazusa
	father=12155001 # Kazusa Tsunezumi
	religion="shinto"
	culture="eastern_kanto"
	learning=5
	prowess=12
	1122.2.1={
		birth=yes
	}
	1181.1.1={
		death=yes
	}
}
12155030={
	name=character_name_12155030 # Yoshitsune
	dynasty=10007009 # Kazusa
	father=12155017 # Kazusa Hirotsune
	religion="shinto"
	culture="eastern_kanto"
	learning=5
	prowess=11
	1150.1.1={
		birth=yes
	}
	1184.2.3={
		death={
			death_reason=death_execution
		}
	}
}
12155031={
	female=yes
	name=character_name_12155031 # Hiroko
	dynasty=10007009 # Kazusa
	father=12155017 # Kazusa Hirotsune
	religion="shinto"
	culture="eastern_kanto"
	learning=6
	prowess=10
	1155.1.1={
		birth=yes
	}
	1215.1.1={
		death=yes
	}
}
12155032={
	female=yes
	name=character_name_12155032 # Tsuneko
	dynasty=10007009 # Kazusa
	father=12155017 # Kazusa Hirotsune
	religion="shinto"
	culture="eastern_kanto"
	learning=6
	prowess=10
	1160.1.1={
		birth=yes
	}
	1220.1.1={
		death=yes
	}
}
12155100={
	name=character_name_12155100 # Naotsune
	dynasty=10007010 # Amaha
	father=12155019 # Amaha Hidetsune
	religion="shinto"
	culture="eastern_kanto"
	learning=6
	prowess=10
	1155.1.1={
		birth=yes
	}
	1215.1.1={
		death=yes
	}
}
12155101={
	name=character_name_12155101 # Naoaki
	dynasty=10007010 # Amaha
	father=12155100 # Amaha Naotsune
	religion="shinto"
	culture="eastern_kanto"
	learning=7
	prowess=10
	1180.1.1={
		birth=yes
	}
	1230.11.1={
		death=yes
	}
}
12155120={
	name=character_name_12155120 # Sadatsune
	dynasty=10007011 # Soma
	father=12155018 # Soma Tsunekiyo
	religion="shinto"
	culture="eastern_kanto"
	learning=5
	prowess=11
	1160.1.1={
		birth=yes
	}
	1189.1.1={
		add_spouse=12150132 # Chiba Masako
	}
	1220.1.1={
		death=yes
	}
}
12155121={
	name=character_name_12155121 # Yasutsune
	dynasty=10007011 # Soma
	father=12155018 # Soma Tsunekiyo
	religion="shinto"
	culture="eastern_kanto"
	learning=7
	prowess=10
	1162.1.1={
		birth=yes
	}
	1235.1.1={
		death=yes
	}
}
12155122={
	name=character_name_12155122 # Tsunehira
	dynasty=10007011 # Soma
	father=12155018 # Soma Tsunekiyo
	religion="shinto"
	culture="eastern_kanto"
	learning=8
	prowess=12
	1164.1.1={
		birth=yes
	}
	1237.1.1={
		death=yes
	}
}
12155123={
	name=character_name_12155123 # Takatsune
	dynasty=10007011 # Soma
	father=12155018 # Soma Tsunekiyo
	religion="shinto"
	culture="eastern_kanto"
	learning=6
	prowess=9
	1165.1.1={
		birth=yes
	}
	1239.1.1={
		death=yes
	}
}
12155130={
	name=character_name_12155130 # Tsunechika
	dynasty=10007011 # Soma
	father=12155120 # Soma Sadatsune
	mother=12150132 # Chiba Masako
	religion="shinto"
	culture="eastern_kanto"
	learning=5
	prowess=11
	1190.1.1={
		birth=yes
	}
	1210.1.1={
		dynasty=10007012 # Suda
	}
	1240.1.1={
		death=yes
	}
}
12155131={
	name=character_name_12155131 # Sukechika
	dynasty=10007011 # Soma
	father=12155120 # Soma Sadatsune
	mother=12150132 # Chiba Masako
	religion="shinto"
	culture="eastern_kanto"
	learning=6
	prowess=10
	1192.1.1={
		birth=yes
	}
	1242.1.1={
		death=yes
	}
}
12155133={
	name=character_name_12155133 # Tanemori
	dynasty=10007011 # Soma
	father=12155131 # Kazusa Sukechika
	religion="shinto"
	culture="eastern_kanto"
	learning=8
	prowess=12
	1215.1.1={
		birth=yes
	}
	1265.1.1={
		death=yes
	}
}
12155150={
	name=character_name_12155150 # Nobutane
	dynasty=10007012 # Suda
	father=12155130 # Suda Tsunechika
	religion="shinto"
	culture="eastern_kanto"
	learning=5
	prowess=9
	1215.1.1={
		birth=yes
	}
	1265.1.1={
		death=yes
	}
}
12155151={
	name=character_name_12155151 # Yasutane
	dynasty=10007012 # Suda
	father=12155130 # Suda Tsunechika
	religion="shinto"
	culture="eastern_kanto"
	learning=6
	prowess=10
	1217.1.1={
		birth=yes
	}
	1267.1.1={
		death=yes
	}
}
12155152={
	name=character_name_12155152 # Nobukage
	dynasty=10007012 # Suda
	father=12155130 # Suda Tsunechika
	religion="shinto"
	culture="eastern_kanto"
	learning=8
	prowess=11
	1219.1.1={
		birth=yes
	}
	1269.1.1={
		death=yes
	}
}
12155153={
	name=character_name_12155153 # Yoshitane
	dynasty=10007012 # Suda
	father=12155130 # Suda Tsunechika
	religion="shinto"
	culture="eastern_kanto"
	learning=6
	prowess=11
	1221.1.1={
		birth=yes
	}
	1271.1.1={
		death=yes
	}
}
12155154={
	name=character_name_12155154 # Taneyoshi
	dynasty=10007012 # Suda
	father=12155130 # Suda Tsunechika
	religion="shinto"
	culture="eastern_kanto"
	learning=6
	prowess=10
	1223.1.1={
		birth=yes
	}
	1273.1.1={
		death=yes
	}
}
12155155={
	name=character_name_12155155 # Tokichika
	dynasty=10007012 # Suda
	father=12155130 # Suda Tsunechika
	religion="shinto"
	culture="eastern_kanto"
	learning=6
	prowess=11
	1225.1.1={
		birth=yes
	}
	1275.1.1={
		death=yes
	}
}
12155156={
	name=character_name_12155156 # Tanemitsu
	dynasty=10007012 # Suda
	father=12155130 # Suda Tsunechika
	religion="shinto"
	culture="eastern_kanto"
	learning=4
	prowess=11
	1227.1.1={
		birth=yes
	}
	1277.1.1={
		death=yes
	}
}
12155160={
	name=character_name_12155160 # Yukitane
	dynasty=10007012 # Suda
	father=12155150 # Suda Nobutane
	religion="shinto"
	culture="eastern_kanto"
	learning=5
	prowess=10
	1240.1.1={
		birth=yes
	}
	1290.1.1={
		death=yes
	}
}
12155161={
	name=character_name_12155161 # Yukinobu
	dynasty=10007012 # Suda
	father=12155150 # Suda Nobutane
	religion="shinto"
	culture="eastern_kanto"
	learning=7
	prowess=11
	1245.1.1={
		birth=yes
	}
	1285.1.1={
		death=yes
	}
}
12155163={
	name=character_name_12155163 # Taneaki
	dynasty=10007012 # Suda
	father=12155151 # Suda Yasutane
	religion="shinto"
	culture="eastern_kanto"
	learning=7
	prowess=11
	1242.1.1={
		birth=yes
	}
	1292.1.1={
		death=yes
	}
}
12155165={
	name=character_name_12155165 # Mitsutane
	dynasty=10007012 # Suda
	father=12155152 # Suda Nobukage
	religion="shinto"
	culture="eastern_kanto"
	learning=5
	prowess=12
	1244.1.1={
		birth=yes
	}
	1294.1.1={
		death=yes
	}
}
12155166={
	name=character_name_12155166 # Tanetoki
	dynasty=10007012 # Suda
	father=12155152 # Suda Nobukage
	religion="shinto"
	culture="eastern_kanto"
	learning=6
	prowess=11
	1249.1.1={
		birth=yes
	}
	1299.1.1={
		death=yes
	}
}
12155168={
	name=character_name_12155168 # Tanetaka
	dynasty=10007012 # Suda
	father=12155154 # Suda Taneyoshi
	religion="shinto"
	culture="eastern_kanto"
	learning=6
	prowess=11
	1248.1.1={
		birth=yes
	}
	1298.1.1={
		death=yes
	}
}
12155170={
	name=character_name_12155170 # Yasutsune
	dynasty=10007013 # Kaneda
	father=12155020 # Kaneda Yoritsugu
	mother=12211037 # Miura Miya, daughter of Miura Yoshiaki
	religion="shinto"
	culture="eastern_kanto"
	learning=8
	prowess=11
	1155.1.1={
		birth=yes
	}
	1205.1.1={
		death=yes
	}
}
12155180={
	name=character_name_12155180 # Naritsune
	dynasty=10007013 # Kaneda
	father=12155170 # Kaneda Yasutsune
	religion="shinto"
	culture="eastern_kanto"
	learning=5
	prowess=11
	1180.1.1={
		birth=yes
	}
	1230.1.1={
		death=yes
	}
}
12155190={
	name=character_name_12155190 # Taneyasu
	dynasty=10007013 # Kaneda
	father=12155180 # Kaneda Naritsune
	religion="shinto"
	culture="eastern_kanto"
	learning=6
	prowess=12
	1210.1.1={
		birth=yes
	}
	1260.1.1={
		death=yes
	}
}
12155200={
	name=character_name_12155200 # Suketsune
	dynasty=10007014 # Sosa
	father=12155013 # Sosa Tsunenari
	religion="shinto"
	culture="eastern_kanto"
	learning=5
	prowess=10
	1145.1.1={
		birth=yes
	}
	1195.1.1={
		death=yes
	}
}
12155205={
	name=character_name_12155205 # Tsunekazu
	dynasty=10007014 # Sosa
	father=12155200 # Sosa Suketsune
	religion="shinto"
	culture="eastern_kanto"
	learning=6
	prowess=10
	1170.1.1={
		birth=yes
	}
	1220.1.1={
		death=yes
	}
}
12155206={
	name=character_name_12155206 # Meihan
	dynasty=10007014 # Sosa
	father=12155200 # Sosa Suketsune
	religion="shinto"
	culture="eastern_kanto"
	learning=8
	prowess=9
	1175.1.1={
		birth=yes
	}
	1225.1.1={
		death=yes
	}
}
12155207={
	name=character_name_12155207 # Yasutsune
	dynasty=10007014 # Sosa
	father=12155205 # Sosa Tsunekazu
	religion="shinto"
	culture="eastern_kanto"
	learning=6
	prowess=11
	1195.1.1={
		birth=yes
	}
	1245.1.1={
		death=yes
	}
}
12155208={
	name=character_name_12155208 # Tanetoki
	dynasty=10007014 # Sosa
	father=12155207 # Sosa Yasutsune
	religion="shinto"
	culture="eastern_kanto"
	learning=5
	prowess=9
	1220.1.1={
		birth=yes
	}
	1270.1.1={
		death=yes
	}
}
12155209={
	name=character_name_12155209 # Tanetomo
	dynasty=10007014 # Sosa
	father=12155207 # Sosa Yasutsune
	religion="shinto"
	culture="eastern_kanto"
	learning=6
	prowess=9
	1225.1.1={
		birth=yes
	}
	1275.1.1={
		death=yes
	}
}
12155210={
	name=character_name_12155210 # Shigetane
	dynasty=10007014 # Sosa
	father=12155206 # Sosa Meihan
	religion="shinto"
	culture="eastern_kanto"
	learning=6
	prowess=12
	1200.1.1={
		birth=yes
	}
	1250.1.1={
		death=yes
	}
}
12155211={
	name=character_name_12155211 # Ryokei
	dynasty=10007014 # Sosa
	father=12155206 # Sosa Meihan
	religion="shinto"
	culture="eastern_kanto"
	learning=7
	prowess=10
	1203.1.1={
		birth=yes
	}
	1253.1.1={
		death=yes
	}
}
12155212={
	name=character_name_12155212 # Ryoshin
	dynasty=10007014 # Sosa
	father=12155206 # Sosa Meihan
	religion="shinto"
	culture="eastern_kanto"
	learning=5
	prowess=12
	1205.1.1={
		birth=yes
	}
	1255.1.1={
		death=yes
	}
}
12155213={
	name=character_name_12155213 # Ryokaku
	dynasty=10007014 # Sosa
	father=12155206 # Sosa Meihan
	religion="shinto"
	culture="eastern_kanto"
	learning=5
	prowess=12
	1207.1.1={
		birth=yes
	}
	1257.1.1={
		death=yes
	}
}
12155214={
	name=character_name_12155214 # Yoritsune
	dynasty=10007014 # Sosa
	father=12155206 # Sosa Meihan
	religion="shinto"
	culture="eastern_kanto"
	learning=6
	prowess=11
	1210.1.1={
		birth=yes
	}
	1260.1.1={
		death=yes
	}
}
12155220={
	name=character_name_12155220 # Tanetsugu
	dynasty=10007014 # Sosa
	father=12155210 # Sosa Shigetane
	religion="shinto"
	culture="eastern_kanto"
	learning=6
	prowess=10
	1225.1.1={
		birth=yes
	}
	1275.1.1={
		death=yes
	}
}
12155221={
	name=character_name_12155221 # Kiyotane
	dynasty=10007014 # Sosa
	father=12155210 # Sosa Shigetane
	religion="shinto"
	culture="eastern_kanto"
	learning=5
	prowess=11
	1227.1.1={
		birth=yes
	}
	1277.1.1={
		death=yes
	}
}
12155222={
	name=character_name_12155222 # Yoshitane
	dynasty=10007014 # Sosa
	father=12155210 # Sosa Shigetane
	religion="shinto"
	culture="eastern_kanto"
	learning=6
	prowess=10
	1230.1.1={
		birth=yes
	}
	1280.1.1={
		death=yes
	}
}
12155223={
	name=character_name_12155223 # Masatsune
	dynasty=10007014 # Sosa
	father=12155210 # Sosa Shigetane
	religion="shinto"
	culture="eastern_kanto"
	learning=6
	prowess=11
	1232.1.1={
		birth=yes
	}
	1282.1.1={
		death=yes
	}
}
12155225={
	name=character_name_12155225 # Mitsutsune
	dynasty=10007014 # Sosa
	father=12155212 # Sosa Ryoshin
	religion="shinto"
	culture="eastern_kanto"
	learning=6
	prowess=11
	1230.1.1={
		birth=yes
	}
	1280.1.1={
		death=yes
	}
}
12155227={
	name=character_name_12155227 # Tanetomo
	dynasty=10007014 # Sosa
	father=12155213 # Sosa Ryokaku
	religion="shinto"
	culture="eastern_kanto"
	learning=6
	prowess=11
	1232.1.1={
		birth=yes
	}
	1282.1.1={
		death=yes
	}
}
12155228={
	name=character_name_12155228 # Shigetane
	dynasty=10007014 # Sosa
	father=12155213 # Sosa Ryokaku
	religion="shinto"
	culture="eastern_kanto"
	learning=6
	prowess=10
	1235.1.1={
		birth=yes
	}
	1285.1.1={
		death=yes
	}
}
12155229={
	name=character_name_12155229 # Magojiro
	dynasty=10007014 # Sosa
	father=12155213 # Sosa Ryokaku
	religion="shinto"
	culture="eastern_kanto"
	learning=5
	prowess=9
	1238.1.1={
		birth=yes
	}
	1288.1.1={
		death=yes
	}
}
12155230={
	name=character_name_12155230 # Tsuneyoshi
	dynasty=10007014 # Sosa
	father=12155220 # Sosa Tanetsugu
	religion="shinto"
	culture="eastern_kanto"
	learning=7
	prowess=11
	1250.1.1={
		birth=yes
	}
	1300.1.1={
		death=yes
	}
}
12155231={
	name=character_name_12155231 # Tanekage
	dynasty=10007014 # Sosa
	father=12155220 # Sosa Tanetsugu
	religion="shinto"
	culture="eastern_kanto"
	learning=6
	prowess=11
	1253.1.1={
		birth=yes
	}
	1303.1.1={
		death=yes
	}
}
12155232={
	name=character_name_12155232 # Ietane
	dynasty=10007014 # Sosa
	father=12155220 # Sosa Tanetsugu
	religion="shinto"
	culture="eastern_kanto"
	learning=6
	prowess=12
	1256.1.1={
		birth=yes
	}
	1306.1.1={
		death=yes
	}
}
12155234={
	name=character_name_12155234 # Tsunesada
	dynasty=10007014 # Sosa
	father=12155221 # Sosa Kiyotane
	religion="shinto"
	culture="eastern_kanto"
	learning=8
	prowess=9
	1252.1.1={
		birth=yes
	}
	1302.1.1={
		death=yes
	}
}
12155235={
	name=character_name_12155235 # Mitsutsune
	dynasty=10007014 # Sosa
	father=12155221 # Sosa Kiyotane
	religion="shinto"
	culture="eastern_kanto"
	learning=5
	prowess=11
	1254.1.1={
		birth=yes
	}
	1304.1.1={
		death=yes
	}
}
12155237={
	name=character_name_12155237 # Tanetomo
	dynasty=10007014 # Sosa
	father=12155213 # Sosa Ryokaku
	religion="shinto"
	culture="eastern_kanto"
	learning=7
	prowess=10
	1232.1.1={
		birth=yes
	}
	1282.1.1={
		death=yes
	}
}
12155238={
	name=character_name_12155238 # Noritane
	dynasty=10007014 # Sosa
	father=12155213 # Sosa Ryokaku
	religion="shinto"
	culture="eastern_kanto"
	learning=5
	prowess=10
	1234.1.1={
		birth=yes
	}
	1284.1.1={
		death=yes
	}
}
12155239={
	name=character_name_12155239 # Magojiro
	dynasty=10007014 # Sosa
	father=12155213 # Sosa Ryokaku
	religion="shinto"
	culture="eastern_kanto"
	learning=8
	prowess=9
	1236.1.1={
		birth=yes
	}
	1286.1.1={
		death=yes
	}
}
12155240={
	name=character_name_12155240 # Moritsune
	dynasty=10007014 # Sosa
	father=12155214 # Sosa Yoritsune
	religion="shinto"
	culture="eastern_kanto"
	learning=5
	prowess=11
	1235.1.1={
		birth=yes
	}
	1285.1.1={
		death=yes
	}
}
12155241={
	name=character_name_12155241 # Gosho
	dynasty=10007014 # Sosa
	father=12155214 # Sosa Yoritsune
	religion="shinto"
	culture="eastern_kanto"
	learning=7
	prowess=11
	1238.1.1={
		birth=yes
	}
	1288.1.1={
		death=yes
	}
}
12155242={
	name=character_name_12155242 # Tsuneie
	dynasty=10007014 # Sosa
	father=12155214 # Sosa Yoritsune
	religion="shinto"
	culture="eastern_kanto"
	learning=6
	prowess=10
	1241.1.1={
		birth=yes
	}
	1291.1.1={
		death=yes
	}
}
12155250={
	female=yes
	name=character_name_12155250 # Noriko
	dynasty=10007015 # Kiuchi
	father=12155012 # Kiuchi Tsunenori
	religion="shinto"
	culture="eastern_kanto"
	learning=7
	prowess=9
	1180.1.1={
		birth=yes
	}
	1230.1.1={
		death=yes
	}
}
12155255={
	name=character_name_12155255 # Taneie
	dynasty=10007015 # Kiuchi
	mother=12155250 # Kiuchi Noriko
	father=12150303 # Kiuchi Tanetomo
	religion="shinto"
	culture="eastern_kanto"
	learning=5
	prowess=10
	1222.1.1={
		birth=yes
	}
	1292.8.17={
		death=yes
	}
}
12155260={
	name=character_name_12155260 # Kagetane
	dynasty=10007015 # Kiuchi
	father=12155255 # Kiuchi Taneie
	religion="shinto"
	culture="eastern_kanto"
	learning=6
	trait="poet"
	prowess=11
	1246.1.1={
		birth=yes
	}
	1330.5.2={
		death=yes
	}
}
12155270={
	name=character_name_12155270 # Taneuji
	dynasty=10007015 # Kiuchi
	father=12155260 # Kiuchi Kagetane
	religion="shinto"
	culture="eastern_kanto"
	learning=6
	prowess=11
	1279.1.1={
		birth=yes
	}
	1347.8.15={
		death=yes
	}
}
12155271={
	name=character_name_12155271 # Sadatane
	dynasty=10007015 # Kiuchi
	father=12155260 # Kiuchi Kagetane
	religion="shinto"
	culture="eastern_kanto"
	learning=5
	prowess=11
	1281.1.1={
		birth=yes
	}
	1331.1.1={
		death=yes
	}
}
12155272={
	name=character_name_12155272 # Tanemune
	dynasty=10007015 # Kiuchi
	father=12155260 # Kiuchi Kagetane
	religion="shinto"
	culture="eastern_kanto"
	learning=7
	prowess=10
	1283.1.1={
		birth=yes
	}
	1333.1.1={
		death=yes
	}
}
12155273={
	female=yes
	name=character_name_12155273 # Hamako
	dynasty=10007015 # Kiuchi
	father=12155260 # Kiuchi Kagetane
	religion="shinto"
	culture="eastern_kanto"
	learning=6
	prowess=10
	1285.1.1={
		birth=yes
	}
	1335.1.1={
		death=yes
	}
}
12155274={
	name=character_name_12155274 # Masatane
	dynasty=10007015 # Kiuchi
	father=12155260 # Kiuchi Kagetane
	religion="shinto"
	culture="eastern_kanto"
	learning=7
	prowess=9
	1287.1.1={
		birth=yes
	}
	1337.1.1={
		death=yes
	}
}
12155275={
	female=yes
	name=character_name_12155275 # Sooko
	dynasty=10007015 # Kiuchi
	father=12155260 # Kiuchi Kagetane
	religion="shinto"
	culture="eastern_kanto"
	learning=7
	prowess=10
	1289.1.1={
		birth=yes
	}
	1339.1.1={
		death=yes
	}
}
12155276={
	female=yes
	name=character_name_12155276 # Kageko
	dynasty=10007015 # Kiuchi
	father=12155260 # Kiuchi Kagetane
	religion="shinto"
	culture="eastern_kanto"
	learning=5
	prowess=11
	1291.1.1={
		birth=yes
	}
	1341.1.1={
		death=yes
	}
}
12155280={
	name=character_name_12155280 # Tanenori
	dynasty=10007015 # Kiuchi
	father=12155270 # Kiuchi Taneuji
	religion="shinto"
	culture="eastern_kanto"
	learning=5
	prowess=10
	1300.1.1={
		birth=yes
	}
	1320.1.1={
		death=yes
	}
}
12155281={
	name=character_name_12155281 # Tanetsugu
	dynasty=10007015 # Kiuchi
	father=12155270 # Kiuchi Taneuji
	religion="shinto"
	culture="eastern_kanto"
	learning=5
	trait="poet"
	prowess=10
	1305.1.1={
		birth=yes
	}
	1333.1.1={
		add_spouse=12150167 # Chiba Otoduru
	}
	1372.9.7={
		death=yes
	}
}
12155282={
	name=character_name_12155282 # Nobutane
	dynasty=10007015 # Kiuchi
	father=12155270 # Kiuchi Taneuji
	religion="shinto"
	culture="eastern_kanto"
	learning=7
	prowess=11
	1307.1.1={
		birth=yes
	}
	1357.1.1={
		death=yes
	}
}
12155283={
	female=yes
	name=character_name_12155283 # Isoko
	dynasty=10007015 # Kiuchi
	father=12155270 # Kiuchi Taneuji
	religion="shinto"
	culture="eastern_kanto"
	learning=6
	prowess=10
	1310.1.1={
		birth=yes
	}
	1360.1.1={
		death=yes
	}
}
12155285={
	name=character_name_12155285 # Taneyasu
	dynasty=10007015 # Kiuchi
	father=12155281 # Kiuchi Tanetsugu
	mother=12150167 # Chiba Otoduru, daughter of Chiba Sadatane
	religion="shinto"
	culture="eastern_kanto"
	learning=8
	trait="poet"
	prowess=9
	1336.1.1={
		birth=yes
	}
	1365.1.1={
		add_spouse=12425011 # daughter of 2425006:To Tsuneaki
	}
	1396.9.7={
		death=yes
	}
}
12155286={
	name=character_name_12155286 # Taneyoshi
	dynasty=10007015 # Kiuchi
	father=12155281 # Kiuchi Tanetsugu
	mother=12150167 # Chiba Otoduru, daughter of Chiba Sadatane
	religion="shinto"
	culture="eastern_kanto"
	learning=7
	prowess=9
	1342.1.1={
		birth=yes
	}
	1415.1.1={
		death=yes
	}
}
12155287={
	name=character_name_12155287 # Saburo
	dynasty=10007015 # Kiuchi
	father=12155281 # Kiuchi Tanetsugu
	mother=12150167 # Chiba Otoduru, daughter of Chiba Sadatane
	religion="shinto"
	culture="eastern_kanto"
	learning=5
	prowess=10
	1340.1.1={
		birth=yes
	}
	1390.1.1={
		death=yes
	}
}
12155288={
	female=yes
	name=character_name_12155288 # Minoko
	dynasty=10007015 # Kiuchi
	father=12155281 # Kiuchi Tanetsugu
	mother=12150167 # Chiba Otoduru, daughter of Chiba Sadatane
	religion="shinto"
	culture="eastern_kanto"
	learning=7
	prowess=12
	1343.1.1={
		birth=yes
	}
	1393.1.1={
		death=yes
	}
}
12155289={
	name=character_name_12155289 # Tanekazu
	dynasty=10007015 # Kiuchi
	father=12155281 # Kiuchi Tanetsugu
	mother=12150167 # Chiba Otoduru, daughter of Chiba Sadatane
	religion="shinto"
	culture="eastern_kanto"
	learning=7
	prowess=11
	1345.1.1={
		birth=yes
	}
	1395.1.1={
		death=yes
	}
}
12155290={
	name=character_name_12155290 # Tanekazu
	dynasty=10007015 # Kiuchi
	father=12155285 # Kiuchi Taneyasu
	mother=12425011 # To Akiko
	religion="shinto"
	culture="eastern_kanto"
	learning=7
	prowess=9
	1366.1.1={
		birth=yes
	}
	1428.1.1={
		death=yes
	}
}
12155295={
	name=character_name_12155295 # Tanemitsu
	dynasty=10007015 # Kiuchi
	father=12155290 # Kiuchi Tanekazu
	religion="shinto"
	culture="eastern_kanto"
	learning=7
	prowess=10
	1392.1.1={
		birth=yes
	}
	1454.1.1={
		death=yes
	}
}
12155300={
	name=character_name_12155300 # Taneyoshi
	dynasty=10007015 # Kiuchi
	father=12155295 # Kiuchi Tanemitsu
	religion="shinto"
	culture="eastern_kanto"
	learning=7
	prowess=10
	1411.1.1={
		birth=yes
	}
	1455.1.1={
		death=yes
	}
}
12155301={
	name=character_name_12155301 # Tanenori
	dynasty=10007015 # Kiuchi
	father=12155295 # Kiuchi Tanemitsu
	religion="shinto"
	culture="eastern_kanto"
	learning=7
	prowess=11
	1417.1.1={
		birth=yes
	}
	1455.1.1={
		death=yes
	}
}
12155400={
	name=character_name_12155400 # Tsunenaka
	dynasty=10007166 # Iho
	father=12155010 # Kazusa Tsunekage
	mother=12162021 # Nagasa Tsuneko
	religion="shinto"
	culture="eastern_kanto"
	learning=6
	prowess=11
	1145.1.1={
		birth=yes
	}
	1180.10.23={
		death={
			death_reason=death_execution
		}
	}
}
12155401={
	name=character_name_12155401 # Tsuneaki
	dynasty=10007016 # Iho
	father=12155010 # Kazusa Tsunekage
	mother=12162021 # Nagasa Tsuneko
	religion="shinto"
	culture="eastern_kanto"
	learning=5
	prowess=9
	1150.1.1={
		birth=yes
	}
	1210.1.1={
		death=yes
	}
}
12155405={
	name=character_name_12155405 # Tsunenobu
	dynasty=10007166 # Iho
	father=12155400 # Iho Tsunenaka
	religion="shinto"
	culture="eastern_kanto"
	learning=5
	prowess=9
	1170.1.1={
		birth=yes
	}
	1220.1.1={
		death=yes
	}
}
12155406={
	name=character_name_12155406 # Tokitsune
	dynasty=10007166 # Iho
	father=12155400 # Iho Tsunenaka
	religion="shinto"
	culture="eastern_kanto"
	learning=8
	prowess=11
	1175.1.1={
		birth=yes
	}
	1225.1.1={
		death=yes
	}
}
12155410={
	name=character_name_12155410 # Taneaki
	dynasty=10007016 # Iho
	father=12155401 # Iho Tsuneaki
	religion="shinto"
	culture="eastern_kanto"
	learning=7
	prowess=11
	1180.1.1={
		birth=yes
	}
	1227.1.1={
		death=yes
	}
}
12155412={
	name=character_name_12155412 # Tokitane
	dynasty=10007016 # Iho
	father=12155410 # Iho Taneaki
	religion="shinto"
	culture="eastern_kanto"
	learning=8
	prowess=9
	1205.1.1={
		birth=yes
	}
	1255.1.1={
		death=yes
	}
}
12155450={
	name=character_name_12155450 # Shigetsune
	dynasty=10007017 # Into
	father=12155011 # Into Tsuneshige
	religion="shinto"
	culture="eastern_kanto"
	learning=6
	prowess=11
	1150.1.1={
		birth=yes
	}
	1170.1.1={
		dynasty=10007018 # Chonan
	}
	1205.1.1={
		death=yes
	}
}
12155451={
	name=character_name_12155451 # Yoritsune
	dynasty=10007017 # Into
	father=12155011 # Into Tsuneshige
	religion="shinto"
	culture="eastern_kanto"
	learning=7
	prowess=11
	1152.1.1={
		birth=yes
	}
	1207.1.1={
		death=yes
	}
}
12155452={
	name=character_name_12155452 # Tsuneyosi
	dynasty=10007017 # Into
	father=12155011 # Into Tsuneshige
	religion="shinto"
	culture="eastern_kanto"
	learning=5
	prowess=10
	1154.1.1={
		birth=yes
	}
	1209.1.1={
		death=yes
	}
}
12155453={
	name=character_name_12155453 # Suketada
	dynasty=10007017 # Into
	father=12155011 # Into Tsuneshige
	religion="shinto"
	culture="eastern_kanto"
	learning=6
	prowess=9
	1156.1.1={
		birth=yes
	}
	1211.1.1={
		death=yes
	}
}
12155460={
	name=character_name_12155460 # Tsunenao
	dynasty=10007017 # Into
	father=12155451 # Into Yoritsune
	religion="shinto"
	culture="eastern_kanto"
	learning=6
	prowess=11
	1187.1.1={
		birth=yes
	}
	1247.7.8={
		death={
			death_reason=death_battle
		}
	}
}
12155461={
	name=character_name_12155461 # Sanetsune
	dynasty=10007017 # Into
	father=12155451 # Into Yoritsune
	religion="shinto"
	culture="eastern_kanto"
	learning=6
	prowess=9
	1190.1.1={
		birth=yes
	}
	1240.1.1={
		death=yes
	}
}
12155465={
	name=character_name_12155465 # Jiro
	dynasty=10007017 # Into
	father=12155460 # Into Tsunenao
	religion="shinto"
	culture="eastern_kanto"
	learning=7
	prowess=9
	1212.1.1={
		birth=yes
	}
	1247.7.8={
		death={
			death_reason=death_battle
		}
	}
}
12155466={
	name=character_name_12155466 # Saburo
	dynasty=10007017 # Into
	father=12155460 # Into Tsunenao
	religion="shinto"
	culture="eastern_kanto"
	learning=7
	prowess=10
	1215.1.1={
		birth=yes
	}
	1247.7.8={
		death={
			death_reason=death_battle
		}
	}
}
12155501={
	name=character_name_12155501 # Hisatsune
	dynasty=10007016 # Chonan
	father=12155450 # Chonan Shigetsune
	religion="shinto"
	culture="eastern_kanto"
	learning=7
	prowess=11
	1180.1.1={
		birth=yes
	}
	1230.1.1={
		death=yes
	}
}
12155502={
	name=character_name_12155502 # Tsunemasu
	dynasty=10007016 # Chonan
	father=12155450 # Chonan Shigetsune
	religion="shinto"
	culture="eastern_kanto"
	learning=6
	prowess=9
	1185.1.1={
		birth=yes
	}
	1235.1.1={
		death=yes
	}
}
12155503={
	name=character_name_12155503 # Tsunemasu
	dynasty=10007016 # Chonan
	father=12155450 # Chonan Shigetsune
	religion="shinto"
	culture="eastern_kanto"
	learning=8
	prowess=10
	1190.1.1={
		birth=yes
	}
	1240.1.1={
		death=yes
	}
}
12155505={
	name=character_name_12155505 # Tsunemasu
	dynasty=10007016 # Chonan
	father=12155501 # Chonan Hisatsune
	religion="shinto"
	culture="eastern_kanto"
	learning=7
	prowess=12
	1205.1.1={
		birth=yes
	}
	1255.1.1={
		death=yes
	}
}
12155506={
	name=character_name_12155506 # Moritsune
	dynasty=10007016 # Chonan
	father=12155501 # Chonan Hisatsune
	religion="shinto"
	culture="eastern_kanto"
	learning=5
	prowess=12
	1208.1.1={
		birth=yes
	}
	1258.1.1={
		death=yes
	}
}
12155508={
	name=character_name_12155508 # Tsunemura
	dynasty=10007016 # Chonan
	father=12155501 # Chonan Hisatsune
	religion="shinto"
	culture="eastern_kanto"
	learning=5
	prowess=10
	1211.1.1={
		birth=yes
	}
	1261.1.1={
		death=yes
	}
}
12155509={
	name=character_name_12155509 # Tsunesue
	dynasty=10007016 # Chonan
	father=12155501 # Chonan Hisatsune
	religion="shinto"
	culture="eastern_kanto"
	learning=7
	prowess=10
	1214.1.1={
		birth=yes
	}
	1264.1.1={
		death=yes
	}
}
12155510={
	name=character_name_12155510 # Tanemori
	dynasty=10007016 # Chonan
	father=12155505 # Iho Tsunemasu
	religion="shinto"
	culture="eastern_kanto"
	learning=7
	prowess=11
	1230.1.1={
		birth=yes
	}
	1280.1.1={
		death=yes
	}
}
12155512={
	name=character_name_12155512 # Tsuneyoshi
	dynasty=10007016 # Chonan
	father=12155506 # Iho Moritsune
	religion="shinto"
	culture="eastern_kanto"
	learning=7
	prowess=11
	1233.1.1={
		birth=yes
	}
	1283.1.1={
		death=yes
	}
}
12155513={
	name=character_name_12155513 # Tokitsune
	dynasty=10007016 # Chonan
	father=12155506 # Iho Moritsune
	religion="shinto"
	culture="eastern_kanto"
	learning=7
	prowess=10
	1235.1.1={
		birth=yes
	}
	1285.1.1={
		death=yes
	}
}
12155515={
	name=character_name_12155515 # Hidemura
	dynasty=10007016 # Chonan
	father=12155508 # Iho Tsunemura
	religion="shinto"
	culture="eastern_kanto"
	learning=8
	prowess=11
	1240.1.1={
		birth=yes
	}
	1290.1.1={
		death=yes
	}
}
12155516={
	name=character_name_12155516 # Hidetoki
	dynasty=10007016 # Chonan
	father=12155508 # Iho Tsunemura
	religion="shinto"
	culture="eastern_kanto"
	learning=8
	prowess=10
	1250.1.1={
		birth=yes
	}
	1300.1.1={
		death=yes
	}
}
12155518={
	name=character_name_12155518 # Hidetsune
	dynasty=10007016 # Chonan
	father=12155509 # Iho Tsunesue
	religion="shinto"
	culture="eastern_kanto"
	learning=5
	prowess=11
	1230.1.1={
		birth=yes
	}
	1280.1.1={
		death=yes
	}
}
12155519={
	name=character_name_12155519 # Yoshikado
	dynasty=10007016 # Chonan
	father=12155509 # Iho Tsunesue
	religion="shinto"
	culture="eastern_kanto"
	learning=6
	prowess=10
	1235.1.1={
		birth=yes
	}
	1285.1.1={
		death=yes
	}
}
12160100={
	name=character_name_12160100 # Chikamichi
	dynasty=10007019 # Chida
	religion="shinto"
	culture="eastern_kanto"
	learning=7
	prowess=11
	1080.1.1={
		birth=yes
	}
	1140.1.1={
		death=yes
	}
}
12160110={
	name=character_name_12160110 # Chikamori
	dynasty=10007019 # Chida
	father=12160100 # Chida Chikamichi
	religion="shinto"
	culture="eastern_kanto"
	learning=8
	prowess=10
	1110.1.1={
		birth=yes
	}
	1170.1.1={
		death=yes
	}
}
12160120={
	name=character_name_12160120 # Chikamasa
	dynasty=10007019 # Chida [Fujiwara]
	father=12160110 # Chida Chikamori
	religion="shinto"
	culture="eastern_kanto"
	learning=6
	prowess=12
	1140.1.1={
		birth=yes
	}
	1180.1.1={
		trait="jugoi_ge"
	}
	1180.10.4={
		death=yes
	}
}
12160121={
	female=yes
	name=character_name_12160121 # Shoyu
	dynasty=10007019 # Chida
	father=12160110 # Chida Chikamori
	religion="shinto"
	culture="eastern_kanto"
	learning=7
	prowess=12
	1145.1.1={
		birth=yes
	}
	1175.1.1={
		death=yes
	}
}
12161100={
	name=character_name_12161100 # Shigekuni
	dynasty=10007200 # Ito
	religion="shinto"
	culture="eastern_kanto"
	learning=5
	prowess=12
	1140.1.1={
		birth=yes
	}
	1169.1.1={
		add_spouse=12555008 # daughter of Yuasa Muneshige
	}
	1180.10.3={
		death=yes
	}
}
12161110={
	name=character_name_12161110 # Myoe
	dynasty=10007200 # Ito
	father=12161100 # Ito Shigekuni
	mother=12555008 # daughter of Yuasa Muneshige
	religion="shinto"
	culture="central_kinai"
	learning=4
	prowess=10
	1173.2.21={
		birth=yes
	}
	1183.1.1={
		trait="devoted"
		culture="kinai_buddhist"
	}
	1232.2.11={
		death=yes
	}
}
12162010={
	name=character_name_12162010 # Tsuneyasu
	dynasty=10007020 # Nagasa
	religion="shinto"
	culture="eastern_kanto"
	learning=7
	prowess=10
	1090.1.1={
		birth=yes
	}
	1150.1.1={
		death=yes
	}
}
12162020={
	name=character_name_12162020 # Tsunetomo
	dynasty=10007020 # Nagasa
	father=12162010 # Nagasa Tsuneyasu
	religion="shinto"
	culture="eastern_kanto"
	learning=7
	trait="education_intrigue_1"
	prowess=12
	1120.1.1={
		birth=yes
	}
	1180.9.23={
		death={
			death_reason=death_battle
			killer=12211030 # Miura Yoshizumi
		}
	}
}
12162021={
	female=yes
	name=character_name_12162021 # Tsuneko
	dynasty=10007020 # Nagasa
	father=12162010 # Nagasa Tsuneyasu
	religion="shinto"
	culture="eastern_kanto"
	learning=5
	prowess=11
	1125.1.1={
		birth=yes
	}
	1185.1.1={
		death=yes
	}
}
12163010={
	name=character_name_12163010 # Kagefusa
	dynasty=10007021 # Anzai
	religion="shinto"
	culture="eastern_kanto"
	learning=6
	prowess=10
	1110.1.1={
		birth=yes
	}
	1170.1.1={
		death=yes
	}
}
12163020={
	name=character_name_12163020 # Kagemasu
	dynasty=10007021 # Anzai
	father=12163010 # Anzai Kagefusa
	religion="shinto"
	culture="eastern_kanto"
	learning=7
	prowess=11
	1150.1.1={
		birth=yes
	}
	1210.1.1={
		death=yes
	}
}
12163030={
	name=character_name_12163030 # Akikage
	dynasty=10007021 # Anzai
	father=12163020 # Anzai Kagemasu
	religion="shinto"
	culture="eastern_kanto"
	learning=6
	prowess=12
	1170.1.1={
		birth=yes
	}
	1230.1.1={
		death=yes
	}
}
