﻿12540100={
	name=character_name_12540100 # Yorisumi
	dynasty=10007000 # Uno 
	father=10120332 # Uno  Yoriharu
	religion="shinto"
	culture="southern_kinai"
	learning=6
	prowess=12
	1080.1.1 ={
		birth=yes
	}
	1130.1.1={
		death=yes
	}
}
12540101={
	name=character_name_12540101 # Yorikata
	dynasty=10007000 # Uno 
	father=10120332 # Uno  Yoriharu
	religion="shinto"
	culture="southern_kinai"
	learning=7
	prowess=12
	1085.1.1={
		birth=yes
	}
	1135.1.1={
		death=yes
	}
}
12540102={
	name=character_name_12540102 # Chikahiro
	dynasty=10007000 # Uno 
	father=10120332 # Uno  Yoriharu
	religion="shinto"
	culture="southern_kinai"
	learning=7
	prowess=10
	1090.1.1 ={
		birth=yes
	}
	1160.1.1 ={
		death=yes
	}
}
12540103={
	name=character_name_12540103 # Chikamichi
	dynasty=10007000 # Uno 
	father=10120332 # Uno  Yoriharu
	religion="shinto"
	culture="southern_kinai"
	learning=7
	prowess=11
	1095.1.1={
		birth=yes
	}
	1145.1.1={
		death=yes
	}
}
12540105={
	name=character_name_12540105 # Chikaharu
	dynasty=10007000 # Uno 
	father=12540102 # Uno  Chikahiro 
	religion="shinto"
	culture="southern_kinai"
	learning=4
	prowess=10
	1116.4.17 ={
		birth=yes
	}
	1186.9.21 ={
		death=yes
	}
}
12540106={
	name=character_name_12540106 # Motochika
	dynasty=10007000 # Uno 
	father=12540102 # Uno  Chikahiro 
	religion="shinto"
	culture="southern_kinai"
	learning=5
	prowess=11
	1118.1.1={
		birth=yes
	}
	1168.1.1={
		death=yes
	}
}
12540107={
	name=character_name_12540107 # Motohiro
	dynasty=10007000 # Uno 
	father=12540102 # Uno  Chikahiro 
	religion="shinto"
	culture="southern_kinai"
	learning=6
	prowess=10
	1119.1.1={
		birth=yes
	}
	1169.1.1={
		death=yes
	}
}
12540108={
	name=character_name_12540108 # Motoshige
	dynasty=10007000 # Uno 
	father=12540102 # Uno  Chikahiro 
	religion="shinto"
	culture="southern_kinai"
	learning=8
	prowess=11
	1121.1.1={
		birth=yes
	}
	1171.1.1={
		death=yes
	}
}
12540109={
	name=character_name_12540109 # Chikamitsu
	dynasty=10007000 # Uno 
	father=12540102 # Uno  Chikahiro 
	religion="shinto"
	culture="southern_kinai"
	learning=5
	prowess=9
	1122.1.1={
		birth=yes
	}
	1172.1.1={
		death=yes
	}
}
12540110={
	female=yes
	name=character_name_12540110 # Iyo
	dynasty=10007000 # Uno 
	father=12540102 # Uno  Chikahiro 
	religion="shinto"
	culture="southern_kinai"
	learning=7
	prowess=10
	1125.1.1={
		birth=yes
	}
	1175.1.1={
		death=yes
	}
}
12540111={
	female=yes
	name=character_name_12540111 # Chikako
	dynasty=10007000 # Uno 
	father=12540102 # Uno  Chikahiro 
	religion="shinto"
	culture="southern_kinai"
	learning=5
	prowess=11
	1120.1.1 ={
		birth=yes
	}
	1190.1.1 ={
		death=yes
	}
}
12540112={
	name=character_name_12540112 # Ariharu
	dynasty=10007000 # Uno 
	father=12540105 # Uno  Chikaharu 
	religion="shinto"
	culture="southern_kinai"
	learning=5
	prowess=11
	1139.1.1 ={
		birth=yes
	}
	1221.1.1 ={
		death=yes
	}
}
12540113={
	name=character_name_12540113 # Kiyoharu
	dynasty=10007000 # Uno 
	father=12540105 # Uno  Chikaharu 
	religion="shinto"
	culture="southern_kinai"
	learning=5
	prowess=10
	1140.1.1={
		birth=yes
	}
	1191.1.1={
		death=yes
	}
}
12540114={
	name=character_name_12540114 # Toshiharu
	dynasty=10007000 # Uno 
	father=12540105 # Uno  Chikaharu 
	religion="shinto"
	culture="southern_kinai"
	learning=5
	prowess=12
	1141.1.1={
		birth=yes
	}
	1193.1.1={
		death=yes
	}
}
12540115={
	name=character_name_12540115 # Mitsuharu
	dynasty=10007000 # Uno 
	father=12540105 # Uno  Chikaharu 
	religion="shinto"
	culture="southern_kinai"
	learning=6
	prowess=10
	1142.1.1={
		birth=yes
	}
	1195.1.1={
		death=yes
	}
}
12540116={
	name=character_name_12540116 # Yoshiharu
	dynasty=10007000 # Uno 
	father=12540105 # Uno  Chikaharu 
	religion="shinto"
	culture="southern_kinai"
	learning=8
	prowess=10
	1143.1.1={
		birth=yes
	}
	1197.1.1={
		death=yes
	}
}
12540117={
	name=character_name_12540117 # Mitsuharu
	dynasty=10007000 # Uno 
	father=12540105 # Uno  Chikaharu 
	religion="shinto"
	culture="southern_kinai"
	learning=5
	prowess=10
	1144.1.1={
		birth=yes
	}
	1199.1.1={
		death=yes
	}
}
12540118={
	name=character_name_12540118 # Chikaie
	dynasty=10007000 # Uno 
	father=12540105 # Uno  Chikaharu 
	religion="shinto"
	culture="southern_kinai"
	learning=6
	prowess=9
	1145.1.1 ={
		birth=yes
	}
	1165.1.1={
		dynasty=10000414 # Yamato=Ochi
	}
	1205.1.1 ={
		death=yes
	}
}
12540119={
	name=character_name_12540119 # Nariharu
	dynasty=10007000 # Uno 
	father=12540105 # Uno  Chikaharu 
	religion="shinto"
	culture="southern_kinai"
	learning=5
	prowess=10
	1153.1.1={
		birth=yes
	}
	1203.1.1={
		death=yes
	}
}
12540120={
	name=character_name_12540120 # Yorimoto
	dynasty=10007000 # Uno 
	father=12540105 # Uno  Chikaharu 
	religion="shinto"
	culture="southern_kinai"
	learning=6
	prowess=11
	1155.1.1={
		birth=yes
	}
	1205.1.1={
		death=yes
	}
}
12540121={
	name=character_name_12540121 # Sueharu
	dynasty=10007000 # Uno 
	father=12540105 # Uno  Chikaharu 
	religion="shinto"
	culture="southern_kinai"
	learning=7
	prowess=11
	1157.1.1={
		birth=yes
	}
	1207.1.1={
		death=yes
	}
}
12540123={
	name=character_name_12540123 # Nobuchika
	dynasty=10007000 # Uno 
	father=12540112 # Uno  Ariharu 
	religion="shinto"
	culture="southern_kinai"
	learning=6
	prowess=9
	1165.1.1={
		birth=yes
	}
	1215.1.1={
		death=yes
	}
}
12540124={
	name=character_name_12540124 # Toshiharu
	dynasty=10007000 # Uno 
	father=12540112 # Uno  Ariharu 
	religion="shinto"
	culture="southern_kinai"
	learning=6
	prowess=11
	1168.1.1={
		birth=yes
	}
	1218.1.1={
		death=yes
	}
}
12540125={
	name=character_name_12540125 # Mitsuharu
	dynasty=10007000 # Uno 
	father=12540112 # Uno  Ariharu 
	religion="shinto"
	culture="southern_kinai"
	learning=7
	prowess=9
	1170.1.1 ={
		birth=yes
	}
	1230.1.1 ={
		death=yes
	}
}
12555000={
	name=character_name_12555000 # Muneshige
	dynasty=10007001 # Yuasa 
	religion="shinto"
	culture="southern_kinai"
	prowess=11
	1120.1.1 ={
		birth=yes
	}
	1195.1.1 ={
		death=yes
	}
}
12555001={
	name=character_name_12555001 # Munekage
	dynasty=10007001 # Yuasa 
	father=12555000 # Yuasa Muneshige 
	religion="shinto"
	culture="southern_kinai"
	prowess=10
	1155.1.1 ={
		birth=yes
	}
	1215.1.1 ={
		death=yes
	}
}
12555002={
	name=character_name_12555002 # Moritaka
	dynasty=10007001 # Yuasa 
	father=12555000 # Yuasa Muneshige 
	religion="shinto"
	culture="southern_kinai"
	prowess=9
	1160.1.1 ={
		birth=yes
	}
	1220.1.1 ={
		death=yes
	}
}
12555003={
	name=character_name_12555003 # Munekata
	dynasty=10007001 # Yuasa 
	father=12555000 # Yuasa Muneshige 
	religion="shinto"
	culture="southern_kinai"
	prowess=10
	1165.1.1 ={
		birth=yes
	}
	1225.1.1 ={
		death=yes
	}
}
12555004={
	name=character_name_12555004 # Munemitsu
	dynasty=10007001 # Yuasa 
	father=12555000 # Yuasa Muneshige 
	religion="shinto"
	culture="southern_kinai"
	prowess=9
	1170.1.1 ={
		birth=yes
	}
	1230.1.1 ={
		death=yes
	}
}
12555008={
	female=yes
	name=character_name_12555008 # Muneko
	dynasty=10007001 # Yuasa 
	father=12555000 # Yuasa Muneshige 
	religion="shinto"
	culture="southern_kinai"
	prowess=11
	1153.1.1={
		birth=yes
	}
	1203.1.1={
		death=yes
	}
}
12555010={
	name=character_name_12555010 # Munehiro
	dynasty=10007001 # Yuasa 
	father=12555001 # Yuasa Munekage 
	religion="shinto"
	culture="southern_kinai"
	prowess=9
	1180.1.1 ={
		birth=yes
	}
	1240.1.1 ={
		death=yes
	}
}
12550000={
	name=character_name_12550000 # Chokai
	dynasty=10007002 # Kumano 
	religion="shinto"
	culture="kinai_buddhist"
	prowess=9
	1037.1.1 ={
		birth=yes
	}
	1122.1.1 ={
		death=yes
	}
}
12550001={
	name=character_name_12550001 # Chohan
	dynasty=10007002 # Kumano 
	father=12550000 # Kumano Chokai 
	religion="shinto"
	culture="kinai_buddhist"
	prowess=10
	1081.1.1 ={
		birth=yes
	}
	1141.1.1 ={
		death=yes
	}
}
12550002={
	name=character_name_12550002 # Choken
	dynasty=10007002 # Kumano 
	father=12550000 # Kumano Chokai 
	religion="shinto"
	culture="kinai_buddhist"
	prowess=10
	1085.1.1 ={
		birth=yes
	}
	1145.1.1 ={
		death=yes
	}
}
12550003={
	name=character_name_12550003 # Tankai
	dynasty=10007002 # Kumano 
	father=12550000 # Kumano Chokai 
	religion="shinto"
	culture="kinai_buddhist"
	prowess=11
	1099.1.1 ={
		birth=yes
	}
	1174.1.1 ={
		death=yes
	}
}
12550004={
	name=character_name_12550004 # Kyoshin
	dynasty=10007002 # Kumano 
	father=12550000 # Kumano Chokai 
	religion="shinto"
	culture="kinai_buddhist"
	prowess=11
	1100.1.1 ={
		birth=yes
	}
	1160.1.1 ={
		death=yes
	}
}
12550010={
	name=character_name_12550010 # Gyohan
	dynasty=10007002 # Kumano 
	father=12550001 # Kumano Chohan 
	religion="shinto"
	culture="kinai_buddhist"
	prowess=11
	1115.1.1 ={
		birth=yes
	}
	1144.1.1={
		add_spouse=10120341 # Torii Zenni
	}
	1173.1.1 ={
		death=yes
	}
}
12550011={
	name=character_name_12550011 # Hanchi
	dynasty=10007002 # Kumano 
	father=12550001 # Kumano Chohan 
	religion="shinto"
	culture="kinai_buddhist"
	prowess=11
	1124.1.1 ={
		birth=yes
	}
	1184.10.1 ={
		death=yes
	}
}
12550020={
	name=character_name_12550020 # Gyomei
	dynasty=10007002 # Kumano 
	father=12550010 # Kumano Gyohan 
	mother=10120341 # Minamoto Torii Zenni
	religion="shinto"
	culture="kinai_buddhist"
	prowess=11
	1145.1.1 ={
		birth=yes
	}
	1190.1.1 ={
		death=yes
	}
}
12550021={
	name=character_name_12550021 # Gyokai
	dynasty=10007002 # Kumano 
	father=12550010 # Kumano Gyohan 
	mother=10120341 # Minamoto Torii Zenni
	religion="shinto"
	culture="kinai_buddhist"
	prowess=11
	1146.1.1 ={
		birth=yes
	}
	1202.1.1 ={
		death=yes
	}
}
12550022={
	name=character_name_12550022 # Hanmei
	dynasty=10007002 # Kumano 
	father=12550010 # Kumano Gyohan 
	mother=10120341 # Minamoto Torii Zenni
	religion="shinto"
	culture="kinai_buddhist"
	prowess=10
	1148.1.1 ={
		birth=yes
	}
	1208.1.1 ={
		death=yes
	}
}
12550023={
	name=character_name_12550023 # Gyohen
	dynasty=10007002 # Kumano 
	father=12550010 # Kumano Gyohan 
	mother=10120341 # Minamoto Torii Zenni
	religion="shinto"
	culture="kinai_buddhist"
	prowess=12
	1150.1.1 ={
		birth=yes
	}
	1210.1.1 ={
		death=yes
	}
}
12550024={
	female=yes
	name=character_name_12550024 # Noriko
	dynasty=10007002 # Kumano 
	father=12550010 # Kumano Gyohan 
	mother=10120341 # Minamoto Torii Zenni
	religion="shinto"
	culture="kinai_buddhist"
	prowess=11
	1152.1.1 ={
		birth=yes
	}
	1212.1.1 ={
		death=yes
	}
}
12550030={
	name=character_name_12550030 # Tanzo
	dynasty=10007002 # Kumano 
	father=12550003 # Kumano Tankai 
	religion="shinto"
	culture="kinai_buddhist"
	diplomacy=5
	trait="education_diplomacy_3"
	prowess=10
	1130.1.1 ={
		birth=yes
	}
	1168.1.1={
		add_spouse=12550024 # daughter of 2550010:Kumano Gyohan 
	}
	1198.6.14 ={
		death=yes
	}
}
12550031={
	female=yes
	name=character_name_12550031 # Yasuko
	dynasty=10007002 # Kumano 
	father=12550003 # Kumano Tankai 
	religion="shinto"
	culture="kinai_buddhist"
	prowess=11
	1145.1.1 ={
		birth=yes
	}
	1205.1.1 ={
		death=yes
	}
}
12550032={
	name=character_name_12550032 # Tansei
	dynasty=10007002 # Kumano 
	father=12550003 # Kumano Tankai 
	religion="shinto"
	culture="kinai_buddhist"
	prowess=11
	1147.1.1 ={
		birth=yes
	}
	1222.1.1 ={
		death=yes
	}
}
12550040={
	name=character_name_12550040 # Tanshin
	dynasty=10007002 # Kumano 
	father=12550030 # Kumano Tanzo 
	mother=12550024 # Kumano  Noriko 
	religion="shinto"
	culture="kinai_buddhist"
	prowess=10
	1182.1.1 ={
		birth=yes
	}
	1242.1.1 ={
		death=yes
	}
}
12550050={
	name=character_name_12550050 # Choshin
	dynasty=10007002 # Kumano 
	father=12550004 # Kumano Kyoshin 
	religion="shinto"
	culture="kinai_buddhist"
	prowess=10
	1120.1.1 ={
		birth=yes
	}
	1180.1.1 ={
		death=yes
	}
}
12550060={
	name=character_name_12550060 # Benkei
	dynasty=10007003 # Musashibo 
	diplomacy=7
	martial=6
	stewardship=8
	intrigue=6
	learning=6
	father=12550050 # Kumano Choshin 
	religion="shinto"
	culture="central_kinai"
	trait="education_martial_3"
	trait="intellect_good_2"
	trait="strong"
	trait="brave"
	trait="devoted"
	prowess=15
	1151.1.1 ={
		birth=yes
	}
	1174.1.1={
		employer=12030020 # Fujiwara Hidehira
	}
	1180.11.10={
		employer=10120075 # Minamoto Yoritomo
	}
	1189.6.15 ={
		death={
			death_reason=death_battle
		}
	}
}
12555100={
	name=character_name_12555100 # Shigekuni
	dynasty=10007227 # Suzuki
	religion="shinto"
	culture="southern_kinai"
	prowess=11
	1095.1.1={
		birth=yes
	}
	1131.1.1={
		death=yes
	}
}
12555105={
	name=character_name_12555105 # Shigenori
	dynasty=10007227 # Suzuki
	father=12555100 # 
	religion="shinto"
	culture="southern_kinai"
	prowess=10
	1120.1.1={
		birth=yes
	}
	1160.2.5={
		death=yes
	}
}
12555110={
	name=character_name_12555110 # Shigeie
	dynasty=10007227 # Suzuki
	father=12555105 # 
	religion="shinto"
	culture="southern_kinai"
	trait="education_martial_2"
	trait="brave"
	prowess=13
	1156.1.1={
		birth=yes
	}
	1180.1.1={
		employer=12550011 # Kumano Hanchi
	}
	1189.6.15={
		death=yes
	}
}
12555111={
	name=character_name_12555111 # Shigekiyo
	dynasty=10007228 # Kamei
	father=12555105 # 
	religion="shinto"
	culture="southern_kinai"
	trait="education_martial_2"
	trait="strong"
	prowess=13
	1160.1.1={
		birth=yes
	}
	1180.1.1={
		employer=12550011 # Kumano Hanchi
	}
	1189.6.15={
		death=yes
	}
}
12555200={
	name=character_name_12555200 # Tadayasu
	dynasty=10007229 # Sonobe
	religion="shinto"
	culture="southern_kinai"
	trait="education_martial_2"
	prowess=14
	1140.1.1={
		birth=yes
	}
	1180.1.1={
		employer=10120380 # Minamoto Yoshitsugu
	}
	1200.1.1={
		death=yes
	}
}
12560000={
	name=character_name_12560000 # Masato
	dynasty=10000488 # Kusunoki
	religion="shinto"
	culture="southern_kinai"
	prowess=11
	1260.1.1={
		birth=yes
	}
	1320.1.1={
		death=yes
	}
}
12560001={
	name=character_name_12560001 # Masashige
	dynasty=10000488 # Kusunoki
	father=12560000 # Kusunoki Masato
	religion="shinto"
	culture="southern_kinai"
	diplomacy=5
	martial=7
	stewardship=7
	intrigue=4
	learning=7
	trait="education_martial_4"
	trait="intellect_good_2"
	trait="strategist"
	trait="zealous"
	trait="brave"
	trait="shrewd"
	trait="flexible_leader"
	trait="cautious_leader"
	trait="flexible_leader"
	prowess=15
	1294.1.1={
		birth=yes
	}
	1319.1.1={
		add_spouse=12560099 # Minamie Hisako
	}
	1336.7.4={
		death=yes
	}
}
12560002={
	name=character_name_12560002 # Masasue
	dynasty=10000488 # Kusunoki
	father=12560000 # Kusunoki Masato
	religion="shinto"
	culture="southern_kinai"
	martial=6
	trait="education_martial_3"
	prowess=14
	1305.1.1={
		birth=yes
	}
	1336.7.4={
		death=yes
	}
}
12560005={
	name=character_name_12560005 # Masatsura
	dynasty=10000488 # Kusunoki
	father=12560001 # Kusunoki Masashige
	mother=12560099 # Minamie Hisako
	religion="shinto"
	culture="southern_kinai"
	martial=6
	trait="education_martial_3"
	trait="brave"
	prowess=13
	1320.1.1={
		birth=yes
	}
	1348.2.4={
		death=yes
	}
}
12560006={
	name=character_name_12560006 # Masatoki
	dynasty=10000488 # Kusunoki
	father=12560001 # Kusunoki Masashige
	mother=12560099 # Minamie Hisako
	religion="shinto"
	culture="southern_kinai"
	prowess=12
	1327.1.1={
		birth=yes
	}
	1348.2.4={
		death=yes
	}
}
12560007={
	name=character_name_12560007 # Masanori
	dynasty=10000488 # Kusunoki
	father=12560001 # Kusunoki Masashige
	mother=12560099 # Minamie Hisako
	religion="shinto"
	culture="southern_kinai"
	martial=6
	trait="education_martial_3"
	trait="strategist"
	prowess=13
	1333.1.1={
		birth=yes
	}
	1389.1.1={
		death=yes
	}
}
12560010={
	name=character_name_12560010 # Masakatsu
	dynasty=10000488 # Kusunoki
	father=12560007 # Kusunoki Masanori
	religion="shinto"
	culture="southern_kinai"
	martial=6
	trait="education_martial_3"
	prowess=13
	1351.1.1={
		birth=yes
	}
	1400.1.31={
		death=yes
	}
}
12560011={
	name=character_name_12560011 # Masamoto
	dynasty=10000488 # Kusunoki
	father=12560007 # Kusunoki Masanori
	religion="shinto"
	culture="southern_kinai"
	prowess=12
	1353.1.1={
		birth=yes
	}
	1392.6.1={
		death=yes
	}
}
12560012={
	name=character_name_12560012 # Masahide
	dynasty=10000488 # Kusunoki
	father=12560007 # Kusunoki Masanori
	religion="shinto"
	culture="southern_kinai"
	prowess=11
	1355.1.1={
		birth=yes
	}
	1410.1.1={
		death=yes
	}
}
12560015={
	name=character_name_12560015 # Masaaki
	dynasty=10000488 # Kusunoki
	father=12560010 # Kusunoki Masakatsu
	religion="shinto"
	culture="southern_kinai"
	prowess=10
	1377.1.1={
		birth=yes
	}
	1438.11.1={
		death=yes
	}
}
12560020={
	name=character_name_12560020 # Masashige
	dynasty=10000488 # Kusunoki
	father=12560015 # Kusunoki Masaaki
	religion="shinto"
	culture="western_chubu"
	prowess=11
	1403.1.1={
		birth=yes
	}
	1460.1.1={
		death=yes
	}
}
12560021={
	name=character_name_12560021 # Masamichi
	dynasty=10000488 # Kusunoki
	father=12560015 # Kusunoki Masaaki
	religion="shinto"
	culture="western_chubu"
	prowess=11
	1405.1.1={
		birth=yes
	}
	1448.1.1={
		death=yes
	}
}
12560022={
	name=character_name_12560022 # Masatake
	dynasty=10000488 # Kusunoki
	father=12560015 # Kusunoki Masaaki
	religion="shinto"
	culture="western_chubu"
	prowess=12
	1408.1.1={
		birth=yes
	}
	1443.10.18={
		death=yes
	}
}
12560025={
	name=character_name_12560025 # Masashige
	dynasty=10000488 # Kusunoki
	father=12560020 # Kusunoki Masashige
	religion="shinto"
	culture="western_chubu"
	prowess=10
	1427.1.1={
		birth=yes
	}
	1488.3.1={
		death=yes
	}
}
12560030={
	name=character_name_12560030 # Masashige
	dynasty=10000488 # Kusunoki
	father=12560025 # Kusunoki Masashige
	religion="shinto"
	culture="western_chubu"
	prowess=11
	1449.1.1={
		birth=yes
	}
	1525.7.1={
		death=yes
	}
}
12560035={
	name=character_name_12560035 # Masatomi
	dynasty=10000488 # Kusunoki
	father=12560025 # Kusunoki Masatake
	religion="shinto"
	culture="western_chubu"
	prowess=10
	1440.1.1={
		birth=yes
	}
	1500.1.1={
		death=yes
	}
}
12560040={
	name=character_name_12560040 # Masaatsu
	dynasty=10000488 # Kusunoki
	father=12560035 # Kusunoki Masatomi
	religion="shinto"
	culture="western_chubu"
	prowess=10
	1477.1.1={
		birth=yes
	}
	1527.3.25={
		death=yes
	}
}
12560045={
	name=character_name_12560045 # Masatada
	dynasty=10000488 # Kusunoki
	father=12560040 # Kusunoki Masamitsu
	religion="shinto"
	culture="western_chubu"
	prowess=10
	1498.1.1={
		birth=yes
	}
	1574.5.1={
		death=yes
	}
}
12560050={
	name=character_name_12560050 # Masatomo
	dynasty=10000488 # Kusunoki
	father=12560045 # Kusunoki Masatada
	religion="shinto"
	culture="western_chubu"
	prowess=10
	1516.1.1={
		birth=yes
	}
	1576.1.1={
		death=yes
	}
}
12560055={
	name=character_name_12560055 # Masamori
	dynasty=10000488 # Kusunoki
	father=12560050 # Kusunoki Masatomo
	religion="shinto"
	culture="western_chubu"
	prowess=10
	1569.1.1={
		birth=yes
	}
	1584.6.14={
		death=yes
	}
}
12560060={
	name=character_name_12560060 # Masamori
	dynasty=10000488 # Kusunoki
	father=12560012 # Kusunoki Masahide
	religion="shinto"
	culture="southern_kinai"
	prowess=10
	1375.1.1={
		birth=yes
	}
	1435.1.1={
		death=yes
	}
}
12560065={
	name=character_name_12560065 # Morinobu
	dynasty=10000488 # Kusunoki
	father=12560060 # Kusunoki Masamori
	religion="shinto"
	culture="southern_kinai"
	prowess=11
	1400.1.1={
		birth=yes
	}
	1460.1.1={
		death=yes
	}
}
12560070={
	name=character_name_12560070 # Morimune
	dynasty=10000488 # Kusunoki
	father=12560065 # Kusunoki Morinobu
	religion="shinto"
	culture="southern_kinai"
	prowess=10
	1425.1.1={
		birth=yes
	}
	1485.1.1={
		death=yes
	}
}
12560075={
	name=character_name_12560075 # Morihide
	dynasty=10000488 # Kusunoki
	father=12560070 # Kusunoki Morimune
	religion="shinto"
	culture="southern_kinai"
	prowess=11
	1450.1.1={
		birth=yes
	}
	1510.1.1={
		death=yes
	}
}
12560080={
	name=character_name_12560080 # Naganari
	dynasty=10000488 # Kusunoki
	father=12560075 # Kusunoki Morihide
	religion="shinto"
	culture="southern_kinai"
	prowess=11
	1475.1.1={
		birth=yes
	}
	1535.1.1={
		death=yes
	}
}
12560085={
	name=character_name_12560085 # Takanari
	dynasty=10000488 # Kusunoki
	father=12560080 # Kusunoki Naganari
	religion="shinto"
	culture="southern_kinai"
	prowess=11
	1500.1.1={
		birth=yes
	}
	1550.1.1={
		death=yes
	}
}
12560099={
	name=character_name_12560099 # Hisako
	female=yes
	dynasty=10007332 # Minamie
	religion="shinto"
	culture="southern_kinai"
	prowess=9
	1300.1.1={
		birth=yes
	}
	1360.1.1={
		death=yes
	}
}
