﻿10250001 = {
	name=character_name_10250001 # Jikutatsu #King of Shinkan
	dynasty=10005500 #Ying
	martial=7
	diplomacy=5
	intrigue=7
	stewardship=5
	learning=6
	religion="shinto"
	culture="aristocrats"
	trait="education_diplomacy_1"
	prowess=11
	150.1.1={
		birth=yes
	}
	230.1.1={
		death=yes
	}
}
10250002 = {
	name=character_name_10250002 # Chinsei
	dynasty=10005500 #Ying
	father=10250001
	religion="shinto"
	culture="aristocrats"
	trait="education_diplomacy_1"
	prowess=10
	180.1.1={
		birth=yes
	}
	250.1.1={
		death=yes
	}
}
10250003 = {
	name=character_name_10250003 # Koutoku
	dynasty=10005500 #Ying
	father=10250002
	religion="shinto"
	culture="aristocrats"
	trait="education_diplomacy_1"
	prowess=11
	210.1.1={
		birth=yes
	}
	290.1.1={
		death=yes
	}
}
10250004 = {
	name=character_name_10250004 # Songi
	dynasty=10005500 #Ying
	father=10250003
	religion="shinto"
	culture="aristocrats"
	trait="education_diplomacy_1"
	prowess=11
	240.1.1={
		birth=yes
	}
	320.1.1={
		death=yes
	}
}
10250005 = {
	name=character_name_10250005 # Koma #In emperor Chuai era, Naturalized in Japan.
	dynasty=10005500 #Ying
	father=10250004
	religion="shinto"
	culture="aristocrats"
	trait="education_diplomacy_1"
	prowess=10
	280.1.1={
		birth=yes
	}
	350.1.1={
		death=yes
	}
}
10250006 = {
	name=character_name_10250006 # Jokai #In emperor Chuai era, Naturalized in Japan.
	dynasty=10005500 #Ying
	father=10250004
	religion="shinto"
	culture="aristocrats"
	trait="education_diplomacy_1"
	prowess=10
	290.1.1={
		birth=yes
	}
	370.1.1={
		death=yes
	}
}
10250007 = {
	name=character_name_10250007 # Zennokai
	dynasty=10005500 #Ying
	father=10250006
	religion="shinto"
	culture="aristocrats"
	trait="education_diplomacy_1"
	prowess=10
	310.1.1={
		birth=yes
	}
	380.1.1={
		death=yes
	}
}
10250008 = {
	name=character_name_10250008 # Kyugetsu
	dynasty=10005500 #Ying
	father=10250005
	religion="shinto"
	culture="aristocrats"
	trait="education_diplomacy_1"
	prowess=11
	310.1.1={
		birth=yes
	}
	370.1.1={
		death=yes
	}
}
10250009 = {
	name=character_name_10250009 # Matoku
	dynasty=10005500 #Ying
	father=10250008
	religion="shinto"
	culture="aristocrats"
	trait="education_diplomacy_1"
	prowess=12
	330.1.1={
		birth=yes
	}
	400.1.1={
		death=yes
	}
}
10250010 = {
	name=character_name_10250010 # Shinto
	dynasty=10005500 #Ying
	father=10250009
	religion="shinto"
	culture="aristocrats"
	trait="education_diplomacy_1"
	prowess=11
	375.1.1={
		birth=yes
	}
	430.1.1={
		death=yes
	}
}
10250011 = {
	name=character_name_10250011 # Unshi
	dynasty=10005500 #Ying
	father=10250009
	religion="shinto"
	culture="aristocrats"
	trait="education_diplomacy_1"
	prowess=10
	380.1.1={
		birth=yes
	}
	440.1.1={
		death=yes
	}
}
10250012 = {
	name=character_name_10250012 # Buryo
	dynasty=10005500 #Ying
	father=10250009
	religion="shinto"
	culture="aristocrats"
	trait="education_diplomacy_1"
	prowess=10
	385.1.1={
		birth=yes
	}
	450.1.1={
		death=yes
	}
}
10250013 = {
	name=character_name_10250013 # Sake #In emperor Yuryaku era, became Okura no Kami
	dynasty=10005501 #Hata
	father=10250010
	stewardship=4
	religion="shinto"
	culture="aristocrats"
	trait="education_diplomacy_1"
	prowess=10
	410.1.1={
		birth=yes
	}
	490.1.1={
		death=yes
	}
}
10250014 = {
	name=character_name_10250014 # Omi
	dynasty=10005501 #Hata
	father=10250013
	religion="shinto"
	culture="aristocrats"
	trait="education_diplomacy_1"
	prowess=10
	450.1.1={
		birth=yes
	}
	520.1.1={
		death=yes
	}
}
10250015 = {
	name=character_name_10250015 # Ushi
	dynasty=10005501 #Hata
	father=10250014
	religion="shinto"
	culture="aristocrats"
	trait="education_diplomacy_1"
	prowess=10
	490.1.1={
		birth=yes
	}
	550.1.1={
		death=yes
	}
}
10250016 = {
	name=character_name_10250016 # Shikatsu
	dynasty=10005501 #Hata
	father=10250014
	religion="shinto"
	culture="aristocrats"
	trait="education_diplomacy_1"
	prowess=12
	500.1.1={
		birth=yes
	}
	560.1.1={
		death=yes
	}
}
10250017 = {
	name=character_name_10250017 # Chichiko
	dynasty=10005501 #Hata
	father=10250014
	religion="shinto"
	culture="aristocrats"
	trait="education_diplomacy_1"
	prowess=10
	510.1.1={
		birth=yes
	}
	570.1.1={
		death=yes
	}
}
10250018 = {
	name=character_name_10250018 # Umakai
	dynasty=10005501 #Hata
	father=10250014
	religion="shinto"
	culture="aristocrats"
	trait="education_diplomacy_1"
	prowess=11
	515.1.1={
		birth=yes
	}
	570.1.1={
		death=yes
	}
}
10250019 = {
	name=character_name_10250019 # Tansho
	dynasty=10005501 #Hata
	father=10250015
	religion="shinto"
	culture="aristocrats"
	trait="education_diplomacy_1"
	prowess=10
	530.1.1={
		birth=yes
	}
	600.1.1={
		death=yes
	}
}
10250020 = {
	name=character_name_10250020 # Kunikatsu
	dynasty=10005501 #Hata
	father=10250015
	religion="shinto"
	culture="aristocrats"
	trait="education_diplomacy_1"
	prowess=12
	535.1.1={
		birth=yes
	}
	600.1.1={
		death=yes
	}
}
10250021 = {
	name=character_name_10250021 # Kawakatsu #Serve Crown prince Shotoku
	dynasty=10005501 #Hata
	father=10250019
	religion="shinto"
	culture="aristocrats"
	trait="education_diplomacy_1"
	prowess=10
	565.1.1={
		birth=yes
	}
	600.1.1={
		trait="shoshii_ge"
	}
	620.1.1={
		death=yes
	}
}
10250022 = {
	name=character_name_10250022 # Tsunade #male
	dynasty=10005501 #Hata
	father=10250021
	religion="shinto"
	culture="aristocrats"
	trait="education_diplomacy_1"
	prowess=11
	595.1.1={
		birth=yes
	}
	650.1.1={
		trait="shoshii_ge"
	}
	660.1.1={
		death=yes
	}
}
10250023 = {
	name=character_name_10250023 # Ishikatsu
	dynasty=10005501 #Hata
	father=10250021
	religion="shinto"
	culture="aristocrats"
	trait="education_diplomacy_1"
	prowess=10
	610.1.1={
		birth=yes
	}
	680.1.1={
		death=yes
	}
}
10250024 = {
	name=character_name_10250024 # Takitsu
	dynasty=10005501 #Hata
	father=10250021
	religion="shinto"
	culture="aristocrats"
	trait="education_diplomacy_1"
	prowess=10
	615.1.1={
		birth=yes
	}
	660.1.1={
		trait="jugoi_ge"
	}
	663.10.5={
		death=yes
	}
}
10250025 = {
	name=character_name_10250025 # Mononushi
	dynasty=10005501 #Hata
	father=10250021
	religion="shinto"
	culture="aristocrats"
	trait="education_diplomacy_1"
	prowess=9
	619.1.1={
		birth=yes
	}
	689.10.5={
		death=yes
	}
}
10250026 = {
	name=character_name_10250026 # Ushimaro
	dynasty=10005501 #Hata
	father=10250023
	religion="shinto"
	culture="aristocrats"
	trait="education_diplomacy_1"
	prowess=10
	640.1.1={
		birth=yes
	}
	700.1.1={
		death=yes
	}
}
10250027 = {
	name=character_name_10250027 # Momotari
	dynasty=10005501 #Hata
	father=10250023
	religion="shinto"
	culture="aristocrats"
	trait="education_diplomacy_1"
	prowess=11
	650.1.1={
		birth=yes
	}
	720.1.1={
		death=yes
	}
}
10250028 = {
	name=character_name_10250028 # Hironiwa
	dynasty=10005501 #Hata
	father=10250023
	religion="shinto"
	culture="aristocrats"
	trait="education_diplomacy_1"
	prowess=11
	655.1.1={
		birth=yes
	}
	720.1.1={
		death=yes
	}
}
10250029 = {
	name=character_name_10250029 # Ouo
	dynasty=10005501 #Hata
	father=10250028
	religion="shinto"
	culture="aristocrats"
	trait="education_diplomacy_1"
	prowess=10
	690.1.1={
		birth=yes
	}
	730.1.1={
		trait="jugoi_ge"
	}
	750.1.1={
		death=yes
	}
}
10250030 = {
	name=character_name_10250030 # Shimamaro
	dynasty=10005501 #Hata
	father=10250026
	religion="shinto"
	culture="aristocrats"
	trait="education_diplomacy_1"
	prowess=11
	690.1.1={
		birth=yes
	}
	740.1.1={
		trait="jushii_ge"
	}
	750.1.1={
		death=yes
	}
}
10250031 = {
	name=character_name_10250031 # Shimako #Fujiwara Oguromaro's wife
	dynasty=10005501 #Hata
	female=yes
	father=10250030
	religion="shinto"
	culture="aristocrats"
	trait="education_diplomacy_1"
	prowess=10
	740.1.1={
		birth=yes
	}
	800.1.1={
		death=yes
	}
}
10250032 = {
	name=character_name_10250032 # Tarikuni
	dynasty=10005501 #Hata
	father=10250027
	religion="shinto"
	culture="aristocrats"
	trait="education_diplomacy_1"
	prowess=10
	690.1.1={
		birth=yes
	}
	740.1.1={
		trait="jugoi_ge"
	}
	750.1.1={
		death=yes
	}
}
10250033 = {
	name=character_name_10250033 # Oyakeme #Uneme
	dynasty=10005501 #Hata
	female=yes
	father=10250027
	religion="shinto"
	culture="aristocrats"
	trait="education_diplomacy_1"
	prowess=10
	700.1.1={
		birth=yes
	}
	740.1.1={
		trait="jugoi_ge"
	}
	780.1.1={
		death=yes
	}
}
10250034 = {
	name=character_name_10250034 # Tomomaro
	dynasty=10005501 #Hata
	father=10250032
	religion="shinto"
	culture="aristocrats"
	trait="education_diplomacy_1"
	prowess=11
	720.1.1={
		birth=yes
	}
	800.1.1={
		death=yes
	}
}
10250035 = {
	name=character_name_10250035 # Iwatake
	dynasty=10005501 #Hata
	father=10250032
	religion="shinto"
	culture="aristocrats"
	trait="education_diplomacy_1"
	prowess=10
	725.1.1={
		birth=yes
	}
	790.1.1={
		trait="jugoi_ge"
	}
	800.1.1={
		death=yes
	}
}
10250036 = {
	name=character_name_10250036 # Minomori
	dynasty=10005501 #Hata
	father=10250032
	religion="shinto"
	culture="aristocrats"
	trait="education_diplomacy_1"
	prowess=11
	730.1.1={
		birth=yes
	}
	790.1.1={
		trait="jugoi_ge"
	}
	800.1.1={
		death=yes
	}
}
10250037 = {
	name=character_name_10250037 # Tarinaga
	dynasty=10005501 #Hata
	father=10250035
	religion="shinto"
	culture="aristocrats"
	trait="education_diplomacy_1"
	prowess=11
	750.1.1={
		birth=yes
	}
	800.1.1={
		trait="jugoi_jo"
	}
	810.1.1={
		death=yes
	}
}
10250038 = {
	name=character_name_10250038 # Tomonari
	dynasty=10005501 #Hata
	father=10250035
	religion="shinto"
	culture="aristocrats"
	trait="education_diplomacy_1"
	prowess=10
	780.1.1={
		birth=yes
	}
	815.1.1={
		trait="jugoi_ge"
	}
	840.1.1={
		death=yes
	}
}
10250039 = {
	name=character_name_10250039 # Ujitsugu
	dynasty=10005501 #Hata
	father=10250038
	religion="shinto"
	culture="aristocrats"
	trait="education_diplomacy_1"
	prowess=9
	800.1.1={
		birth=yes
	}
	835.1.1={
		trait="jugoi_ge"
	}
	870.1.1={
		death=yes
	}
}
10250040 = {
	name=character_name_10250040 # Sanenaka
	dynasty=10005501 #Hata
	father=10250038
	religion="shinto"
	culture="aristocrats"
	trait="education_diplomacy_1"
	prowess=11
	815.1.1={
		birth=yes
	}
	850.1.1={
		trait="jugoi_ge"
	}
	870.1.1={
		death=yes
	}
}
10250041 = {
	name=character_name_10250041 # Saneko #Ono Atemine's wife
	dynasty=10005501 #Hata
	female=yes
	father=10250039
	religion="shinto"
	culture="aristocrats"
	trait="education_diplomacy_1"
	prowess=10
	840.1.1={
		birth=yes
	}
	900.1.1={
		death=yes
	}
}
10250042 = {
	name=character_name_10250042 # Haruko #Minu Kiyoto's wife
	dynasty=10005501 #Hata
	female=yes
	father=10250039
	religion="shinto"
	culture="aristocrats"
	trait="education_diplomacy_1"
	prowess=10
	850.1.1={
		birth=yes
	}
	930.1.1={
		death=yes
	}
}
10250043 = {
	name=character_name_10250043 # Akieko #Fujiwara Tomoyuki's wife
	dynasty=10005501 #Hata
	female=yes
	father=10250067
	religion="shinto"
	culture="aristocrats"
	trait="education_diplomacy_1"
	prowess=11
	880.1.1={
		birth=yes
	}
	930.1.1={
		death=yes
	}
}
10250044 = {
	name=character_name_10250044 # Nagaatsu
	dynasty=10005502 #Koremune
	father=10250039
	religion="shinto"
	culture="aristocrats"
	trait="education_diplomacy_1"
	prowess=9
	820.1.1={
		birth=yes
	}
	890.1.1={
		trait="jugoi_ge"
	}
	894.1.28={
		death=yes
	}
}
10250045 = {
	name=character_name_10250045 # Sonanori
	dynasty=10005502 #Koremune
	father=10250044
	religion="shinto"
	culture="aristocrats"
	trait="education_diplomacy_1"
	prowess=10
	860.1.1={
		birth=yes
	}
	900.1.1={
		trait="scholar"
	}
	910.1.1={
		trait="jugoi_jo"
	}
	930.1.1={
		death=yes
	}
}
10250046 = {
	name=character_name_10250046 # Hirosue
	dynasty=10005502 #Koremune
	father=10250045
	religion="shinto"
	culture="aristocrats"
	trait="education_diplomacy_1"
	prowess=11
	910.1.1={
		birth=yes
	}
	980.1.1={
		death=yes
	}
}
10250047 = {
	name=character_name_10250047 # Takashige
	dynasty=10005502 #Koremune
	father=10250046
	religion="shinto"
	culture="aristocrats"
	trait="education_diplomacy_1"
	prowess=12
	950.1.1={
		birth=yes
	}
	980.1.1={
		trait="jugoi_ge"
	}
	1030.1.1={
		death=yes
	}
}
10250048 = {
	name=character_name_10250048 # Kunishige
	dynasty=10005502 #Koremune
	father=10250046
	religion="shinto"
	culture="aristocrats"
	trait="education_diplomacy_1"
	prowess=10
	965.1.1={
		birth=yes
	}
	1000.1.1={
		death=yes
	}
}
10250049 = {
	name=character_name_10250049 # Toshikuni
	dynasty=10005502 #Koremune
	father=10250046
	religion="shinto"
	culture="aristocrats"
	trait="education_diplomacy_1"
	prowess=11
	970.1.1={
		birth=yes
	}
	1030.1.1={
		death=yes
	}
}
10250050 = {
	name=character_name_10250050 # Tameshige
	dynasty=10005502 #Koremune
	father=10250046
	religion="shinto"
	culture="aristocrats"
	trait="education_diplomacy_1"
	prowess=10
	975.1.1={
		birth=yes
	}
	1040.1.1={
		death=yes
	}
}
10250051 = {
	name=character_name_10250051 # Takachika
	dynasty=10005502 #Koremune
	father=10250047
	religion="shinto"
	culture="aristocrats"
	trait="education_diplomacy_1"
	prowess=10
	990.1.1={
		birth=yes
	}
	1020.1.1={
		trait="jugoi_ge"
	}
	1060.1.1={
		death=yes
	}
}
10250052 = {
	name=character_name_10250052 # Nobukoto
	dynasty=10005502 #Koremune
	father=10250047
	religion="shinto"
	culture="aristocrats"
	trait="education_diplomacy_1"
	prowess=12
	995.1.1={
		birth=yes
	}
	1065.1.1={
		death=yes
	}
}
10250053 = {
	name=character_name_10250053 # Shigetada
	dynasty=10005502 #Koremune
	father=10250047
	religion="shinto"
	culture="aristocrats"
	trait="education_diplomacy_1"
	prowess=11
	1000.1.1={
		birth=yes
	}
	1050.1.1={
		death=yes
	}
}
10250054 = {
	name=character_name_10250054 # Sadashige
	dynasty=10005502 #Koremune
	father=10250053
	religion="shinto"
	culture="aristocrats"
	trait="education_diplomacy_1"
	prowess=10
	1020.1.1={
		birth=yes
	}
	1080.1.1={
		death=yes
	}
}
10250055 = {
	name=character_name_10250055 # Motoshige
	dynasty=10005502 #Koremune
	father=10250053
	religion="shinto"
	culture="aristocrats"
	trait="education_diplomacy_1"
	prowess=11
	1025.1.1={
		birth=yes
	}
	1080.1.1={
		death=yes
	}
}
10250056 = {
	name=character_name_10250056 # Mototada
	dynasty=10005502 #Koremune
	father=10250053
	religion="shinto"
	culture="aristocrats"
	trait="education_diplomacy_1"
	prowess=10
	1030.1.1={
		birth=yes
	}
	1090.1.1={
		death=yes
	}
}
10250057 = {
	name=character_name_10250057 # Tadakoto
	dynasty=10005502 #Koremune
	father=10250053
	religion="shinto"
	culture="aristocrats"
	trait="education_diplomacy_1"
	prowess=10
	1035.1.1={
		birth=yes
	}
	1100.1.1={
		death=yes
	}
}
10250058 = {
	name=character_name_10250058 # Sadako #Taira Shigekiyo's wife, Koresada's mother
	dynasty=10005502 #Koremune
	female=yes
	father=10250053
	religion="shinto"
	culture="aristocrats"
	trait="education_diplomacy_1"
	prowess=10
	1030.1.1={
		birth=yes
	}
	1080.1.1={
		death=yes
	}
}
10250059 = {
	name=character_name_10250059 # Tadayuki
	dynasty=10005502 #Koremune
	father=10250054
	religion="shinto"
	culture="aristocrats"
	trait="education_diplomacy_1"
	prowess=11
	1050.1.1={
		birth=yes
	}
	1110.1.1={
		death=yes
	}
}
10250060 = {
	name=character_name_10250060 # Sachiko #Fujiwara Yoshikane(Fujiwara Nanke)'s wife
	dynasty=10005502 #Koremune
	female=yes
	father=10250059
	religion="shinto"
	culture="aristocrats"
	trait="education_diplomacy_1"
	prowess=12
	1080.1.1={
		birth=yes
	}
	1150.1.1={
		death=yes
	}
}
10250061 = {
	name=character_name_10250061 # Takakoto
	dynasty=10005502 #Koremune
	father=10250051
	religion="shinto"
	culture="aristocrats"
	trait="education_diplomacy_1"
	prowess=11
	1035.1.1={
		birth=yes
	}
	1087.1.1={
		trait="scholar"
		trait="shogoi_ge"
	}
	1100.1.1={
		death=yes
	}
}
10250062 = {
	name=character_name_10250062 # Sukekoto
	dynasty=10005502 #Koremune
	father=10250051
	religion="shinto"
	culture="aristocrats"
	trait="education_diplomacy_1"
	prowess=11
	1040.1.1={
		birth=yes
	}
	1110.1.1={
		death=yes
	}
}
10250063 = {
	name=character_name_10250063 # Iekoto
	dynasty=10005502 #Koremune
	father=10250061
	religion="shinto"
	culture="aristocrats"
	trait="education_diplomacy_1"
	prowess=12
	1080.1.1={
		birth=yes
	}
	1140.1.1={
		death=yes
	}
}
10250064 = {
	name=character_name_10250064 # Motokoto
	dynasty=10005502 #Koremune
	father=10250061
	religion="shinto"
	culture="aristocrats"
	trait="education_diplomacy_1"
	prowess=10
	1090.1.1={
		birth=yes
	}
	1120.1.1={
		trait="jugoi_ge"
	}
	1150.1.1={
		death=yes
	}
}
10250065 = {
	name=character_name_10250065 # Hirokoto
	dynasty=10005502 #Koremune
	father=10250064
	religion="shinto"
	culture="aristocrats"
	trait="education_diplomacy_1"
	prowess=9
	1120.1.1={
		birth=yes
	}
	1149.1.1={
		add_spouse=12204337 # Tango no Naishi
	}
	1151.1.1={
		remove_spouse=12204337 # Tango no Naishi
	}
	1160.1.1={
		trait="jugoi_ge"
	}
	1180.5.18={
		employer=10041059 # Emperor Antoku
	}
	1190.1.1={
		death=yes
	}
}
10250066 = {
	name=character_name_10250066 # Otsufu #Ancester of Fushimi Inari Srine Shikan
	dynasty=10005501 #Hata
	father=10250016
	religion="shinto"
	culture="aristocrats"
	trait="education_diplomacy_1"
	prowess=11
	550.1.1={
		birth=yes
	}
	640.1.1={
		death=yes
	}
}
10250067 = {
	name=character_name_10250067 # Saneharu
	dynasty=10005501 #Hata
	father=10250040
	religion="shinto"
	culture="aristocrats"
	trait="education_diplomacy_1"
	prowess=11
	840.1.1={
		birth=yes
	}
	890.1.1={
		trait="jugoi_ge"
	}
	900.1.1={
		death=yes
	}
}
10250070={
	name=character_name_10250070 # Tadakata
	dynasty=10005502 # Koremune
	father=10250061 # Koremune Takakoto
	religion="shinto"
	culture="aristocrats"
	prowess=10
	1060.1.1={
		birth=yes
	}
	1120.1.1={
		death=yes
	}
}
10250071={
	name=character_name_10250071 # Tomokuni
	dynasty=10005502 # Koremune
	father=10250070 # Koremune Tadakata
	religion="shinto"
	culture="aristocrats"
	prowess=11
	1085.1.1={
		birth=yes
	}
	1145.1.1={
		death=yes
	}
}
10250072={
	name=character_name_10250072 # Tomokane
	dynasty=10005502 # Koremune
	father=10250071 # Koremune Tomokuni
	religion="shinto"
	culture="aristocrats"
	prowess=12
	1110.1.1={
		birth=yes
	}
	1170.1.1={
		death=yes
	}
}
10250073={
	name=character_name_10250073 # Tomohiro
	dynasty=10005502 # Koremune
	father=10250072 # Koremune Tomokane
	religion="shinto"
	culture="aristocrats"
	prowess=10
	1135.1.1={
		birth=yes
	}
	1175.1.1={
		death=yes
	}
}
10250101 = {
	name=character_name_10250101 # Kubimaro
	dynasty=10005501 #Hata
	father=10250029
	religion="shinto"
	culture="aristocrats"
	trait="education_diplomacy_1"
	prowess=11
	720.1.1={
		birth=yes
	}
	760.1.1={
		trait="jugoi_ge"
	}
	790.1.1={
		death=yes
	}
}
10250102 = {
	name=character_name_10250102 # Saneshige
	dynasty=10005501 #Hata
	father=10250029
	religion="shinto"
	culture="aristocrats"
	trait="education_diplomacy_1"
	prowess=12
	730.1.1={
		birth=yes
	}
	790.1.1={
		death=yes
	}
}
10250103 = {
	name=character_name_10250103 # Nagatari
	dynasty=10005501 #Hata
	father=10250102
	religion="shinto"
	culture="aristocrats"
	trait="education_diplomacy_1"
	prowess=10
	760.1.1={
		birth=yes
	}
	820.1.1={
		trait="jugoi_ge"
	}
	830.1.1={
		death=yes
	}
}
10250104 = {
	name=character_name_10250104 # Hamamaro
	dynasty=10005501 #Hata
	father=10250103
	religion="shinto"
	culture="aristocrats"
	trait="education_diplomacy_1"
	prowess=10
	790.1.1={
		birth=yes
	}
	850.1.1={
		death=yes
	}
}
10250105 = {
	name=character_name_10250105 # Taketari
	dynasty=10005501 #Hata
	father=10250103
	religion="shinto"
	culture="aristocrats"
	trait="education_diplomacy_1"
	prowess=9
	800.1.1={
		birth=yes
	}
	860.1.1={
		death=yes
	}
}
10250106 = {
	name=character_name_10250106 # Ujishige
	dynasty=10005501 #Hata
	father=10250105
	religion="shinto"
	culture="aristocrats"
	trait="education_diplomacy_1"
	prowess=9
	830.1.1={
		birth=yes
	}
	900.1.1={
		death=yes
	}
}
10250107 = {
	name=character_name_10250107 # Nagamochi
	dynasty=10005501 #Hata
	father=10250106
	religion="shinto"
	culture="aristocrats"
	trait="education_diplomacy_1"
	prowess=10
	862.1.1={
		birth=yes
	}
	932.1.1={
		death=yes
	}
}
10250108 = {
	name=character_name_10250108 # Kiminaga
	dynasty=10005501 #Hata
	father=10250107
	religion="shinto"
	culture="aristocrats"
	trait="education_diplomacy_1"
	prowess=11
	890.1.1={
		birth=yes
	}
	950.1.1={
		death=yes
	}
}
10250109 = {
	name=character_name_10250109 # Kimihiro
	dynasty=10005501 #Hata
	father=10250107
	religion="shinto"
	culture="aristocrats"
	trait="education_diplomacy_1"
	prowess=11
	895.1.1={
		birth=yes
	}
	950.1.1={
		death=yes
	}
}
10250110 = {
	name=character_name_10250110 # Kiminao
	dynasty=10005501 #Hata
	father=10250107
	religion="shinto"
	culture="aristocrats"
	trait="education_diplomacy_1"
	prowess=11
	900.1.1={
		birth=yes
	}
	960.1.1={
		death=yes
	}
}
10250111 = {
	name=character_name_10250111 # Kimisane
	dynasty=10005501 #Hata
	father=10250107
	religion="shinto"
	culture="aristocrats"
	trait="education_diplomacy_1"
	prowess=10
	905.1.1={
		birth=yes
	}
	960.1.1={
		death=yes
	}
}
10250112 = {
	name=character_name_10250112 # Yoshisuke
	dynasty=10005501 #Hata
	father=10250108
	religion="shinto"
	culture="aristocrats"
	trait="education_diplomacy_1"
	prowess=11
	920.1.1={
		birth=yes
	}
	990.1.1={
		death=yes
	}
}
10250113 = {
	name=character_name_10250113 # Kanetoki
	dynasty=10005501 #Hata
	father=10250112
	martial=6
	religion="shinto"
	culture="aristocrats"
	trait="education_diplomacy_1"
	prowess=10
	950.1.1={
		birth=yes
	}
	1020.1.1={
		death=yes
	}
}
10250114 = {
	name=character_name_10250114 # Kimitake
	dynasty=10005501 #Hata
	father=10250112
	religion="shinto"
	culture="aristocrats"
	trait="education_diplomacy_1"
	prowess=11
	955.1.1={
		birth=yes
	}
	1020.1.1={
		death=yes
	}
}
10250115 = {
	name=character_name_10250115 # Takekazu
	dynasty=10005501 #Hata
	father=10250114
	religion="shinto"
	culture="aristocrats"
	trait="education_diplomacy_1"
	prowess=10
	980.1.1={
		birth=yes
	}
	1040.1.1={
		death=yes
	}
}
10250116 = {
	name=character_name_10250116 # Kaneshige
	dynasty=10005501 #Hata
	father=10250113
	religion="shinto"
	culture="aristocrats"
	trait="education_diplomacy_1"
	prowess=12
	985.1.1={
		birth=yes
	}
	1050.1.1={
		death=yes
	}
}
10250117 = {
	name=character_name_10250117 # Kanetake
	dynasty=10005501 #Hata
	father=10250113
	religion="shinto"
	culture="aristocrats"
	trait="education_diplomacy_1"
	prowess=10
	990.1.1={
		birth=yes
	}
	1050.1.1={
		death=yes
	}
}
10250118 = {
	name=character_name_10250118 # Chikayuki
	dynasty=10005501 #Hata
	father=10250115
	religion="shinto"
	culture="aristocrats"
	trait="education_diplomacy_1"
	prowess=10
	1020.1.1={
		birth=yes
	}
	1090.1.1={
		death=yes
	}
}
10250119 = {
	name=character_name_10250119 # Chikashige
	dynasty=10005501 #Hata
	father=10250115
	religion="shinto"
	culture="aristocrats"
	trait="education_diplomacy_1"
	prowess=11
	1025.1.1={
		birth=yes
	}
	1090.1.1={
		death=yes
	}
}
10250120 = {
	name=character_name_10250120 # Kanekata
	dynasty=10005501 #Hata
	father=10250119
	religion="shinto"
	culture="aristocrats"
	trait="education_diplomacy_1"
	prowess=12
	1050.1.1={
		birth=yes
	}
	1120.1.1={
		death=yes
	}
}
10250121 = {
	name=character_name_10250121 # Kanechika
	dynasty=10005501 #Hata
	father=10250119
	religion="shinto"
	culture="aristocrats"
	trait="education_diplomacy_1"
	prowess=12
	1055.1.1={
		birth=yes
	}
	1120.1.1={
		death=yes
	}
}
10250122 = {
	name=character_name_10250122 # Kanenobu
	dynasty=10005501 #Hata
	father=10250120
	religion="shinto"
	culture="aristocrats"
	trait="education_diplomacy_1"
	prowess=10
	1080.1.1={
		birth=yes
	}
	1150.1.1={
		death=yes
	}
}
10250123 = {
	name=character_name_10250123 # Kanehisa
	dynasty=10005501 #Hata
	father=10250120
	religion="shinto"
	culture="aristocrats"
	trait="education_diplomacy_1"
	prowess=10
	1085.1.1={
		birth=yes
	}
	1165.1.1={
		death=yes
	}
}
10250124 = {
	name=character_name_10250124 # Kanekiyo
	dynasty=10005501 #Hata
	father=10250122
	religion="shinto"
	culture="aristocrats"
	trait="education_diplomacy_1"
	prowess=9
	1110.1.1={
		birth=yes
	}
	1170.1.1={
		death=yes
	}
}
10250125 = {
	name=character_name_10250125 # Kanehisa
	dynasty=10005501 #Hata
	father=10250122
	religion="shinto"
	culture="aristocrats"
	trait="education_diplomacy_1"
	prowess=11
	1110.1.1={
		birth=yes
	}
	1170.1.1={
		death=yes
	}
}
10250126 = {
	name=character_name_10250126 # Kanehira
	dynasty=10005501 #Hata
	father=10250124
	religion="shinto"
	culture="aristocrats"
	trait="education_diplomacy_1"
	prowess=9
	1141.1.1={
		birth=yes
	}
	1203.6.11={
		death=yes
	}
}
10250127 = {
	name=character_name_10250127 # Kanekuni
	dynasty=10005501 #Hata
	father=10250124
	religion="shinto"
	culture="aristocrats"
	trait="education_diplomacy_1"
	prowess=10
	1145.1.1={
		birth=yes
	}
	1210.1.1={
		death=yes
	}
}
10250128 = {
	name=character_name_10250128 # Yoritugu
	dynasty=10005501 #Hata
	father=10250126
	religion="shinto"
	culture="aristocrats"
	trait="education_diplomacy_1"
	prowess=12
	1170.1.1={
		birth=yes
	}
	1230.1.1={
		death=yes
	}
}
10250129 = {
	name=character_name_10250129 # Kanemine
	dynasty=10005501 #Hata
	father=10250126
	religion="shinto"
	culture="aristocrats"
	trait="education_diplomacy_1"
	prowess=10
	1175.1.1={
		birth=yes
	}
	1230.1.1={
		death=yes
	}
}
10250130 = {
	name=character_name_10250130 # Yoritake
	dynasty=10005501 #Hata
	father=10250126
	religion="shinto"
	culture="aristocrats"
	trait="education_diplomacy_1"
	prowess=10
	1178.1.1={
		birth=yes
	}
	1230.1.1={
		death=yes
	}
}
10250131 = {
	name=character_name_10250131 # Yorimine
	dynasty=10005501 #Hata
	father=10250130
	religion="shinto"
	culture="aristocrats"
	trait="education_diplomacy_1"
	prowess=11
	1200.1.1={
		birth=yes
	}
	1260.1.1={
		death=yes
	}
}
10250132 = {
	name=character_name_10250132 # Yoritane
	dynasty=10005501 #Hata
	father=10250131
	religion="shinto"
	culture="aristocrats"
	trait="education_diplomacy_1"
	prowess=9
	1220.1.1={
		birth=yes
	}
	1300.1.1={
		death=yes
	}
}
10250133 = {
	name=character_name_10250133 # Yorikane
	dynasty=10005501 #Hata
	father=10250131
	religion="shinto"
	culture="aristocrats"
	trait="education_diplomacy_1"
	prowess=12
	1225.1.1={
		birth=yes
	}
	1310.1.1={
		death=yes
	}
}
10250134 = {
	name=character_name_10250134 # Kaneari
	dynasty=10005501 #Hata
	father=10250133
	religion="shinto"
	culture="aristocrats"
	trait="education_diplomacy_1"
	prowess=10
	1250.1.1={
		birth=yes
	}
	1330.1.1={
		death=yes
	}
}
10250135 = {
	name=character_name_10250135 # Taketomo
	dynasty=10005501 #Hata
	father=10250134
	religion="shinto"
	culture="aristocrats"
	trait="education_diplomacy_1"
	prowess=10
	1270.1.1={
		birth=yes
	}
	1360.1.1={
		death=yes
	}
}
10250136 = {
	name=character_name_10250136 # Takefumi #Serve of Prince Takayoshi, Suicided with Prince in battle of Kanegasaki
	dynasty=10005504 #Mikami
	father=10250135
	religion="shinto"
	culture="aristocrats"
	trait="education_diplomacy_1"
	prowess=10
	1290.1.1={
		birth=yes
	}
	1337.3.6={
		death=yes
	}
}
10250137 = {
	name=character_name_10250137 # Takeshige
	dynasty=10005504 #Mikami
	father=10250136
	religion="shinto"
	culture="aristocrats"
	trait="education_diplomacy_1"
	prowess=10
	1310.1.1={
		birth=yes
	}
	1390.1.1={
		death=yes
	}
}
10250138 = {
	name=character_name_10250138 # Taketoshi
	dynasty=10005504 #Mikami
	father=10250136
	religion="shinto"
	culture="aristocrats"
	trait="education_diplomacy_1"
	prowess=10
	1315.1.1={
		birth=yes
	}
	1390.1.1={
		death=yes
	}
}
10250139 = {
	name=character_name_10250139 # Takemoto
	dynasty=10005504 #Mikami
	father=10250138
	religion="shinto"
	culture="aristocrats"
	trait="education_diplomacy_1"
	prowess=11
	1340.1.1={
		birth=yes
	}
	1400.1.1={
		death=yes
	}
}
10250140 = {
	name=character_name_10250140 # Takefusa
	dynasty=10005504 #Mikami
	father=10250139
	religion="shinto"
	culture="aristocrats"
	trait="education_diplomacy_1"
	prowess=11
	1370.1.1={
		birth=yes
	}
	1440.1.1={
		death=yes
	}
}
10250141 = {
	name=character_name_10250141 # Motokatsu #Live in Tosa
	dynasty=10005504 #Mikami
	father=10250138
	religion="shinto"
	culture="aristocrats"
	trait="education_diplomacy_1"
	prowess=10
	1345.1.1={
		birth=yes
	}
	1410.1.1={
		death=yes
	}
}
10250142 = {
	name=character_name_10250142 # Motonaga
	dynasty=10005504 #Mikami
	father=10250141
	religion="shinto"
	culture="aristocrats"
	trait="education_diplomacy_1"
	prowess=12
	1370.1.1={
		birth=yes
	}
	1440.1.1={
		death=yes
	}
}
10250143 = {
	name=character_name_10250143 # Katsutoshi
	dynasty=10005504 #Mikami
	father=10250142
	religion="shinto"
	culture="aristocrats"
	trait="education_diplomacy_1"
	prowess=11
	1387.1.1={
		birth=yes
	}
	1440.1.1={
		death=yes
	}
}
10250144 = {
	name=character_name_10250144 # Fumikatsu
	dynasty=10005504 #Mikami
	father=10250143
	religion="shinto"
	culture="aristocrats"
	trait="education_diplomacy_1"
	prowess=10
	1404.1.1={
		birth=yes
	}
	1467.1.1={
		death=yes
	}
}
10250201 = {
	name=character_name_10250201 # Harutari
	dynasty=10005501 #Hata
	father=10250025
	religion="shinto"
	culture="aristocrats"
	trait="education_diplomacy_1"
	prowess=10
	650.1.1={
		birth=yes
	}
	720.1.1={
		death=yes
	}
}
10250202 = {
	name=character_name_10250202 # Kiyomaro
	dynasty=10005501 #Hata
	father=10250201
	religion="shinto"
	culture="aristocrats"
	trait="education_diplomacy_1"
	prowess=10
	680.1.1={
		birth=yes
	}
	740.1.1={
		death=yes
	}
}
10250203 = {
	name=character_name_10250203 # Kuzunomaro
	dynasty=10005501 #Hata
	father=10250202
	religion="shinto"
	culture="aristocrats"
	trait="education_diplomacy_1"
	prowess=11
	710.1.1={
		birth=yes
	}
	770.11.1={
		death=yes
	}
}
10250204 = {
	name=character_name_10250204 # Hitokimi
	dynasty=10005501 #Hata
	father=10250203
	religion="shinto"
	culture="aristocrats"
	trait="education_diplomacy_1"
	prowess=11
	740.1.1={
		birth=yes
	}
	800.1.1={
		death=yes
	}
}
10250205 = {
	name=character_name_10250205 # Fukuatemaro
	dynasty=10005501 #Hata
	father=10250204
	religion="shinto"
	culture="aristocrats"
	trait="education_diplomacy_1"
	prowess=10
	780.1.1={
		birth=yes
	}
	840.1.1={
		death=yes
	}
}
10250206 = {
	name=character_name_10250206 # Fuminari
	dynasty=10005501 #Hata
	father=10250205
	religion="shinto"
	culture="aristocrats"
	trait="education_diplomacy_1"
	prowess=11
	800.1.1={
		birth=yes
	}
	880.1.1={
		death=yes
	}
}
10250207 = {
	name=character_name_10250207 # Tominari #Ancestor of So
	dynasty=10005501 #Hata
	father=10250205
	religion="shinto"
	culture="aristocrats"
	trait="education_diplomacy_1"
	prowess=9
	805.1.1={
		birth=yes
	}
	880.1.1={
		death=yes
	}
}
10250208 = {
	name=character_name_10250208 # Naomune
	dynasty=10005503 #Koremune
	father=10250206
	religion="shinto"
	culture="aristocrats"
	trait="education_diplomacy_1"
	trait="scholar"
	trait="jugoi_ge"
	prowess=9
	840.1.1={
		birth=yes
	}
	900.1.1={
		death=yes
	}
}
10250209 = {
	name=character_name_10250209 # Kimikata
	dynasty=10005503 #Koremune
	father=10250208
	religion="shinto"
	culture="aristocrats"
	trait="education_diplomacy_1"
	trait="shogoi_ge"
	prowess=11
	880.1.1={
		birth=yes
	}
	950.1.1={
		death=yes
	}
}
10250210 = {
	name=character_name_10250210 # Kimihira
	dynasty=10005503 #Koremune
	father=10250209
	religion="shinto"
	culture="aristocrats"
	trait="education_diplomacy_1"
	prowess=11
	920.1.1={
		birth=yes
	}
	1000.1.1={
		death=yes
	}
}
10250211 = {
	name=character_name_10250211 # Sukemasa
	dynasty=10005503 #Koremune
	father=10250210
	religion="shinto"
	culture="aristocrats"
	trait="education_diplomacy_1"
	prowess=12
	950.1.1={
		birth=yes
	}
	1020.1.1={
		death=yes
	}
}
10250212 = {
	name=character_name_10250212 # Hiroaki #Jimbo clan
	dynasty=10000300 # Jinbo
	father=10250211
	religion="shinto"
	culture="aristocrats"
	trait="education_diplomacy_1"
	prowess=11
	980.1.1={
		birth=yes
	}
	1060.1.1={
		death=yes
	}
}
10250251 = {
	name=character_name_10250251 # Naomoto
	dynasty=10005505 #Yoshimune
	father=10250207
	religion="shinto"
	culture="aristocrats"
	trait="education_diplomacy_1"
	prowess=10
	840.1.1={
		birth=yes
	}
	900.1.1={
		death=yes
	}
}
10250252 = {
	name=character_name_10250252 # Motoko #Kiyohara Norimochi's wife
	dynasty=10005501 #Hata
	female=yes
	father=10250207
	religion="shinto"
	culture="aristocrats"
	trait="education_diplomacy_1"
	prowess=11
	842.1.1={
		birth=yes
	}
	900.1.1={
		death=yes
	}
}
10250253 = {
	name=character_name_10250253 # Nagako #Hata Nagamochi's wife
	dynasty=10005501 #Hata
	female=yes
	father=10250207
	religion="shinto"
	culture="aristocrats"
	trait="education_diplomacy_1"
	prowess=11
	845.1.1={
		birth=yes
	}
	900.1.1={
		death=yes
	}
}
10250254 = {
	name=character_name_10250254 # Yoshitsune
	dynasty=10005505 #Yoshimune
	father=10250251
	religion="shinto"
	culture="aristocrats"
	trait="education_diplomacy_1"
	trait="shogoi_ge"
	prowess=10
	865.1.1={
		birth=yes
	}
	930.1.1={
		death=yes
	}
}
10250255 = {
	name=character_name_10250255 # Noriaki
	dynasty=10005505 #Yoshimune
	father=10250254
	religion="shinto"
	culture="aristocrats"
	trait="education_diplomacy_1"
	prowess=10
	890.1.1={
		birth=yes
	}
	970.1.1={
		death=yes
	}
}
10250256 = {
	name=character_name_10250256 # Tadakata
	dynasty=10005505 #Yoshimune
	father=10250255
	religion="shinto"
	culture="aristocrats"
	trait="education_diplomacy_1"
	prowess=11
	920.1.1={
		birth=yes
	}
	980.1.1={
		death=yes
	}
}
10250257 = {
	name=character_name_10250257 # Sukeaki
	dynasty=10005505 #Yoshimune
	father=10250256
	religion="shinto"
	culture="aristocrats"
	trait="education_diplomacy_1"
	prowess=10
	950.1.1={
		birth=yes
	}
	1020.1.1={
		death=yes
	}
}
10250258 = {
	name=character_name_10250258 # Sukemasa
	dynasty=10005505 #Yoshimune
	father=10250256
	religion="shinto"
	culture="aristocrats"
	trait="education_diplomacy_1"
	trait="scholar"
	trait="jugoi_jo"
	prowess=10
	955.1.1={
		birth=yes
	}
	1017.1.1={
		death=yes
	}
}
10250259 = {
	name=character_name_10250259 # Masanobu
	dynasty=10005505 #Yoshimune
	father=10250258
	religion="shinto"
	culture="aristocrats"
	trait="education_diplomacy_1"
	prowess=10
	990.1.1={
		birth=yes
	}
	1050.1.1={
		death=yes
	}
}
10250260 = {
	name=character_name_10250260 # Masako
	dynasty=10005505 #Yoshimune
	female=yes
	father=10250258
	religion="shinto"
	culture="aristocrats"
	trait="education_diplomacy_1"
	trait="jugoi_ge"
	prowess=11
	1000.1.1={
		birth=yes
	}
	1080.1.1={
		death=yes
	}
}
10250261 = {
	name=character_name_10250261 # Nakanobu
	dynasty=10005505 #Yoshimune
	father=10250259
	religion="shinto"
	culture="aristocrats"
	trait="education_diplomacy_1"
	prowess=9
	1040.1.1={
		birth=yes
	}
	1100.1.1={
		death=yes
	}
}
10250262 = {
	name=character_name_10250262 # Nobuhiro
	dynasty=10005505 #Yoshimune
	father=10250259
	religion="shinto"
	culture="aristocrats"
	trait="education_diplomacy_1"
	prowess=11
	1045.1.1={
		birth=yes
	}
	1120.1.1={
		death=yes
	}
}
10250263 = {
	name=character_name_10250263 # Nobutada
	dynasty=10005505 #Yoshimune
	father=10250261
	religion="shinto"
	culture="aristocrats"
	trait="education_diplomacy_1"
	prowess=11
	1070.1.1={
		birth=yes
	}
	1130.1.1={
		death=yes
	}
}
10250264 = {
	name=character_name_10250264 # Nobuhiro
	dynasty=10005505 #Yoshimune
	father=10250261
	religion="shinto"
	culture="aristocrats"
	trait="education_diplomacy_1"
	prowess=9
	1080.1.1={
		birth=yes
	}
	1140.1.1={
		death=yes
	}
}
10250265 = {
	name=character_name_10250265 # Nobutaka
	dynasty=10005505 #Yoshimune
	father=10250261
	religion="shinto"
	culture="aristocrats"
	trait="education_diplomacy_1"
	prowess=10
	1090.1.1={
		birth=yes
	}
	1150.1.1={
		death=yes
	}
}
10250266 = {
	name=character_name_10250266 # Nobusumi
	dynasty=10005505 #Yoshimune
	father=10250265
	religion="shinto"
	culture="aristocrats"
	trait="education_diplomacy_1"
	prowess=11
	1130.1.1={
		birth=yes
	}
	1170.1.1={
		death=yes
	}
}
10250267 = {
	name=character_name_10250267 # Nobufusa
	dynasty=10005505 #Yoshimune
	father=10250265
	religion="shinto"
	culture="aristocrats"
	trait="education_diplomacy_1"
	prowess=9
	1135.1.1={
		birth=yes
	}
	1185.4.25={
		death=yes
	}
}
10250268 = {
	name=character_name_10250268 # Shigekuni
	dynasty=10005505 #Yoshimune
	father=10250267
	religion="shinto"
	culture="aristocrats"
	trait="education_diplomacy_1"
	prowess=11
	1160.1.1={
		birth=yes
	}
	1210.1.1={
		death=yes
	}
}
10250269 = {
	name=character_name_10250269 # Nobukuni
	dynasty=10000689 # So
	father=10250268
	religion="shinto"
	culture="northern_kyushu"
	trait="education_diplomacy_1"
	prowess=10
	1180.1.1={
		birth=yes
	}
	1268.1.1={
		death=yes
	}
}
10252001 = {
	name=character_name_10252001 # Zhao #Achi Michinushi
	dynasty=10005531 #Liu
	religion="shinto"
	culture="aristocrats"
	trait="education_diplomacy_1"
	prowess=10
	380.1.1={
		birth=yes
	}
	440.1.1={
		name=character_name_10252001_1 # Achi
	}
	450.1.1={
		death=yes
	}
}
10252002 = {
	name=character_name_10252002 # Tsuga
	dynasty=10005532 #Yamato no Aya
	father=10252001
	religion="shinto"
	culture="aristocrats"
	trait="education_diplomacy_1"
	prowess=11
	410.1.1={
		birth=yes
	}
	490.1.1={
		death=yes
	}
}
10252003 = {
	name=character_name_10252003 # Yamaki #Ancestor of Tami, Hinosaki
	dynasty=10005532 #Yamato no Aya
	father=10252002
	religion="shinto"
	culture="aristocrats"
	trait="education_diplomacy_1"
	prowess=11
	440.1.1={
		birth=yes
	}
	510.1.1={
		death=yes
	}
}
10252004 = {
	name=character_name_10252004 # Shinu #Ancestor of Sakanoue, Kaya, Kuragaki and Sakahito
	dynasty=10005532 #Yamato no Aya
	father=10252002
	religion="shinto"
	culture="aristocrats"
	trait="education_diplomacy_1"
	prowess=10
	450.1.1={
		birth=yes
	}
	520.1.1={
		death=yes
	}
}
10252005 = {
	name=character_name_10252005 # Nihaki #Ancestor of Yamaguchi, Kura, Tsuki and Okura
	dynasty=10005532 #Yamato no Aya
	father=10252002
	religion="shinto"
	culture="aristocrats"
	trait="education_diplomacy_1"
	prowess=9
	460.1.1={
		birth=yes
	}
	530.1.1={
		death=yes
	}
}
10252006 = {
	name=character_name_10252006 # Kate
	dynasty=10005532 #Yamato no Aya
	father=10252003
	religion="shinto"
	culture="aristocrats"
	trait="education_diplomacy_1"
	prowess=12
	470.1.1={
		birth=yes
	}
	530.1.1={
		death=yes
	}
}
10252007 = {
	name=character_name_10252007 # Otoyama
	dynasty=10005532 #Yamato no Aya
	father=10252003
	religion="shinto"
	culture="aristocrats"
	trait="education_diplomacy_1"
	prowess=12
	475.1.1={
		birth=yes
	}
	535.1.1={
		death=yes
	}
}
10252008 = {
	name=character_name_10252008 # Nukako
	dynasty=10005532 #Yamato no Aya
	father=10252006
	religion="shinto"
	culture="aristocrats"
	trait="education_diplomacy_1"
	prowess=10
	500.1.1={
		birth=yes
	}
	560.1.1={
		death=yes
	}
}
10252009 = {
	name=character_name_10252009 # Miya
	dynasty=10005532 #Yamato no Aya
	father=10252006
	religion="shinto"
	culture="aristocrats"
	trait="education_diplomacy_1"
	prowess=11
	505.1.1={
		birth=yes
	}
	580.1.1={
		death=yes
	}
}
10252010 = {
	name=character_name_10252010 # Tokuta
	dynasty=10005532 #Yamato no Aya
	father=10252008
	religion="shinto"
	culture="aristocrats"
	trait="education_diplomacy_1"
	prowess=9
	540.1.1={
		birth=yes
	}
	600.1.1={
		death=yes
	}
}
10252011 = {
	name=character_name_10252011 # Shikofu
	dynasty=10005532 #Yamato no Aya
	father=10252007
	religion="shinto"
	culture="aristocrats"
	trait="education_diplomacy_1"
	prowess=12
	510.1.1={
		birth=yes
	}
	570.1.1={
		death=yes
	}
}
10252012 = {
	name=character_name_10252012 # Iwai
	dynasty=10005532 #Yamato no Aya
	father=10252007
	religion="shinto"
	culture="aristocrats"
	trait="education_diplomacy_1"
	prowess=10
	515.1.1={
		birth=yes
	}
	590.1.1={
		death=yes
	}
}
10252013 = {
	name=character_name_10252013 # Koma #Killer of Emperor Sushun
	dynasty=10005532 #Yamato no Aya
	father=10252012
	religion="shinto"
	culture="aristocrats"
	trait="education_diplomacy_1"
	prowess=10
	540.1.1={
		birth=yes
	}
	592.11.1={
		death=yes
	}
}
10252014 = {
	name=character_name_10252014 # Shita
	dynasty=10005532 #Yamato no Aya
	father=10252004
	religion="shinto"
	culture="aristocrats"
	trait="education_diplomacy_1"
	prowess=10
	485.1.1={
		birth=yes
	}
	550.1.1={
		death=yes
	}
}
10252015 = {
	name=character_name_10252015 # Ara
	dynasty=10005532 #Yamato no Aya
	father=10252004
	religion="shinto"
	culture="aristocrats"
	trait="education_diplomacy_1"
	prowess=10
	490.1.1={
		birth=yes
	}
	550.1.1={
		death=yes
	}
}
10252016 = {
	name=character_name_10252016 # Tone
	dynasty=10005532 #Yamato no Aya
	father=10252004
	religion="shinto"
	culture="aristocrats"
	trait="education_diplomacy_1"
	prowess=10
	495.1.1={
		birth=yes
	}
	560.1.1={
		death=yes
	}
}
10252017 = {
	name=character_name_10252017 # Komako
	dynasty=10005532 #Yamato no Aya
	father=10252004
	religion="shinto"
	culture="aristocrats"
	trait="education_diplomacy_1"
	prowess=9
	480.1.1={
		birth=yes
	}
	550.1.1={
		death=yes
	}
}
10252018 = {
	name=character_name_10252018 # Yutsuka
	dynasty=10005532 #Yamato no Aya
	father=10252017
	religion="shinto"
	culture="aristocrats"
	trait="education_diplomacy_1"
	prowess=11
	520.1.1={
		birth=yes
	}
	590.1.1={
		death=yes
	}
}
10252019 = {
	name=character_name_10252019 # Obitona
	dynasty=10005533 #Sakanoue
	father=10252018
	religion="shinto"
	culture="aristocrats"
	trait="education_diplomacy_1"
	prowess=9
	560.1.1={
		birth=yes
	}
	630.1.1={
		death=yes
	}
}
10252020 = {
	name=character_name_10252020 # Okina # http://ja.wikipedia.org/wiki/%E5%9D%82%E4%B8%8A%E8%80%81
	dynasty=10005533 #Sakanoue
	father=10252019
	religion="shinto"
	culture="aristocrats"
	trait="education_diplomacy_1"
	prowess=9
	610.1.1={
		birth=yes
	}
	699.6.10={
		death=yes
		trait="jugoi_jo"
	}
}
10252021 = {
	name=character_name_10252021 # Okuni
	dynasty=10005533 #Sakanoue
	father=10252020
	religion="shinto"
	culture="aristocrats"
	trait="education_diplomacy_1"
	prowess=9
	640.1.1={
		birth=yes
	}
	710.1.1={
		death=yes
		trait="jugoi_ge"
	}
}
10252022 = {
	name=character_name_10252022 # Kunimori
	dynasty=10005533 #Sakanoue
	father=10252021
	religion="shinto"
	culture="aristocrats"
	trait="education_diplomacy_1"
	prowess=12
	670.1.1={
		birth=yes
	}
	720.1.1={
		death=yes
	}
}
10252023 = {
	name=character_name_10252023 # Inukai
	dynasty=10005533 #Sakanoue
	father=10252021
	religion="shinto"
	culture="aristocrats"
	trait="education_diplomacy_1"
	prowess=10
	683.1.1={
		birth=yes
	}
	756.5.22={
		trait="shoshii_jo"
	}
	765.1.8={
		death=yes
	}
}
10252024 = {
	name=character_name_10252024 # Karitamaro # http://ja.wikipedia.org/wiki/%E5%9D%82%E4%B8%8A%E8%8B%85%E7%94%B0%E9%BA%BB%E5%91%82
	dynasty=10005533 #Sakanoue
	father=10252023
	religion="shinto"
	culture="aristocrats"
	trait="education_martial_3"
	prowess=12
	727.1.1={
		birth=yes
	}
	786.1.1={
		trait="jusanmi"
	}
	786.1.1={
		death=yes
	}
}
10252025 = {
	name=character_name_10252025 # Yamano
	dynasty=10005533 #Sakanoue
	father=10252023
	religion="shinto"
	culture="aristocrats"
	trait="education_diplomacy_1"
	prowess=11
	730.1.1={
		birth=yes
	}
	800.1.1={
		death=yes
	}
}
10252026 = {
	name=character_name_10252026 # Koshitari
	dynasty=10005533 #Sakanoue
	father=10252023
	religion="shinto"
	culture="aristocrats"
	trait="education_diplomacy_1"
	prowess=10
	750.1.1={
		birth=yes
	}
	830.1.1={
		death=yes
	}
}
10252027 = {
	name=character_name_10252027 # Ishizumaro
	dynasty=10005533 #Sakanoue
	father=10252024
	religion="shinto"
	culture="aristocrats"
	trait="education_diplomacy_1"
	prowess=10
	750.1.1={
		birth=yes
	}
	820.1.1={
		death=yes
		trait="jugoi_jo"
	}
}
10252028 = {
	name=character_name_10252028 # Hiroto #Kami(Duke) of Kai
	dynasty=10005533 #Sakanoue
	father=10252024
	religion="shinto"
	culture="aristocrats"
	trait="education_diplomacy_1"
	prowess=9
	755.1.1={
		birth=yes
	}
	830.1.1={
		death=yes
		trait="jugoi_ge"
	}
}
10252029 = {
	name=character_name_10252029 # Tamuramaro # http://ja.wikipedia.org/wiki/%E5%9D%82%E4%B8%8A%E7%94%B0%E6%9D%91%E9%BA%BB%E5%91%82
	dynasty=10005533 #Sakanoue
	father=10252024
	religion="shinto"
	culture="aristocrats"
	trait="education_martial_4"
	trait="intellect_good_2"
	trait="strong"
	trait="brave"
	trait="flexible_leader"
	prowess=14
	758.1.1={
		birth=yes
	}
	809.3.30={
		trait="shosanmi"
	}
	811.6.17={
		death=yes
	}
}
10252030 = {
	name=character_name_10252030 # Takakai #Kami(Duke) of Musashi
	dynasty=10005533 #Sakanoue
	father=10252024
	religion="shinto"
	culture="aristocrats"
	trait="education_diplomacy_1"
	prowess=11
	760.1.1={
		birth=yes
	}
	817.1.1={
		death=yes
		trait="jugoi_ge"
	}
}
10252031 = {
	name=character_name_10252031 # Mayumi #Kami(Duke) of Izumi
	dynasty=10005533 #Sakanoue
	father=10252024
	religion="shinto"
	culture="aristocrats"
	trait="education_diplomacy_1"
	prowess=10
	765.1.1={
		birth=yes
	}
	830.1.1={
		death=yes
		trait="shogoi_ge"
	}
}
10252032 = {
	name=character_name_10252032 # Takanushi #Kami(Duke) of Tajima
	dynasty=10005533 #Sakanoue
	father=10252024
	religion="shinto"
	culture="aristocrats"
	trait="education_diplomacy_1"
	prowess=11
	770.1.1={
		birth=yes
	}
	822.1.1={
		death=yes
		trait="jushii_ge"
	}
}
10252033 = {
	name=character_name_10252033 # Noboruko #Consort of Fujiwara no Uchimaro
	dynasty=10005533 #Sakanoue
	father=10252024
	female=yes
	religion="shinto"
	culture="aristocrats"
	trait="education_diplomacy_1"
	prowess=10
	754.1.1={
		birth=yes
	}
	810.1.1={
		death=yes
	}
}
10252034 = {
	name=character_name_10252034 # Matakiko #Consort of Emperor Kanmu, Mother of Princess Takatsu
	dynasty=10005533 #Sakanoue
	father=10252024
	female=yes
	religion="shinto"
	culture="aristocrats"
	trait="education_diplomacy_1"
	prowess=10
	762.1.1={
		birth=yes
	}
	790.7.21={
		death=yes
	}
}
10252035 = {
	name=character_name_10252035 # Ono # Chinjufu(Tohoku Army Base) Shogun
	dynasty=10005533 #Sakanoue
	father=10252029
	religion="shinto"
	culture="aristocrats"
	trait="education_diplomacy_1"
	prowess=11
	785.1.1={
		birth=yes
	}
	808.5.1={
		trait="jugoi_ge"
	}
	810.1.1={
		death=yes
	}
}
10252036 = {
	name=character_name_10252036 # Hirono # Ukonoe Shosho (Minor Captain of the Right Division of Inner Palace Guards)
	dynasty=10005533 #Sakanoue
	father=10252029
	religion="shinto"
	culture="aristocrats"
	trait="education_diplomacy_1"
	prowess=9
	787.1.1={
		birth=yes
	}
	823.1.1={
		trait="jushii_ge"
	}
	828.1.1={
		death=yes
	}
}
10252037 = {
	name=character_name_10252037 # Haruko #Consort of Emperor Kanmu, Mother of Prince Kuzui and Princess Kasuga
	dynasty=10005533 #Sakanoue
	father=10252029
	female=yes
	religion="shinto"
	culture="aristocrats"
	trait="education_diplomacy_1"
	prowess=12
	788.1.1={
		birth=yes
	}
	804.7.1={
		trait="jugoi_jo"
	}
	834.1.1={
		death=yes
	}
}
10252038 = {
	name=character_name_10252038 # Miiko #Probably
	dynasty=10005533 #Sakanoue
	father=10252029
	female=yes
	religion="shinto"
	culture="aristocrats"
	trait="education_diplomacy_1"
	prowess=11
	791.1.1={
		birth=yes
	}
	810.1.1={
		trait="jugoi_jo"
	}
	840.1.1={
		death=yes
	}
}
10252039 = {
	name=character_name_10252039 # Kiyono # Ukohyoe no Kami (Captain of the Right Division of Middle Palace Guards)
	dynasty=10005533 #Sakanoue
	father=10252029
	religion="shinto"
	culture="aristocrats"
	trait="education_diplomacy_1"
	prowess=9
	789.1.1={
		birth=yes
	}
	850.1.1={
		trait="shoshii_ge"
	}
	850.9.13={
		death=yes
	}
}
10252040 = {
	name=character_name_10252040 # Masano # Ukohyoe no Kami (Captain of the Right Division of Middle Palace Guards)
	dynasty=10005533 #Sakanoue
	father=10252029
	religion="shinto"
	culture="aristocrats"
	trait="education_diplomacy_1"
	prowess=9
	795.1.1={
		birth=yes
	}
	860.1.1={
		trait="shoshii_ge"
	}
	870.1.1={
		death=yes
	}
}
10252041 = {
	name=character_name_10252041 # Tsuguno # Otoneri(Bureau of Emperor)
	dynasty=10005533 #Sakanoue
	father=10252029
	religion="shinto"
	culture="aristocrats"
	trait="education_diplomacy_1"
	prowess=10
	797.1.1={
		birth=yes
	}
	830.1.1={
		death=yes
	}
}
10252042 = {
	name=character_name_10252042 # Hiroo # Ukonoe Shosho (Minor Captain of the Right Division of Inner Palace Guards)
	dynasty=10005533 #Sakanoue
	father=10252029
	religion="shinto"
	culture="aristocrats"
	trait="education_diplomacy_1"
	prowess=11
	798.1.1={
		birth=yes
	}
	834.1.1={
		trait="jugoi_ge"
	}
	870.1.1={
		death=yes
	}
}
10252043 = {
	name=character_name_10252043 # Takamichi # Chinjufu(Tohoku army base) Shogun
	dynasty=10005533 #Sakanoue
	father=10252029
	religion="shinto"
	culture="aristocrats"
	trait="education_diplomacy_1"
	prowess=11
	805.1.1={
		birth=yes
	}
	869.5.1={
		trait="jugoi_jo"
	}
	880.1.1={
		death=yes
	}
}
10252044 = {
	name=character_name_10252044 # Kawachimaro # In 849, Kami(Duke) of Inaba
	dynasty=10005533 #Sakanoue
	father=10252028
	religion="shinto"
	culture="aristocrats"
	trait="education_diplomacy_1"
	prowess=9
	790.1.1={
		birth=yes
	}
	833.1.1={
		trait="jugoi_ge"
	}
	860.1.1={
		death=yes
	}
}
10252045 = {
	name=character_name_10252045 # Sadamori #Kami(Duke) of Tanba,Mino
	dynasty=10005533 #Sakanoue
	father=10252032
	religion="shinto"
	culture="aristocrats"
	trait="education_diplomacy_1"
	prowess=10
	812.1.1={
		birth=yes
	}
	834.1.1={
		trait="jugoi_ge"
	}
	886.10.1={
		death=yes
	}
}
10252046 = {
	name=character_name_10252046 # Ujikatsu
	dynasty=10005533 #Sakanoue
	father=10252030
	religion="shinto"
	culture="aristocrats"
	trait="education_diplomacy_1"
	prowess=9
	800.1.1={
		birth=yes
	}
	860.1.1={
		death=yes
	}
}
10252047 = {
	name=character_name_10252047 # Sekimori #Kami(Duke) of Yamato
	dynasty=10005533 #Sakanoue
	father=10252032
	religion="shinto"
	culture="aristocrats"
	trait="education_diplomacy_1"
	prowess=11
	815.1.1={
		birth=yes
	}
	876.1.1={
		trait="shogoi_ge"
	}
	881.12.3={
		death=yes
	}
}
10252048 = {
	name=character_name_10252048 # Masamune # Ukohyoe no Suke (Vice Captain of the Right Division of Middle Palace Guards)
	dynasty=10005533 #Sakanoue
	father=10252039
	religion="shinto"
	culture="aristocrats"
	trait="education_diplomacy_1"
	prowess=11
	810.1.1={
		birth=yes
	}
	842.1.1={
		trait="jugoi_ge"
	}
	860.1.1={
		death=yes
	}
}
10252049 = {
	name=character_name_10252049 # Masamine # Kami(Duke) of Dewa
	dynasty=10005533 #Sakanoue
	father=10252039
	religion="shinto"
	culture="aristocrats"
	trait="education_diplomacy_1"
	prowess=11
	811.1.1={
		birth=yes
	}
	851.1.1={
		trait="jugoi_ge"
	}
	860.1.1={
		death=yes
	}
}
10252050 = {
	name=character_name_10252050 # Masamichi # Kami(Duke) of Mutsu
	dynasty=10005533 #Sakanoue
	father=10252039
	religion="shinto"
	culture="aristocrats"
	trait="education_diplomacy_1"
	trait="compassionate"
	trait="just"
	prowess=10
	813.1.1={
		birth=yes
	}
	859.1.1={
		trait="jugoi_jo"
	}
	867.4.17={
		death=yes
	}
}
10252051 = {
	name=character_name_10252051 # Hiromichi # Kami(Duke) of Mutsu
	dynasty=10005533 #Sakanoue
	father=10252039
	religion="shinto"
	culture="aristocrats"
	trait="education_diplomacy_1"
	prowess=12
	816.1.1={
		birth=yes
	}
	851.1.1={
		trait="jugoi_ge"
	}
	860.1.1={
		death=yes
	}
}
10252052 = {
	name=character_name_10252052 # Yoshikage
	dynasty=10005533 #Sakanoue
	father=10252050
	religion="shinto"
	culture="aristocrats"
	trait="education_diplomacy_1"
	prowess=10
	840.1.1={
		birth=yes
	}
	870.1.1={
		trait="jugoi_ge"
	}
	900.1.1={
		death=yes
	}
}
10252053 = {
	name=character_name_10252053 # Kunimasa # Kami(Duke) of Tanba
	dynasty=10005533 #Sakanoue
	father=10252051
	religion="shinto"
	culture="aristocrats"
	trait="education_diplomacy_1"
	prowess=10
	850.1.1={
		birth=yes
	}
	890.1.1={
		trait="jugoi_ge"
	}
	900.1.1={
		death=yes
	}
}
10252054 = {
	name=character_name_10252054 # Korenori
	dynasty=10005533 #Sakanoue
	father=10252052
	religion="shinto"
	culture="aristocrats"
	trait="education_diplomacy_1"
	trait="poet"
	prowess=10
	880.1.1={
		birth=yes
	}
	920.1.1={
		trait="jugoi_ge"
	}
	950.1.1={
		death=yes
	}
}
10252055 = {
	name=character_name_10252055 # Tsunekage # Kami(Duke) of Nagato
	dynasty=10005533 #Sakanoue
	father=10252053
	religion="shinto"
	culture="aristocrats"
	trait="education_diplomacy_1"
	prowess=10
	880.1.1={
		birth=yes
	}
	960.1.1={
		trait="jugoi_ge"
	}
	970.1.1={
		death=yes
	}
}
10252056 = {
	name=character_name_10252056 # Mochiki #Five Men of the Pear Chamber. In 970, Kami of Iwami, In 975, Mino
	dynasty=10005533 #Sakanoue
	father=10252054
	religion="shinto"
	culture="aristocrats"
	trait="education_diplomacy_1"
	trait="poet"
	prowess=10
	910.1.1={
		birth=yes
	}
	970.1.1={
		trait="jugoi_ge"
	}
	980.8.1={
		death=yes
	}
}
10252057 = {
	name=character_name_10252057 # Kanenori
	dynasty=10005533 #Sakanoue
	father=10252056
	religion="shinto"
	culture="aristocrats"
	trait="education_diplomacy_1"
	prowess=11
	940.1.1={
		birth=yes
	}
	970.1.1={
		trait="jugoi_ge"
	}
	1000.1.1={
		death=yes
	}
}
10252058 = {
	name=character_name_10252058 # Atsunori
	dynasty=10005533 #Sakanoue
	father=10252056
	religion="shinto"
	culture="aristocrats"
	trait="education_diplomacy_1"
	prowess=10
	945.1.1={
		birth=yes
	}
	1005.1.1={
		death=yes
	}
}
10252059 = {
	name=character_name_10252059 # Norichika
	dynasty=10005533 #Sakanoue
	father=10252058
	religion="shinto"
	culture="aristocrats"
	trait="education_diplomacy_1"
	prowess=11
	980.1.1={
		birth=yes
	}
	1050.1.1={
		death=yes
	}
}
10252060 = {
	name=character_name_10252060 # Sadanari #Kami(Duke) of Kawachi
	dynasty=10005533 #Sakanoue
	father=10252059
	religion="shinto"
	culture="aristocrats"
	trait="education_diplomacy_1"
	trait="poet"
	trait="scholar"
	prowess=10
	1005.1.1={
		birth=yes
	}
	1050.1.1={
		trait="jugoi_ge"
	}
	1088.1.1={
		death=yes
	}
}
10252061 = {
	name=character_name_10252061 # Shigeki # Kami(Duke) of Dewa
	dynasty=10005533 #Sakanoue
	father=10252043
	religion="shinto"
	culture="aristocrats"
	trait="education_diplomacy_1"
	prowess=11
	840.1.1={
		birth=yes
	}
	880.1.1={
		trait="jugoi_ge"
	}
	900.1.1={
		death=yes
	}
}
10252062 = {
	name=character_name_10252062 # Yoshiki
	dynasty=10005533 #Sakanoue
	father=10252043
	religion="shinto"
	culture="aristocrats"
	trait="education_diplomacy_1"
	prowess=10
	845.1.1={
		birth=yes
	}
	880.1.1={
		trait="jugoi_ge"
	}
	900.1.1={
		death=yes
	}
}
10252063 = {
	name=character_name_10252063 # Kintsune
	dynasty=10005533 #Sakanoue
	father=10252061
	religion="shinto"
	culture="aristocrats"
	trait="education_diplomacy_1"
	prowess=10
	870.1.1={
		birth=yes
	}
	910.1.1={
		trait="jugoi_ge"
	}
	940.1.1={
		death=yes
	}
}
10252064 = {
	name=character_name_10252064 # Tsunekuni #Kami(Duke) of Osumi
	dynasty=10005533 #Sakanoue
	father=10252063
	religion="shinto"
	culture="aristocrats"
	trait="education_diplomacy_1"
	prowess=9
	900.1.1={
		birth=yes
	}
	960.1.1={
		trait="jugoi_ge"
	}
	980.1.1={
		death=yes
	}
}
10252070 = {
	name=character_name_10252070 # Nukate
	dynasty=10005532 #Yamato no Aya
	father=10252017
	religion="shinto"
	culture="aristocrats"
	trait="education_diplomacy_1"
	prowess=10
	525.1.1={
		birth=yes
	}
	600.1.1={
		death=yes
	}
}
10252071 = {
	name=character_name_10252071 # Karu
	dynasty=10005532 #Yamato no Aya
	father=10252070
	religion="shinto"
	culture="aristocrats"
	trait="education_diplomacy_1"
	prowess=11
	550.1.1={
		birth=yes
	}
	610.1.1={
		death=yes
	}
}
10252072 = {
	name=character_name_10252072 # Matsuki
	dynasty=10005537 #Kaya
	father=10252071
	religion="shinto"
	culture="aristocrats"
	trait="education_diplomacy_1"
	prowess=10
	580.1.1={
		birth=yes
	}
	650.1.1={
		death=yes
	}
}
10252073 = {
	name=character_name_10252073 # Tarishima
	dynasty=10005537 #Kaya
	father=10252072
	religion="shinto"
	culture="aristocrats"
	trait="education_diplomacy_1"
	prowess=11
	610.1.1={
		birth=yes
	}
	670.1.1={
		death=yes
	}
}
10252074 = {
	name=character_name_10252074 # Koma
	dynasty=10005537 #Kaya
	father=10252072
	religion="shinto"
	culture="aristocrats"
	trait="education_diplomacy_1"
	prowess=10
	620.1.1={
		birth=yes
	}
	693.9.21={
		death=yes
		trait="jugoi_ge"
	}
}
10252075 = {
	name=character_name_10252075 # Ioshima
	dynasty=10005537 #Kaya
	father=10252073
	religion="shinto"
	culture="aristocrats"
	trait="education_diplomacy_1"
	prowess=10
	640.1.1={
		birth=yes
	}
	700.1.1={
		death=yes
	}
}
10252076 = {
	name=character_name_10252076 # Komaro
	dynasty=10005537 #Kaya
	father=10252074
	religion="shinto"
	culture="aristocrats"
	trait="education_diplomacy_1"
	prowess=11
	650.1.1={
		birth=yes
	}
	720.1.1={
		death=yes
		trait="jugoi_ge"
	}
}
10252077 = {
	name=character_name_10252077 # Kunitari
	dynasty=10005537 #Kaya
	father=10252073
	religion="shinto"
	culture="aristocrats"
	trait="education_diplomacy_1"
	prowess=11
	645.1.1={
		birth=yes
	}
	710.1.1={
		death=yes
	}
}
10252078 = {
	name=character_name_10252078 # Yamahito
	dynasty=10005537 #Kaya
	father=10252073
	religion="shinto"
	culture="aristocrats"
	trait="education_diplomacy_1"
	prowess=11
	650.1.1={
		birth=yes
	}
	720.1.1={
		death=yes
	}
}
10252079 = {
	name=character_name_10252079 # Komushi
	dynasty=10005537 #Kaya
	father=10252075
	religion="shinto"
	culture="aristocrats"
	trait="education_diplomacy_1"
	prowess=11
	680.1.1={
		birth=yes
	}
	750.1.1={
		death=yes
	}
}
10252080 = {
	name=character_name_10252080 # Toyohito
	dynasty=10005537 #Kaya
	father=10252076
	religion="shinto"
	culture="aristocrats"
	trait="education_diplomacy_1"
	prowess=11
	690.1.1={
		birth=yes
	}
	750.1.1={
		death=yes
	}
}
10252081 = {
	name=character_name_10252081 # Kiyotari
	dynasty=10005537 #Kaya
	father=10252079
	religion="shinto"
	culture="aristocrats"
	trait="education_diplomacy_1"
	prowess=11
	740.1.1={
		birth=yes
	}
	810.1.1={
		death=yes
		trait="jugoi_ge"
	}
}
10252082 = {
	name=character_name_10252082 # Kumoo
	dynasty=10005537 #Kaya
	father=10252080
	religion="shinto"
	culture="aristocrats"
	trait="education_diplomacy_1"
	prowess=9
	720.1.1={
		birth=yes
	}
	780.1.1={
		death=yes
	}
}
10252083 = {
	name=character_name_10252083 # Ukemaro
	dynasty=10005537 #Kaya
	father=10252079
	religion="shinto"
	culture="aristocrats"
	trait="education_diplomacy_1"
	prowess=11
	745.1.1={
		birth=yes
	}
	820.1.1={
		death=yes
	}
}
10252084 = {
	name=character_name_10252084 # Hiroshima
	dynasty=10005537 #Kaya
	father=10252081
	religion="shinto"
	culture="aristocrats"
	trait="education_diplomacy_1"
	prowess=11
	770.1.1={
		birth=yes
	}
	860.1.1={
		death=yes
	}
}
10252100 = {
	name=character_name_10252100 # Mariko
	dynasty=10005538 #Honade
	father=10252014
	religion="shinto"
	culture="aristocrats"
	trait="education_diplomacy_1"
	prowess=11
	510.1.1={
		birth=yes
	}
	580.1.1={
		death=yes
	}
}
10252101 = {
	name=character_name_10252101 # Umate #Kurakado no Atai
	dynasty=10005532 #Yamato no Aya
	father=10252014
	religion="shinto"
	culture="aristocrats"
	trait="education_diplomacy_1"
	prowess=11
	515.1.1={
		birth=yes
	}
	580.1.1={
		death=yes
	}
}
10252102 = {
	name=character_name_10252102 # Kumako #Kurehara no Atai
	dynasty=10005532 #Yamato no Aya
	father=10252014
	religion="shinto"
	culture="aristocrats"
	trait="education_diplomacy_1"
	prowess=9
	520.1.1={
		birth=yes
	}
	580.1.1={
		death=yes
	}
}
10252103 = {
	name=character_name_10252103 # Ari #Ishiura no Atai
	dynasty=10005532 #Yamato no Aya
	father=10252014
	religion="shinto"
	culture="aristocrats"
	trait="education_diplomacy_1"
	prowess=10
	525.1.1={
		birth=yes
	}
	590.1.1={
		death=yes
	}
}
10252104 = {
	name=character_name_10252104 # Usako
	dynasty=10005532 #Yamato no Aya
	father=10252015
	religion="shinto"
	culture="aristocrats"
	trait="education_diplomacy_1"
	prowess=10
	520.1.1={
		birth=yes
	}
	580.1.1={
		death=yes
	}
}
10252105 = {
	name=character_name_10252105 # Kanoko 
	dynasty=10005541 #Kawahara no Atai
	father=10252015
	religion="shinto"
	culture="aristocrats"
	trait="education_diplomacy_1"
	prowess=11
	525.1.1={
		birth=yes
	}
	580.1.1={
		death=yes
	}
}
10252106 = {
	name=character_name_10252106 # Okimi #Sada no Atai
	dynasty=10005535 #Sada
	father=10252104
	religion="shinto"
	culture="aristocrats"
	trait="education_diplomacy_1"
	prowess=10
	560.1.1={
		birth=yes
	}
	630.1.1={
		death=yes
	}
}
10252107 = {
	name=character_name_10252107 # Kurahito
	dynasty=10005535 #Sada
	father=10252106
	religion="shinto"
	culture="aristocrats"
	trait="education_diplomacy_1"
	prowess=11
	590.1.1={
		birth=yes
	}
	650.1.1={
		death=yes
	}
}
10252108 = {
	name=character_name_10252108 # Torimaro
	dynasty=10005535 #Sada
	father=10252107
	religion="shinto"
	culture="aristocrats"
	trait="education_diplomacy_1"
	prowess=11
	620.1.1={
		birth=yes
	}
	690.1.1={
		death=yes
	}
}
10252109 = {
	name=character_name_10252109 # Sakatari
	dynasty=10005535 #Sada
	father=10252107
	religion="shinto"
	culture="aristocrats"
	trait="education_diplomacy_1"
	prowess=10
	625.1.1={
		birth=yes
	}
	690.1.1={
		death=yes
	}
}
10252110 = {
	name=character_name_10252110 # Otona
	dynasty=10005535 #Sada
	father=10252107
	religion="shinto"
	culture="aristocrats"
	trait="education_diplomacy_1"
	prowess=9
	630.1.1={
		birth=yes
	}
	700.1.1={
		death=yes
	}
}
10252111 = {
	name=character_name_10252111 # Momotari
	dynasty=10005535 #Sada
	father=10252109
	religion="shinto"
	culture="aristocrats"
	trait="education_diplomacy_1"
	prowess=11
	650.1.1={
		birth=yes
	}
	710.1.1={
		death=yes
	}
}
10252112 = {
	name=character_name_10252112 # Hashito
	dynasty=10005535 #Sada
	father=10252110
	religion="shinto"
	culture="aristocrats"
	trait="education_diplomacy_1"
	prowess=10
	650.1.1={
		birth=yes
	}
	710.1.1={
		death=yes
	}
}
10252113 = {
	name=character_name_10252113 # Kajimaro
	dynasty=10005535 #Sada
	father=10252110
	religion="shinto"
	culture="aristocrats"
	trait="education_diplomacy_1"
	prowess=11
	655.1.1={
		birth=yes
	}
	720.1.1={
		death=yes
	}
}
10252114 = {
	name=character_name_10252114 # Nunome
	dynasty=10005535 #Sada
	father=10252110
	female=yes
	religion="shinto"
	culture="aristocrats"
	trait="education_diplomacy_1"
	prowess=10
	660.1.1={
		birth=yes
	}
	730.1.1={
		death=yes
	}
}
10252115 = {
	name=character_name_10252115 # Iwataki
	dynasty=10005535 #Sada
	father=10252111
	religion="shinto"
	culture="aristocrats"
	trait="education_diplomacy_1"
	prowess=10
	680.1.1={
		birth=yes
	}
	740.1.1={
		death=yes
	}
}
10252116 = {
	name=character_name_10252116 # Kawamaro
	dynasty=10005535 #Sada
	father=10252111
	religion="shinto"
	culture="aristocrats"
	trait="education_diplomacy_1"
	prowess=11
	682.1.1={
		birth=yes
	}
	745.1.1={
		death=yes
	}
}
10252117 = {
	name=character_name_10252117 # Fusamaro
	dynasty=10005535 #Sada
	father=10252111
	religion="shinto"
	culture="aristocrats"
	trait="education_diplomacy_1"
	prowess=10
	684.1.1={
		birth=yes
	}
	750.1.1={
		death=yes
	}
}
10252118 = {
	name=character_name_10252118 # Okina
	dynasty=10005535 #Sada
	father=10252111
	religion="shinto"
	culture="aristocrats"
	trait="education_diplomacy_1"
	prowess=11
	685.1.1={
		birth=yes
	}
	712.1.1={
		trait="jugoi_ge"
	}
	740.1.1={
		death=yes
	}
}
10252119 = {
	name=character_name_10252119 # Otonushi
	dynasty=10005535 #Sada
	father=10252111
	religion="shinto"
	culture="aristocrats"
	trait="education_diplomacy_1"
	prowess=10
	700.1.1={
		birth=yes
	}
	780.1.1={
		death=yes
	}
}
10252120 = {
	name=character_name_10252120 # Ajimura
	dynasty=10005535 #Sada
	father=10252115
	religion="shinto"
	culture="aristocrats"
	trait="education_diplomacy_1"
	prowess=10
	710.1.1={
		birth=yes
	}
	764.1.1={
		trait="jugoi_ge"
	}
	780.1.1={
		death=yes
	}
}
10252121 = {
	name=character_name_10252121 # Kunimura
	dynasty=10005535 #Sada
	father=10252115
	religion="shinto"
	culture="aristocrats"
	trait="education_diplomacy_1"
	prowess=10
	715.1.1={
		birth=yes
	}
	780.1.1={
		death=yes
	}
}
10252122 = {
	name=character_name_10252122 # Satomaro
	dynasty=10005535 #Sada
	father=10252120
	religion="shinto"
	culture="aristocrats"
	trait="education_diplomacy_1"
	prowess=12
	740.1.1={
		birth=yes
	}
	800.1.1={
		death=yes
	}
}
10252123 = {
	name=character_name_10252123 # Hiromura
	dynasty=10005535 #Sada
	father=10252122
	religion="shinto"
	culture="aristocrats"
	trait="education_diplomacy_1"
	prowess=10
	770.1.1={
		birth=yes
	}
	820.1.1={
		death=yes
	}
}
10252124 = {
	name=character_name_10252124 # Michitsugu
	dynasty=10005535 #Sada
	father=10252123
	religion="shinto"
	culture="aristocrats"
	trait="education_diplomacy_1"
	prowess=12
	800.1.1={
		birth=yes
	}
	860.1.1={
		death=yes
	}
}
10252125 = {
	name=character_name_10252125 # Michinari
	dynasty=10005535 #Sada
	father=10252123
	religion="shinto"
	culture="aristocrats"
	trait="education_diplomacy_1"
	prowess=9
	805.1.1={
		birth=yes
	}
	865.1.1={
		death=yes
	}
}
10252126 = {
	name=character_name_10252126 # Yumihari
	dynasty=10005535 #Sada
	father=10252118
	religion="shinto"
	culture="aristocrats"
	trait="education_diplomacy_1"
	prowess=11
	725.1.1={
		birth=yes
	}
	785.1.1={
		death=yes
	}
}
10252127 = {
	name=character_name_10252127 # Nei
	dynasty=10005536 #Kuragaki
	father=10252016
	religion="shinto"
	culture="aristocrats"
	trait="education_diplomacy_1"
	prowess=10
	520.1.1={
		birth=yes
	}
	590.1.1={
		death=yes
	}
}
10252128 = {
	name=character_name_10252128 # Ushi #Unebi no Atai
	dynasty=10005539 #Unebi
	father=10252016
	religion="shinto"
	culture="aristocrats"
	trait="education_diplomacy_1"
	prowess=10
	525.1.1={
		birth=yes
	}
	590.1.1={
		death=yes
	}
}
10252129 = {
	name=character_name_10252129 # Saru #Aratai no Atai
	dynasty=10005540 #Aratai
	father=10252016
	religion="shinto"
	culture="aristocrats"
	trait="education_diplomacy_1"
	prowess=10
	530.1.1={
		birth=yes
	}
	600.1.1={
		death=yes
	}
}
10252130 = {
	name=character_name_10252130 # Uma
	dynasty=10005536 #Kuragaki
	father=10252127
	religion="shinto"
	culture="aristocrats"
	trait="education_diplomacy_1"
	prowess=11
	550.1.1={
		birth=yes
	}
	610.1.1={
		death=yes
	}
}
10252131 = {
	name=character_name_10252131 # Tamatari
	dynasty=10005536 #Kuragaki
	father=10252130
	religion="shinto"
	culture="aristocrats"
	trait="education_diplomacy_1"
	prowess=12
	580.1.1={
		birth=yes
	}
	650.1.1={
		death=yes
	}
}
10252132 = {
	name=character_name_10252132 # Maro
	dynasty=10005536 #Kuragaki
	father=10252131
	religion="shinto"
	culture="aristocrats"
	trait="education_diplomacy_1"
	prowess=11
	610.1.1={
		birth=yes
	}
	670.1.1={
		death=yes
	}
}
10252133 = {
	name=character_name_10252133 # Kobito
	dynasty=10005536 #Kuragaki
	father=10252132
	religion="shinto"
	culture="aristocrats"
	trait="education_diplomacy_1"
	prowess=9
	640.1.1={
		birth=yes
	}
	700.1.1={
		death=yes
	}
}
10252134 = {
	name=character_name_10252134 # Yasumitsu
	dynasty=10005536 #Kuragaki
	father=10252132
	religion="shinto"
	culture="aristocrats"
	trait="education_diplomacy_1"
	prowess=10
	645.1.1={
		birth=yes
	}
	710.1.1={
		death=yes
	}
}
10252135 = {
	name=character_name_10252135 # Iemaro #In 741, Tairyo(Count) of Takechi
	dynasty=10005536 #Kuragaki
	father=10252133
	religion="shinto"
	culture="aristocrats"
	trait="education_diplomacy_1"
	prowess=10
	680.1.1={
		birth=yes
	}
	750.1.1={
		death=yes
	}
}
10252136 = {
	name=character_name_10252136 # Otomaro
	dynasty=10005536 #Kuragaki
	father=10252133
	religion="shinto"
	culture="aristocrats"
	trait="education_diplomacy_1"
	prowess=11
	685.1.1={
		birth=yes
	}
	760.1.1={
		death=yes
	}
}
10252137 = {
	name=character_name_10252137 # Kaya
	dynasty=10005536 #Kuragaki
	father=10252133
	religion="shinto"
	culture="aristocrats"
	trait="education_diplomacy_1"
	prowess=11
	695.1.1={
		birth=yes
	}
	760.1.1={
		death=yes
	}
}
10252138 = {
	name=character_name_10252138 # Sanekai
	dynasty=10005536 #Kuragaki
	father=10252134
	religion="shinto"
	culture="aristocrats"
	trait="education_diplomacy_1"
	prowess=10
	675.1.1={
		birth=yes
	}
	720.1.1={
		death=yes
	}
}
10252150 = {
	name=character_name_10252150 # Kashi
	dynasty=10005532 #Yamato no Aya
	father=10252005
	religion="shinto"
	culture="aristocrats"
	trait="education_diplomacy_1"
	prowess=9
	490.1.1={
		birth=yes
	}
	550.1.1={
		death=yes
	}
}
10252151 = {
	name=character_name_10252151 # Tsunoko
	dynasty=10005532 #Yamato no Aya
	father=10252005
	religion="shinto"
	culture="aristocrats"
	trait="education_diplomacy_1"
	prowess=11
	495.1.1={
		birth=yes
	}
	550.1.1={
		death=yes
	}
}
10252152 = {
	name=character_name_10252152 # Kuroko
	dynasty=10005532 #Yamato no Aya
	father=10252150
	religion="shinto"
	culture="aristocrats"
	trait="education_diplomacy_1"
	prowess=10
	520.1.1={
		birth=yes
	}
	580.1.1={
		death=yes
	}
}
10252153 = {
	name=character_name_10252153 # Tsuki
	dynasty=10005542 #Yamaguchi
	father=10252152
	religion="shinto"
	culture="aristocrats"
	trait="education_diplomacy_1"
	prowess=11
	560.1.1={
		birth=yes
	}
	630.1.1={
		death=yes
	}
}
10252154 = {
	name=character_name_10252154 # Okuchi
	dynasty=10005542 #Yamaguchi
	father=10252153
	religion="shinto"
	culture="aristocrats"
	trait="education_diplomacy_1"
	trait="architect"
	prowess=12
	590.1.1={
		birth=yes
	}
	660.1.1={
		death=yes
	}
}
10252155 = {
	name=character_name_10252155 # Komaro
	dynasty=10005532 #Yamato no Aya
	father=10252150
	religion="shinto"
	culture="aristocrats"
	trait="education_diplomacy_1"
	prowess=10
	530.1.1={
		birth=yes
	}
	590.1.1={
		death=yes
	}
}
10252156 = {
	name=character_name_10252156 # Azumahito
	dynasty=10005544 #Kura
	father=10252152
	religion="shinto"
	culture="aristocrats"
	trait="education_diplomacy_1"
	prowess=11
	565.1.1={
		birth=yes
	}
	620.1.1={
		death=yes
	}
}
10252157 = {
	name=character_name_10252157 # Kihe
	dynasty=10005532 #Yamato no Aya
	father=10252155
	religion="shinto"
	culture="aristocrats"
	trait="education_diplomacy_1"
	prowess=10
	580.1.1={
		birth=yes
	}
	650.1.1={
		death=yes
	}
}
10252158 = {
	name=character_name_10252158 # Oyuto
	dynasty=10005543 #Tsuki
	father=10252157
	religion="shinto"
	culture="aristocrats"
	trait="education_diplomacy_1"
	trait="scholar"
	prowess=10
	630.1.1={
		birth=yes
	}
	710.1.1={
		death=yes
	}
}
10252159 = {
	name=character_name_10252159 # Kuniko
	dynasty=10005532 #Yamato no Aya
	father=10252151
	religion="shinto"
	culture="aristocrats"
	trait="education_diplomacy_1"
	prowess=11
	530.1.1={
		birth=yes
	}
	600.1.1={
		death=yes
	}
}
10252160 = {
	name=character_name_10252160 # Makui
	dynasty=10005532 #Yamato no Aya
	father=10252151
	religion="shinto"
	culture="aristocrats"
	trait="education_diplomacy_1"
	prowess=11
	535.1.1={
		birth=yes
	}
	610.1.1={
		death=yes
	}
}
10252161 = {
	name=character_name_10252161 # Kohe
	dynasty=10005532 #Yamato no Aya
	father=10252159
	religion="shinto"
	culture="aristocrats"
	trait="education_diplomacy_1"
	prowess=10
	560.1.1={
		birth=yes
	}
	620.1.1={
		death=yes
	}
}
10252162 = {
	name=character_name_10252162 # Fukuyori
	dynasty=10005532 #Yamato no Aya
	father=10252159
	religion="shinto"
	culture="aristocrats"
	trait="education_diplomacy_1"
	prowess=11
	565.1.1={
		birth=yes
	}
	630.1.1={
		death=yes
	}
}
10252163 = {
	name=character_name_10252163 # Takahi
	dynasty=10005545 #Tanba
	father=10252160
	religion="shinto"
	culture="aristocrats"
	trait="education_diplomacy_1"
	prowess=10
	560.1.1={
		birth=yes
	}
	620.1.1={
		death=yes
	}
}
10252164 = {
	name=character_name_10252164 # Hirosumi
	dynasty=10005534 #Okura
	father=10252161
	religion="shinto"
	culture="aristocrats"
	trait="education_diplomacy_1"
	prowess=10
	600.1.1={
		birth=yes
	}
	680.1.1={
		death=yes
	}
}
10252165 = {
	name=character_name_10252165 # Jokaku
	dynasty=10005546 #Fumi
	father=10252162
	religion="shinto"
	culture="aristocrats"
	trait="education_diplomacy_1"
	prowess=10
	600.1.1={
		birth=yes
	}
	680.1.1={
		death=yes
	}
}
10252200 = {
	name=character_name_10252200 # Kunitari
	dynasty=10005534 #Okura
	father=10252164
	religion="shinto"
	culture="aristocrats"
	trait="education_diplomacy_1"
	prowess=10
	650.1.1={
		birth=yes
	}
	730.1.1={
		death=yes
	}
}
10252201 = {
	name=character_name_10252201 # Sawatari
	dynasty=10005534 #Okura
	father=10252164
	religion="shinto"
	culture="aristocrats"
	trait="education_diplomacy_1"
	prowess=12
	655.1.1={
		birth=yes
	}
	730.1.1={
		death=yes
	}
}
10252202 = {
	name=character_name_10252202 # Okina
	dynasty=10005534 #Okura
	father=10252200
	religion="shinto"
	culture="aristocrats"
	trait="education_diplomacy_1"
	prowess=11
	680.1.1={
		birth=yes
	}
	750.1.1={
		death=yes
		trait="jugoi_jo"
	}
}
10252203 = {
	name=character_name_10252203 # Izumi
	dynasty=10005534 #Okura
	father=10252200
	religion="shinto"
	culture="aristocrats"
	trait="education_diplomacy_1"
	prowess=11
	690.1.1={
		birth=yes
	}
	760.1.1={
		death=yes
	}
}
10252204 = {
	name=character_name_10252204 # Hirotari
	dynasty=10005534 #Okura
	father=10252202
	religion="shinto"
	culture="aristocrats"
	trait="education_diplomacy_1"
	prowess=10
	710.1.1={
		birth=yes
	}
	790.1.1={
		death=yes
		trait="jugoi_jo"
	}
}
10252205 = {
	name=character_name_10252205 # Maro #Kami(Duke) of Tanba
	dynasty=10005534 #Okura
	father=10252203
	religion="shinto"
	culture="aristocrats"
	trait="education_diplomacy_1"
	prowess=10
	710.1.1={
		birth=yes
	}
	780.1.1={
		death=yes
		trait="shogoi_jo"
	}
}
10252206 = {
	name=character_name_10252206 # Ienushi
	dynasty=10005534 #Okura
	father=10252203
	religion="shinto"
	culture="aristocrats"
	trait="education_diplomacy_1"
	prowess=10
	720.1.1={
		birth=yes
	}
	780.1.1={
		death=yes
		trait="jugoi_ge"
	}
}
10252207 = {
	name=character_name_10252207 # Tamaro
	dynasty=10005534 #Okura
	father=10252203
	religion="shinto"
	culture="aristocrats"
	trait="education_diplomacy_1"
	prowess=11
	730.1.1={
		birth=yes
	}
	780.1.1={
		death=yes
	}
}
10252208 = {
	name=character_name_10252208 # Kotari
	dynasty=10005534 #Okura
	father=10252205
	religion="shinto"
	culture="aristocrats"
	trait="education_diplomacy_1"
	prowess=10
	760.1.1={
		birth=yes
	}
	820.1.1={
		death=yes
	}
}
10252209 = {
	name=character_name_10252209 # Omitari
	dynasty=10005534 #Okura
	father=10252206
	religion="shinto"
	culture="aristocrats"
	trait="education_diplomacy_1"
	prowess=9
	750.1.1={
		birth=yes
	}
	820.1.1={
		death=yes
	}
}
10252210 = {
	name=character_name_10252210 # Michinaga
	dynasty=10005534 #Okura
	father=10252209
	religion="shinto"
	culture="aristocrats"
	trait="education_diplomacy_1"
	prowess=9
	780.1.1={
		birth=yes
	}
	850.1.1={
		death=yes
	}
}
10252211 = {
	name=character_name_10252211 # Kiyoaki
	dynasty=10005534 #Okura
	father=10252208
	religion="shinto"
	culture="aristocrats"
	trait="education_diplomacy_1"
	prowess=10
	790.1.1={
		birth=yes
	}
	850.1.1={
		death=yes
	}
}
10252212 = {
	name=character_name_10252212 # Yoshiyuki # http://ja.wikipedia.org/wiki/%E5%A4%A7%E8%94%B5%E5%96%84%E8%A1%8C
	dynasty=10005534 #Okura
	father=10252211
	religion="shinto"
	culture="aristocrats"
	trait="education_diplomacy_1"
	prowess=12
	832.1.1={
		birth=yes
	}
	897.1.1={
		trait="jugoi_jo"
	}
	921.1.1={
		death=yes
	}
}
10252213 = {
	name=character_name_10252213 # Atsuyuki
	dynasty=10005534 #Okura
	father=10252211
	religion="shinto"
	culture="aristocrats"
	trait="education_diplomacy_1"
	prowess=11
	835.1.1={
		birth=yes
	}
	910.1.1={
		death=yes
	}
}
10252214 = {
	name=character_name_10252214 # Katsuyuki
	dynasty=10005534 #Okura
	father=10252211
	religion="shinto"
	culture="aristocrats"
	trait="education_diplomacy_1"
	prowess=9
	845.1.1={
		birth=yes
	}
	910.1.1={
		death=yes
	}
}
10252215 = {
	name=character_name_10252215 # Kuniaki
	dynasty=10005534 #Okura
	father=10252212
	religion="shinto"
	culture="aristocrats"
	trait="education_diplomacy_1"
	prowess=10
	860.1.1={
		birth=yes
	}
	930.1.1={
		death=yes
	}
}
10252216 = {
	name=character_name_10252216 # Saneaki
	dynasty=10005534 #Okura
	father=10252212
	religion="shinto"
	culture="aristocrats"
	trait="education_diplomacy_1"
	prowess=10
	865.1.1={
		birth=yes
	}
	930.1.1={
		death=yes
	}
}
10252217 = {
	name=character_name_10252217 # Koreaki
	dynasty=10005534 #Okura
	father=10252212
	religion="shinto"
	culture="aristocrats"
	trait="education_diplomacy_1"
	prowess=10
	870.1.1={
		birth=yes
	}
	930.1.1={
		death=yes
	}
}
10252218 = {
	name=character_name_10252218 # Sanekatsu
	dynasty=10005534 #Okura
	father=10252208
	religion="shinto"
	culture="aristocrats"
	trait="education_diplomacy_1"
	prowess=11
	800.1.1={
		birth=yes
	}
	860.1.1={
		death=yes
	}
}
10252219 = {
	name=character_name_10252219 # Hirokatsu
	dynasty=10005534 #Okura
	father=10252218
	religion="shinto"
	culture="aristocrats"
	trait="education_diplomacy_1"
	prowess=12
	830.1.1={
		birth=yes
	}
	900.1.1={
		death=yes
		trait="jugoi_ge"
	}
}
10252220 = {
	name=character_name_10252220 # Hirone
	dynasty=10005534 #Okura
	father=10252218
	religion="shinto"
	culture="aristocrats"
	trait="education_diplomacy_1"
	prowess=10
	840.1.1={
		birth=yes
	}
	900.1.1={
		death=yes
	}
}
10252221 = {
	name=character_name_10252221 # Tsunenao
	dynasty=10005534 #Okura
	father=10252219
	religion="shinto"
	culture="aristocrats"
	trait="education_diplomacy_1"
	prowess=9
	870.1.1={
		birth=yes
	}
	930.1.1={
		death=yes
	}
}
10252222 = {
	name=character_name_10252222 # Hidenao
	dynasty=10005534 #Okura
	father=10252219
	religion="shinto"
	culture="aristocrats"
	trait="education_diplomacy_1"
	prowess=12
	875.1.1={
		birth=yes
	}
	930.1.1={
		death=yes
	}
}
10252223 = {
	name=character_name_10252223 # Saneyori
	dynasty=10005534 #Okura
	father=10252220
	religion="shinto"
	culture="aristocrats"
	trait="education_diplomacy_1"
	prowess=11
	875.1.1={
		birth=yes
	}
	930.1.1={
		death=yes
	}
}
10252224 = {
	name=character_name_10252224 # Yoriko #Okawachi Yoshitaka's wife
	dynasty=10005534 #Okura
	father=10252220
	female=yes
	religion="shinto"
	culture="aristocrats"
	trait="education_diplomacy_1"
	prowess=11
	880.1.1={
		birth=yes
	}
	930.1.1={
		death=yes
	}
}
10252225 = {
	name=character_name_10252225 # Haruzane #Kami(Duke) of Tsushima http://ja.wikipedia.org/wiki/%E5%A4%A7%E8%94%B5%E6%98%A5%E5%AE%9F
	dynasty=10005534 #Okura
	father=10252222
	religion="shinto"
	culture="aristocrats"
	trait="education_diplomacy_1"
	prowess=10
	900.1.1={
		birth=yes
	}
	941.1.1={
		trait="jugoi_ge"
	}
	970.1.1={
		death=yes
	}
}
10252226 = {
	name=character_name_10252226 # Tokizane
	dynasty=10005534 #Okura
	father=10252222
	religion="shinto"
	culture="aristocrats"
	trait="education_diplomacy_1"
	prowess=10
	910.1.1={
		birth=yes
	}
	980.1.1={
		death=yes
	}
}
10252227 = {
	name=character_name_10252227 # Akizane
	dynasty=10005534 #Okura
	father=10252222
	religion="shinto"
	culture="aristocrats"
	trait="education_diplomacy_1"
	prowess=10
	915.1.1={
		birth=yes
	}
	980.1.1={
		death=yes
	}
}
10252228 = {
	name=character_name_10252228 # Tokitoshi
	dynasty=10005534 #Okura
	father=10252226
	religion="shinto"
	culture="aristocrats"
	trait="education_diplomacy_1"
	prowess=10
	940.1.1={
		birth=yes
	}
	1000.1.1={
		death=yes
	}
}
10252229 = {
	name=character_name_10252229 # Sanemasa
	dynasty=10005534 #Okura
	father=10252228
	religion="shinto"
	culture="aristocrats"
	trait="education_diplomacy_1"
	prowess=11
	970.1.1={
		birth=yes
	}
	1030.1.1={
		death=yes
	}
}
10252230 = {
	name=character_name_10252230 # Tanemitsu #
	dynasty=10005534 #Okura
	father=10252225
	religion="shinto"
	culture="aristocrats"
	trait="education_diplomacy_1"
	prowess=10
	930.1.1={
		birth=yes
	}
	981.1.1={
		trait="jugoi_ge"
	}
	990.1.1={
		death=yes
	}
}
10252231 = {
	name=character_name_10252231 # Taneaki
	dynasty=10005534 #Okura
	father=10252225
	religion="shinto"
	culture="aristocrats"
	trait="education_diplomacy_1"
	prowess=10
	935.1.1={
		birth=yes
	}
	990.1.1={
		death=yes
	}
}
10252232 = {
	name=character_name_10252232 # Tanesue
	dynasty=10005534 #Okura
	father=10252225
	religion="shinto"
	culture="aristocrats"
	trait="education_diplomacy_1"
	prowess=10
	940.1.1={
		birth=yes
	}
	1000.1.1={
		death=yes
	}
}
10252233 = {
	name=character_name_10252233 # Tanekado
	dynasty=10005534 #Okura
	father=10252225
	religion="shinto"
	culture="aristocrats"
	trait="education_diplomacy_1"
	prowess=10
	940.1.1={
		birth=yes
	}
	1000.1.1={
		death=yes
	}
}
10252234 = {
	name=character_name_10252234 # Haruchika
	dynasty=10005534 #Okura
	father=10252225
	religion="shinto"
	culture="aristocrats"
	trait="education_diplomacy_1"
	prowess=11
	945.1.1={
		birth=yes
	}
	1000.1.1={
		death=yes
	}
}
10252235 = {
	name=character_name_10252235 # Sanemichi
	dynasty=10005534 #Okura
	father=10252225
	religion="shinto"
	culture="aristocrats"
	trait="education_diplomacy_1"
	prowess=11
	950.1.1={
		birth=yes
	}
	1010.1.1={
		death=yes
	}
}
10252236 = {
	name=character_name_10252236 # Taneki #In 1019, Kami(Duke) of Iki
	dynasty=10005534 #Okura
	father=10252230
	religion="shinto"
	culture="aristocrats"
	trait="education_diplomacy_1"
	prowess=10
	966.1.1={
		birth=yes
	}
	1019.1.1={
		trait="jugoi_ge"
	}
	1030.1.1={
		death=yes
	}
}
10252237 = {
	name=character_name_10252237 # Mitsuyori
	dynasty=10005534 #Okura
	father=10252230
	religion="shinto"
	culture="aristocrats"
	trait="education_diplomacy_1"
	prowess=10
	968.1.1={
		birth=yes
	}
	1030.1.1={
		death=yes
	}
}
10252238 = {
	name=character_name_10252238 # Mitsuhiro
	dynasty=10005534 #Okura
	father=10252236
	religion="shinto"
	culture="aristocrats"
	trait="education_diplomacy_1"
	prowess=10
	990.1.1={
		birth=yes
	}
	1060.1.1={
		death=yes
	}
}
10252239 = {
	name=character_name_10252239 # Yoshikuni
	dynasty=10005534 #Okura
	father=10252236
	religion="shinto"
	culture="aristocrats"
	trait="education_diplomacy_1"
	prowess=9
	1000.1.1={
		birth=yes
	}
	1029.1.1={
		death=yes
	}
}
10252240 = {
	name=character_name_10252240 # Tanehiro
	dynasty=10005534 #Okura
	father=10252238
	religion="shinto"
	culture="aristocrats"
	trait="education_diplomacy_1"
	prowess=9
	1020.1.1={
		birth=yes
	}
	1090.1.1={
		death=yes
	}
}
10252241 = {
	name=character_name_10252241 # Tanesuke
	dynasty=10005534 #Okura
	father=10252240
	religion="shinto"
	culture="aristocrats"
	trait="education_diplomacy_1"
	prowess=11
	1050.1.1={
		birth=yes
	}
	1120.1.1={
		death=yes
	}
}
10252242 = {
	name=character_name_10252242 # Tanemichi
	dynasty=10005534 #Okura
	father=10252240
	religion="shinto"
	culture="aristocrats"
	trait="education_diplomacy_1"
	prowess=10
	1055.1.1={
		birth=yes
	}
	1120.1.1={
		death=yes
	}
}
10252243 = {
	name=character_name_10252243 # Kunikiyo
	dynasty=10005534 #Okura
	father=10252240
	religion="shinto"
	culture="aristocrats"
	trait="education_diplomacy_1"
	prowess=10
	1050.1.1={
		birth=yes
	}
	1120.1.1={
		death=yes
	}
}
10252244 = {
	name=character_name_10252244 # Tanemitsu
	dynasty=10005534 #Okura
	father=10252240
	religion="shinto"
	culture="aristocrats"
	trait="education_diplomacy_1"
	prowess=11
	1060.1.1={
		birth=yes
	}
	1120.1.1={
		death=yes
	}
}
10252245 = {
	name=character_name_10252245 # Tanekado
	dynasty=10005534 #Okura
	father=10252240
	religion="shinto"
	culture="aristocrats"
	trait="education_diplomacy_1"
	prowess=10
	1065.1.1={
		birth=yes
	}
	1120.1.1={
		death=yes
	}
}
10252246 = {
	name=character_name_10252246 # Tanefusa
	dynasty=10005534 #Okura
	father=10252240
	religion="shinto"
	culture="aristocrats"
	trait="education_diplomacy_1"
	prowess=11
	1070.1.1={
		birth=yes
	}
	1120.1.1={
		death=yes
		trait="jugoi_ge"
	}
}
10252247 = {
	name=character_name_10252247 # Kuniko #Takagama Dayu's wife
	dynasty=10005534 #Okura
	father=10252240
	female=yes
	religion="shinto"
	culture="aristocrats"
	trait="education_diplomacy_1"
	prowess=11
	1052.1.1={
		birth=yes
	}
	1120.1.1={
		death=yes
	}
}
10252248 = {
	name=character_name_10252248 # Toshiko #Kikuchi Nanigashi's wife
	dynasty=10005534 #Okura
	father=10252240
	female=yes
	religion="shinto"
	culture="aristocrats"
	trait="education_diplomacy_1"
	prowess=9
	1080.1.1={
		birth=yes
	}
	1120.1.1={
		death=yes
	}
}
10252249 = {
	name=character_name_10252249 # Tanemune
	dynasty=10005534 #Okura
	father=10252241
	religion="shinto"
	culture="aristocrats"
	trait="education_diplomacy_1"
	prowess=10
	1070.1.1={
		birth=yes
	}
	1150.1.1={
		death=yes
	}
}
10252250 = {
	name=character_name_10252250 # Taneo
	dynasty=10005534 #Okura
	father=10252241
	religion="shinto"
	culture="aristocrats"
	trait="education_diplomacy_1"
	prowess=10
	1080.1.1={
		birth=yes
	}
	1150.1.1={
		death=yes
	}
}
10252251 = {
	name=character_name_10252251 # Tanetsuna
	dynasty=10005534 #Okura
	father=10252241
	religion="shinto"
	culture="aristocrats"
	trait="education_diplomacy_1"
	prowess=12
	1090.1.1={
		birth=yes
	}
	1150.1.1={
		death=yes
	}
}
10252252 = {
	name=character_name_10252252 # Tanehisa
	dynasty=10005534 #Okura
	father=10252241
	religion="shinto"
	culture="aristocrats"
	trait="education_diplomacy_1"
	prowess=10
	1095.1.1={
		birth=yes
	}
	1150.1.1={
		death=yes
	}
}
10252253 = {
	name=character_name_10252253 # Taneko #Mishima Nanigashi's wife
	dynasty=10005534 #Okura
	father=10252241
	female=yes
	religion="shinto"
	culture="aristocrats"
	trait="education_diplomacy_1"
	prowess=9
	1090.1.1={
		birth=yes
	}
	1150.1.1={
		death=yes
	}
}
10252254 = {
	name=character_name_10252254 # Tanetoshi
	dynasty=10005534 #Okura
	father=10252250
	religion="shinto"
	culture="aristocrats"
	trait="education_diplomacy_1"
	prowess=9
	1100.1.1={
		birth=yes
	}
	1160.1.1={
		death=yes
	}
}
10252255 = {
	name=character_name_10252255 # Taneshige
	dynasty=10005534 #Okura
	father=10252250
	religion="shinto"
	culture="aristocrats"
	trait="education_diplomacy_1"
	prowess=10
	1110.1.1={
		birth=yes
	}
	1180.1.1={
		death=yes
	}
}
10252256 = {
	name=character_name_10252256 # Tanetaka
	dynasty=10005534 #Okura
	father=10252249
	religion="shinto"
	culture="aristocrats"
	trait="education_diplomacy_1"
	prowess=10
	1090.1.1={
		birth=yes
	}
	1160.1.1={
		death=yes
	}
}
10252257 = {
	name=character_name_10252257 # Taneyori
	dynasty=10005534 #Okura
	father=10252249
	religion="shinto"
	culture="aristocrats"
	trait="education_diplomacy_1"
	prowess=10
	1095.1.1={
		birth=yes
	}
	1160.1.1={
		death=yes
	}
}
10252258 = {
	name=character_name_10252258 # Tanenari
	dynasty=10005534 #Okura
	father=10252249
	religion="shinto"
	culture="aristocrats"
	trait="education_diplomacy_1"
	prowess=11
	1100.1.1={
		birth=yes
	}
	1160.1.1={
		death=yes
	}
}
10252259 = {
	name=character_name_10252259 # Tanesuke
	dynasty=10005534 #Okura
	father=10252249
	religion="shinto"
	culture="aristocrats"
	trait="education_diplomacy_1"
	prowess=11
	1105.1.1={
		birth=yes
	}
	1160.1.1={
		death=yes
	}
}
10252260 = {
	name=character_name_10252260 # Tanenori
	dynasty=10005534 #Okura
	father=10252256
	religion="shinto"
	culture="northern_kyushu"
	trait="education_diplomacy_1"
	prowess=11
	1130.1.1={
		birth=yes
	}
	1190.1.1={
		death=yes
	}
}
