﻿10060000 = {
	name=character_name_10060000 # Takahisa
	dynasty=10000600 # Shimazu
	father=10060023
	martial=7
	diplomacy=6
	intrigue=6
	stewardship=7
	learning=6
	trait="education_martial_3"
	trait="intellect_good_2"
	religion="shinto"
	culture="southern_kyushu"
	prowess=14
	1514.5.28={
		birth=yes
	}
	1530.5.28={
		give_nickname="nick_Matasaburo"
	}
	1531.1.1={
		add_spouse=10060103
	}
	1552.6.11={
		give_nickname="nick_the_shuri_daibu"
		trait="jugoi_ge"
	}
	1564.3.14={
		give_nickname="nick_the_mutsu_no_kami"
	}
	1571.7.15={
		death=yes
	}
}
10060002 = {
	name=character_name_10060002 # Katsuhisa
	dynasty=10000600 # Shimazu
	father=10060011
	martial=6
	diplomacy=7
	intrigue=6
	stewardship=5
	learning=6
	trait="education_diplomacy_1"
	trait="weak"
	religion="shinto"
	culture="southern_kyushu"
	prowess=11
	1503.9.8={
		birth=yes
	}
	1525.1.1={
		 add_spouse=10060071 # daughter of Shimazu Tadaoki
	}
	1533.1.1={
		add_pressed_claim=d_nmih_satsuma
	}
	1535.8.1={
		employer=10064000 # Otomo Yoshiaki (Escaped to Bungo)
	}
	1550.2.28={
		employer=10064002 # Otomo Yoshihige
	}
	1573.11.9={
		death=yes
	}
}
10060003 = {
	name=character_name_10060003 # Tadatomo
	dynasty=10000600 # Shimazu
	father=10060018
	martial=6
	diplomacy=5
	intrigue=7
	stewardship=5
	learning=6
	trait="education_martial_2"
	religion="shinto"
	culture="southern_kyushu"
	prowess=12
	1468.1.1={
		birth=yes
	}
	1482.1.1={
		add_spouse=10060265
	}
	1543.1.1={
		death=yes
	}
}
10060004 = {
	name=character_name_10060004 # Hisatoyo
	dynasty=10000600 # Shimazu
	father=10060029
	martial=6
	diplomacy=6
	intrigue=6
	stewardship=5
	learning=7
	trait="education_martial_3"
	religion="shinto"
	culture="southern_kyushu"
	prowess=15
	1375.1.1={
		birth=yes
	}
	1425.2.18={
		death=yes
	}
}
10060005 = {
	name=character_name_10060005 # Tadakuni
	dynasty=10000600 # Shimazu
	father=10060004
	martial=6
	diplomacy=5
	intrigue=7
	stewardship=6
	learning=6
	trait="education_diplomacy_2"
	religion="shinto"
	culture="southern_kyushu"
	prowess=11
	1403.5.22={
		birth=yes
	}
	1470.2.21={
		death=yes
	}
}
10060006 = {
	name=character_name_10060006 # Mochihisa
	dynasty=10000600 # Shimazu
	father=10060004
	martial=6
	diplomacy=6
	intrigue=7
	stewardship=6
	learning=6
	trait="education_intrigue_2"
	religion="shinto"
	culture="southern_kyushu"
	prowess=10
	1401.1.1={
		birth=yes
	}
	1459.1.1={
		death=yes
	}
}
10060007 = {
	name=character_name_10060007 # Suehisa
	dynasty=10000600 # Shimazu
	father=10060004
	martial=5
	diplomacy=8
	intrigue=6
	stewardship=6
	learning=7
	trait="education_martial_2"
	religion="shinto"
	culture="southern_kyushu"
	prowess=13
	1413.1.1={
		birth=yes
	}
	1477.8.6={
		death=yes
	}
}
10060008 = {
	name=character_name_10060008 # Tatsuhisa
	dynasty=10000600 # Shimazu
	father=10060005
	martial=7
	diplomacy=8
	intrigue=8
	stewardship=7
	learning=7
	trait="education_stewardship_2"
	religion="shinto"
	culture="southern_kyushu"
	prowess=12
	1432.11.27={
		birth=yes
	}
	1456.1.1={
		add_spouse=10060530
	}
	1474.4.26={
		death=yes
	}
}
10060009 = {
	name=character_name_10060009 # Tomohisa
	dynasty=10000600 # Shimazu
	father=10060005
	martial=6
	diplomacy=5
	intrigue=8
	stewardship=6
	learning=6
	trait="education_intrigue_1"
	trait="legitimized_bastard"
	trait="callous"
	religion="shinto"
	culture="southern_kyushu"
	prowess=10
	1432.1.1={
		birth=yes
	}
	1494.1.1={
		death=yes
	}
}
10060010 = {
	name=character_name_10060010 # Hisayasu
	dynasty=10000600 # Shimazu
	father=10060005
	martial=8
	diplomacy=6
	intrigue=7
	stewardship=5
	learning=8
	trait="education_diplomacy_1"
	religion="shinto"
	culture="southern_kyushu"
	prowess=10
	1441.1.1={
		birth=yes
	}
	1459.1.8={
		trait="child_of_adoption"
	}
	1500.1.1={
		death=yes
	}
}
10060011 = {
	name=character_name_10060011 # Tadamasa
	dynasty=10000600 # Shimazu
	father=10060008
	martial=4
	diplomacy=7
	intrigue=6
	stewardship=4
	learning=5
	trait="education_stewardship_2"
	trait="stressed"
	religion="shinto"
	culture="southern_kyushu"
	prowess=9
	1463.5.21={
		birth=yes
	}
	1508.3.16={
		death=yes
	}
}
10060012 = {
	name=character_name_10060012 # Tadaharu
	dynasty=10000600 # Shimazu
	father=10060011
	martial=5
	diplomacy=7
	intrigue=4
	stewardship=7
	learning=6
	trait="education_stewardship_1"
	trait="craven"
	religion="shinto"
	culture="southern_kyushu"
	prowess=11
	1489.2.17={
		birth=yes
	}
	1506.1.1={
		add_spouse=10060518
	}
	1515.10.2={
		death=yes
	}
}
10060013 = {
	name=character_name_10060013 # Tadataka
	dynasty=10000600 # Shimazu
	father=10060011
	martial=7
	diplomacy=6
	intrigue=6
	stewardship=6
	learning=6
	trait="education_stewardship_1"
	trait="craven"
	religion="shinto"
	culture="southern_kyushu"
	prowess=12
	1497.9.11={
		birth=yes
	}
	1519.5.12={
		death=yes
	}
}
10060014 = {
	name=character_name_10060014 # Kunihisa
	dynasty=10000600 # Shimazu
	father=10060006
	martial=6
	diplomacy=7
	intrigue=4
	stewardship=6
	learning=6
	trait="education_intrigue_2"
	religion="shinto"
	culture="southern_kyushu"
	prowess=12
	1441.1.1={
		birth=yes
	}
	1499.1.1={
		death=yes
	}
}
10060015 = {
	name=character_name_10060015 # Shigehisa
	dynasty=10000600 # Shimazu
	father=10060014
	martial=5
	diplomacy=6
	intrigue=7
	stewardship=7
	learning=4
	trait="education_diplomacy_1"
	religion="shinto"
	culture="southern_kyushu"
	prowess=10
	1463.1.1={
		birth=yes
	}
	1504.1.1={
		death=yes
	}
}
10060016 = {
	name=character_name_10060016 # Tadaoki
	dynasty=10000600 # Shimazu
	father=10060015
	martial=7
	diplomacy=6
	intrigue=5
	stewardship=4
	learning=7
	trait="education_diplomacy_1"
	religion="shinto"
	culture="southern_kyushu"
	prowess=11
	1484.1.1={
		birth=yes
	}
	1529.1.1={
		death=yes
	}
}
10060018 = {
	name=character_name_10060018 # Tadakado
	dynasty=10000600 # Shimazu
	father=10060007
	martial=7
	diplomacy=7
	intrigue=5
	stewardship=6
	learning=5
	trait="education_martial_2"
	trait="poet"
	religion="shinto"
	culture="southern_kyushu"
	prowess=11
	1439.1.1={
		birth=yes
	}
	1492.1.1={
		death=yes
	}
}
10060019 = {
	name=character_name_10060019 # Tadahiro
	dynasty=10000600 # Shimazu
	father=10060003
	mother=10060265
	martial=6
	diplomacy=6
	intrigue=6
	stewardship=5
	learning=5
	trait="education_intrigue_1"
	religion="shinto"
	culture="southern_kyushu"
	prowess=10
	1482.1.1={
		birth=yes
	}
	1551.1.1={
		death=yes
	}
}
10060020 = {
	name=character_name_10060020 # Tadachika
	dynasty=10000604 # Hongo
	father=10060250
	martial=7
	diplomacy=6
	intrigue=4
	stewardship=7
	learning=5
	trait="education_martial_2"
	religion="shinto"
	culture="southern_kyushu"
	prowess=14
	1512.1.1={
		birth=yes
	}
	1546.1.1={
		trait="child_of_adoption"
		dynasty=10000604 # Shimazu
	}
	1571.7.4={
		death=yes
	}
}
10060021 = {
	name=character_name_10060021 # Yukihisa
	dynasty=10000600 # Shimazu
	father=10060009
	martial=7
	diplomacy=7
	intrigue=7
	stewardship=6
	learning=7
	trait="education_diplomacy_1"
	religion="shinto"
	culture="southern_kyushu"
	prowess=12
	1468.1.1={
		birth=yes
	}
	1512.1.1={
		employer=10060023
	}
	1526.1.1={
		employer=10060000
	}
	1540.1.1={
		death=yes
	}
}
10060022 = {
	name=character_name_10060022 # Yoshihisa
	dynasty=10000600 # Shimazu
	father=10060010
	martial=5
	diplomacy=7
	intrigue=5
	stewardship=6
	learning=7
	trait="education_martial_1"
	religion="shinto"
	culture="southern_kyushu"
	prowess=11
	1468.1.1={
		birth=yes
	}
	1494.5.22={
		death=yes
	}
}
10060023 = {
	name=character_name_10060023 # Tadayoshi
	dynasty=10000600 # Shimazu
	father=10060022
	martial=6
	diplomacy=7
	intrigue=6
	stewardship=6
	learning=6
	trait="education_stewardship_3"
	trait="scholar"
	trait="intellect_good_2"
	trait="just"
	religion="shinto"
	culture="southern_kyushu"
	prowess=11
	1492.10.14={
		birth=yes
	}
	1568.12.31={
		death=yes
	}
}
10060024 = {
	name=character_name_10060024 # Yoshihisa
	dynasty=10000600 # Shimazu
	father=10060000 # Shimazu Takahisa
	martial=7
	diplomacy=4
	intrigue=6
	stewardship=7
	learning=6
	trait="education_diplomacy_4"
	trait="intellect_good_3"
	trait="compassionate"
	trait="arrogant"
	trait="organizer"
	religion="shinto"
	culture="southern_kyushu"
	prowess=10
	1533.3.4={
		birth=yes
	}
	1549.3.4={
		give_nickname="nick_Saburozaemon"
	}
	1564.1.1={
		trait="jugoi_ge"
		give_nickname="nick_the_shuri_daibu"
	}
	1576.1.1={
		add_spouse=10060160
	}
	1581.5.3={
		remove_trait="jugoi_ge"
		trait="jushii_ge"
	}
	1611.3.5={
		death=yes
	}
}
10060025 = {
	name=character_name_10060025 # Minami #Kimotsuki Kanetsugu's wife
	female=yes
	dynasty=10000600 # Shimazu
	father=10060023
	martial=6
	diplomacy=6
	intrigue=8
	stewardship=5
	learning=6
	trait="education_diplomacy_2"
	religion="shinto"
	culture="southern_kyushu"
	prowess=10
	1514.1.1={
		birth=yes
	}
	1573.1.1={
		death=yes
	}
}
10060026 = {
	name=character_name_10060026 # Tadamasa
	dynasty=10000600 # Shimazu
	father=10060023
	martial=6
	diplomacy=7
	intrigue=5
	stewardship=6
	learning=8
	trait="education_martial_2"
	religion="shinto"
	culture="southern_kyushu"
	prowess=13
	1520.1.1={
		birth=yes
	}
	1561.8.23={
		death=yes
	}
}
10060027 = {
	name=character_name_10060027 # Naohisa
	dynasty=10000600 # Shimazu
	father=10060023
	martial=7
	diplomacy=6
	intrigue=7
	stewardship=6
	learning=6
	trait="education_martial_2"
	religion="shinto"
	culture="southern_kyushu"
	prowess=12
	1531.2.2={
		birth=yes
	}
	1562.4.4={
		death=yes
	}
}
10060028 = {
	name=character_name_10060028 # Yoshihisa
	dynasty=10000600 # Shimazu
	father=10060019
	martial=6
	diplomacy=4
	intrigue=7
	stewardship=7
	learning=7
	trait="education_intrigue_1"
	religion="shinto"
	culture="southern_kyushu"
	prowess=12
	1522.1.1={
		birth=yes
	}
	1546.1.1={
		death=yes
	}
}
10060029 = {
	name=character_name_10060029 # Ujihisa
	dynasty=10000600 # Shimazu
	father=10060031
	religion="shinto"
	culture="southern_kyushu"
	prowess=11
	1328.5.21={
		birth=yes
	}
	1387.6.20={
		death=yes
	}
}
10060030 = {
	name=character_name_10060030 # Motohisa
	dynasty=10000600 # Shimazu
	father=10060029
	religion="shinto"
	culture="southern_kyushu"
	prowess=10
	1363.7.1={
		birth=yes
	}
	1411.8.25={
		death=yes
	}
}
10060031 = {
	name=character_name_10060031 # Sadahisa
	dynasty=10000600 # Shimazu
	father=10060032
	religion="shinto"
	culture="southern_kyushu"
	prowess=11
	1269.5.10={
		birth=yes
	}
	1363.8.12={
		death=yes
	}
}
10060032 = {
	name=character_name_10060032 # Tadamune
	dynasty=10000600 # Shimazu
	father=10060033
	religion="shinto"
	culture="southern_kyushu"
	prowess=11
	1251.1.1={
		birth=yes
	}
	1325.12.7={
		death=yes
	}
}
10060033 = {
	name=character_name_10060033 # Hisatsune
	dynasty=10000600 # Shimazu
	father=10060034
	religion="shinto"
	culture="southern_kyushu"
	prowess=9
	1225.1.1={
		birth=yes
	}
	1284.5.7={
		death=yes
	}
}
10060034 = {
	name=character_name_10060034 # Tadatoki
	dynasty=10000600 # Shimazu
	father=10060035 # Shimazu Tadahisa
	mother=12200075 # daughter of 2200060:Hatakeyama Shigetada
	religion="shinto"
	culture="southern_kyushu"
	prowess=12
	1202.1.1={
		birth=yes
	}
	1272.5.8={
		death=yes
	}
}
10060035 = {
	name=character_name_10060035 # Tadahisa
	dynasty=10000600 # Shimazu
	father=10250065 # Koremune Hirokoto
	mother=12204337 # Tango no Naishi
	religion="shinto"
	culture="central_kinai"
	prowess=10
	1150.1.1={
		birth=yes
	}
	1180.5.18={
		employer=10041059 # Emperor Antoku
	}
	1185.1.1={
		employer=10120075 # Minamoto Yoritomo
	}
	1200.1.1={
		add_spouse=12200075 # daughter of 2200060:Hatakeyama Shigetada
	}
	1227.8.1={
		death=yes
	}
}
10060036 = {
	name=character_name_10060036 # Hisanaga
	dynasty=10000600 # Shimazu
	father=10060033
	religion="shinto"
	culture="southern_kyushu"
	prowess=12
	1280.1.1={
		birth=yes
	}
	1341.11.7={
		death=yes
	}
}
10060037 = {
	name=character_name_10060037 # Munehisa
	dynasty=10000600 # Shimazu
	father=10060036
	religion="shinto"
	culture="southern_kyushu"
	prowess=11
	1300.1.1={
		birth=yes
	}
	1358.1.1={
		death=yes
	}
}
10060038 = {
	name=character_name_10060038 # Chikatada
	dynasty=10000600 # Shimazu
	father=10060037
	religion="shinto"
	culture="southern_kyushu"
	prowess=11
	1320.1.1={
		birth=yes
	}
	1380.1.1={
		death=yes
	}
}
10060039 = {
	name=character_name_10060039 # Hisayoshi
	dynasty=10000600 # Shimazu
	father=10060038
	religion="shinto"
	culture="southern_kyushu"
	prowess=11
	1350.1.1={
		birth=yes
	}
	1422.2.22={
		death=yes
	}
}
10060040 = {
	name=character_name_10060040 # Katsuhisa
	dynasty=10000600 # Shimazu
	father=10060039
	religion="shinto"
	culture="southern_kyushu"
	prowess=10
	1380.1.1={
		birth=yes
	}
	1440.1.1={
		death=yes
	}
}
10060041 = {
	name=character_name_10060041 # Norihisa
	dynasty=10000600 # Shimazu
	father=10060040
	religion="shinto"
	culture="southern_kyushu"
	prowess=9
	1400.1.1={
		birth=yes
	}
	1442.3.1={
		death=yes
	}
}
10060042 = {
	name=character_name_10060042 # Inuyasumaru
	dynasty=10000600 # Shimazu
	father=10060041
	religion="shinto"
	culture="southern_kyushu"
	prowess=10
	1442.1.1={
		birth=yes
	}
	1459.1.8={
		death=yes
	}
}
10060044 = {
	name=character_name_10060044 # Tadayasu
	dynasty=10000600 # Shimazu
	father=10060002
	religion="shinto"
	culture="southern_kyushu"
	prowess=11
	1535.8.3={
		birth=yes
	}
	1618.12.18={
		death=yes
	}
}
10060045 = {
	name=character_name_10060045 # Yoshihiro
	dynasty=10000600 # Shimazu
	father=10060000
	martial=5
	religion="shinto"
	culture="southern_kyushu"
	trait="education_martial_2"
	trait="intellect_good_3"
	trait="brave"
	trait="compassionate"
	trait="generous"
	trait="flexible_leader"
	trait="poet"
	trait="tea_master"
	prowess=11
	1535.8.21={
		birth=yes
	}
	1551.8.21={
		give_nickname="nick_Matashiro"
	}
	1566.1.1={
		add_spouse=10066426
	}
	1574.12.31={
		remove_spouse=10066426
	}
	1619.8.30={
		death=yes
	}
}
10060046 = {
	name=character_name_10060046 # Toshihisa
	dynasty=10000600 # Shimazu
	father=10060000
	intrigue=5
	religion="shinto"
	culture="southern_kyushu"
	trait="education_martial_2"
	trait="intellect_good_2"
	prowess=11
	1537.8.15={
		birth=yes
	}
	1553.8.15={
		give_nickname="nick_Matarokuro"
	}
	1592.8.25={
		death=yes
	}
}
10060047 = {
	name=character_name_10060047 # Iehisa
	dynasty=10000600 # Shimazu
	father=10060000
	martial=6
	religion="shinto"
	culture="southern_kyushu"
	trait="education_martial_2"
	trait="intellect_good_2"
	trait="strategist"
	trait="brave"
	trait="organizer"
	trait="unyielding_defender"
	trait="tea_master"
	prowess=13
	1547.1.1={
		birth=yes
	}
	1563.1.1={
		give_nickname="nick_Matashichiro"
	}
	1587.7.10={
		death=yes
	}
}
10060048 = {
	name=character_name_10060048 # Tomohisa
	dynasty=10000604 # Hongo
	father=10060020
	martial=5
	religion="shinto"
	culture="southern_kyushu"
	prowess=10
	1550.1.1={
		birth=yes
	}
	1570.1.1={
		add_spouse=10060051
	}
	1593.10.6={
		death=yes
	}
}
10060049 = {
	name=character_name_10060049 # Hisayasu
	dynasty=10000600 # Shimazu
	father=10060045
	religion="shinto"
	culture="southern_kyushu"
	prowess=10
	1573.1.1={
		birth=yes
	}
	1593.10.2={
		death=yes
	}
}
10060050 = {
	name=character_name_10060050 # Tadatsune
	dynasty=10000600 # Shimazu
	father=10060045
	religion="shinto"
	culture="southern_kyushu"
	trait="impatient"
	trait="sadistic"
	prowess=12
	1576.11.27={
		birth=yes
	}
	1593.1.1={
		add_spouse=10060055
	}
	1638.4.7={
		death=yes
	}
}
10060051 = {
	name=character_name_10060051 # Oyachi #Hongo Aihisa, Shimazu tomohisa 's wife
	dynasty=10000600 # Shimazu
	female=yes
	father=10060045
	religion="shinto"
	culture="southern_kyushu"
	prowess=10
	1550.11.27={
		birth=yes
	}
	1630.4.7={
		death=yes
	}
}
10060052 = {
	name=character_name_10060052 # Tadakiyo
	dynasty=10000600 # Shimazu
	father=10060045
	religion="shinto"
	culture="southern_kyushu"
	prowess=11
	1582.1.1={
		birth=yes
	}
	1595.8.9={
		death=yes
	}
}
10060053 = {
	name=character_name_10060053 # Hira #Shimazu Yoshitora's wife
	dynasty=10000600 # Shimazu
	female=yes
	father=10060024
	trait="education_diplomacy_4"
	religion="shinto"
	culture="southern_kyushu"
	prowess=10
	1549.1.1={
		birth=yes
	}
	1630.1.1={
		death=yes
	}
}
10060054 = {
	name=character_name_10060054 # Tama #Shimazu Akihisa's wife
	dynasty=10000600 # Shimazu
	female=yes
	father=10060024
	trait="education_diplomacy_4"
	religion="shinto"
	culture="southern_kyushu"
	prowess=11
	1565.1.1={
		birth=yes
	}
	1630.1.1={
		death=yes
	}
}
10060055 = {
	name=character_name_10060055 # Kameju #Shimazu Tadatsune's wife
	dynasty=10000600 # Shimazu
	father=10060024
	mother=10060160
	female=yes
	trait="education_diplomacy_4"
	religion="shinto"
	culture="southern_kyushu"
	prowess=10
	1577.1.1={
		birth=yes
	}
	1630.1.1={
		death=yes
	}
}
10060056 = {
	name=character_name_10060056 # Yunoo #Shimazu Tadachika's wife
	dynasty=10000600 # Shimazu
	female=yes
	father=10060046
	religion="shinto"
	culture="southern_kyushu"
	prowess=12
	1570.1.1={
		birth=yes
	}
	1650.1.1={
		death=yes
	}
}
10060057 = {
	name=character_name_10060057 # Hanaya #Hongo Mitsuhisa's wife
	dynasty=10000600 # Shimazu
	female=yes
	father=10060046
	religion="shinto"
	culture="southern_kyushu"
	prowess=10
	1575.1.1={
		birth=yes
	}
	1650.1.1={
		death=yes
	}
}
10060058 = {
	name=character_name_10060058 # Sotetsu #Shimazu Hisanobu's wife
	dynasty=10000600 # Shimazu
	female=yes
	father=10060047
	religion="shinto"
	culture="southern_kyushu"
	prowess=10
	1580.1.1={
		birth=yes
	}
	1650.1.1={
		death=yes
	}
}
10060059 = {
	name=character_name_10060059 # Kohana #Nejime Shigeharu's wife
	dynasty=10000600 # Shimazu
	female=yes
	father=10060047
	religion="shinto"
	culture="southern_kyushu"
	prowess=10
	1570.1.1={
		birth=yes
	}
	1650.1.1={
		death=yes
	}
}
10060060 = {
	name=character_name_10060060 # Toyohisa
	dynasty=10000600 # Shimazu
	father=10060047
	religion="shinto"
	culture="southern_kyushu"
	trait="beauty_good_2"
	prowess=10
	1570.6.1={
		birth=yes
	}
	1600.10.21={
		death=yes
	}
}
10060061 = {
	name=character_name_10060061 # Tadanao
	dynasty=10000600 # Shimazu
	father=10060047
	religion="shinto"
	culture="southern_kyushu"
	prowess=10
	1574.1.1={
		birth=yes
	}
	1621.7.18={
		death=yes
	}
}
10060062 = {
	name=character_name_10060062 # Hisaka
	dynasty=10000604 # Hongo
	father=10060048
	mother=10060051
	religion="shinto"
	culture="southern_kyushu"
	prowess=10
	1582.2.6={
		birth=yes
	}
	1644.4.28={
		death=yes
	}
}
10060063 = {
	name=character_name_10060063 # Tadatoki
	dynasty=10000600 # Shimazu
	father=10060079 # Shimazu Yoshitora
	mother=10060053
	religion="shinto"
	culture="southern_kyushu"
	prowess=11
	1565.1.1={
		birth=yes
	}
	1593.9.22={
		death=yes
	}
}
10060064 = {
	name=character_name_10060064 # Tadachika
	dynasty=10000600 # Shimazu
	father=10060079 # Shimazu Yoshitora
	mother=10060053
	religion="shinto"
	culture="southern_kyushu"
	prowess=10
	1569.1.1={
		birth=yes
	}
	1586.1.1={
		add_spouse=10060056
	}
	1587.5.24={
		death=yes
	}
}
10060065 = {
	name=character_name_10060065 # Tadakiyo
	dynasty=10000600 # Shimazu
	father=10060079 # Shimazu Yoshitora
	mother=10060053
	religion="shinto"
	culture="southern_kyushu"
	prowess=10
	1571.1.1={
		birth=yes
	}
	1620.2.8={
		death=yes
	}
}
10060066 = {
	name=character_name_10060066 # Tadahide
	dynasty=10000600 # Shimazu
	father=10060079 # Shimazu Yoshitora
	mother=10060053
	religion="shinto"
	culture="southern_kyushu"
	prowess=11
	1573.1.1={
		birth=yes
	}
	1620.1.1={
		death=yes
	}
}
10060067 = {
	name=character_name_10060067 # Tadatomi
	dynasty=10000600 # Shimazu
	father=10060079 # Shimazu Yoshitora
	mother=10060053
	religion="shinto"
	culture="southern_kyushu"
	prowess=10
	1579.1.1={
		birth=yes
	}
	1647.9.6={
		death=yes
	}
}
10060068 = {
	name=character_name_10060068 # Shoen #Sagara Sakitsugu's wife
	dynasty=10000600 # Shimazu
	father=10060004
	female=yes
	trait="education_diplomacy_2"
	religion="shinto"
	culture="southern_kyushu"
	prowess=10
	1410.1.1={
		birth=yes
	}
	1470.1.1={
		death=yes
	}
}
10060070={
	name=character_name_10060070 # Sanehisa
	dynasty=10000600 # Shimazu
	father=10060016 # Shimazu Tadaoki
	martial=6
	diplomacy=6
	intrigue=5
	stewardship=5
	learning=7
	trait="education_intrigue_2"
	trait="diligent"
	trait="callous"
	religion="shinto"
	culture="southern_kyushu"
	prowess=11
	1510.1.1={
		birth=yes
	}
	1526.1.1={
		add_pressed_claim=d_nmih_satsuma
	}
	1553.1.1={
		death=yes
	}
}
10060071={
	name=character_name_10060071 # Okiko
	female=yes
	dynasty=10000600 # Shimazu
	father=10060016
	martial=5
	diplomacy=6
	intrigue=6
	stewardship=7
	learning=7
	trait="education_stewardship_1"
	religion="shinto"
	culture="southern_kyushu"
	prowess=9
	1508.1.1={
		birth=yes
	}
	1564.1.1={
		death=yes
	}
}
10060072={
	female=yes
	name=character_name_10060072 # Atsuko
	dynasty=10000600 # Shimazu
	father=10060016 # Shimazu Tadaoki
	religion="shinto"
	culture="southern_kyushu"
	prowess=10
	1511.01.01={
		birth=yes
	}
	1561.1.1={
		death=yes
	}
}
10060073={
	name=character_name_10060073 # Tadakane
	dynasty=10000600 # Shimazu
	father=10060016 # Shimazu Tadaoki
	religion="shinto"
	culture="southern_kyushu"
	prowess=12
	1524.01.01={
		birth=yes
	}
	1540.1.1={
		give_nickname="nick_hitachi_no_suke"
	}
	1565.8.12={
		death={
			death_reason=death_murder
			killer=10060079 # Shimadu Yoshitora
		}
	}
}
10060074={
	female=yes
	name=character_name_10060074 # Nariko
	dynasty=10000600 # Shimazu
	father=10060016 # Shimazu Tadaoki
	religion="shinto"
	culture="southern_kyushu"
	prowess=9
	1512.01.01={
		birth=yes
	}
	1562.1.1={
		death=yes
	}
}
10060075={
	female=yes
	name=character_name_10060075 # Noriko
	dynasty=10000600 # Shimazu
	father=10060016 # Shimazu Tadaoki
	religion="shinto"
	culture="southern_kyushu"
	prowess=10
	1520.01.01={
		birth=yes
	}
	1570.01.01={
		death=yes
	}
}
10060076={
	female=yes
	name=character_name_10060076 # Saneko
	dynasty=10000600 # Shimazu
	father=10060070 # Shimazu Sanehisa
	religion="shinto"
	culture="southern_kyushu"
	prowess=9
	1530.01.01={
		birth=yes
	}
	1580.01.01={
		death=yes
	}
}
10060077={
	female=yes
	name=character_name_10060077 # Tora
	dynasty=10000600 # Shimazu
	father=10060070 # Shimazu Sanehisa
	religion="shinto"
	culture="southern_kyushu"
	prowess=11
	1533.01.01={
		birth=yes
	}
	1583.1.1={
		death=yes
	}
}
10060079={
	name=character_name_10060079 # Yoshitora
	dynasty=10000600 # Shimazu
	father=10060070 # Shimazu Sanehisa
	religion="shinto"
	culture="southern_kyushu"
	prowess=10
	1536.5.20={
		birth=yes
	}
	1552.1.1={
		give_nickname="nick_Matataro"
	}
	1553.01.01={
		give_nickname="nick_satsuma_no_kami"
	}
	1565.1.1={
		add_spouse=10060053
	}
	1585.8.20={
		death=yes
	}
}
10060100 = {
	name=character_name_10060100 # Kanetsugu
	dynasty=10000601 # Kimotsuki
	father=10060102
	martial=7
	diplomacy=6
	intrigue=7
	stewardship=5
	learning=5
	trait="education_martial_3"
	trait="diligent"
	religion="shinto"
	culture="southern_kyushu"
	prowess=14
	1511.1.1={
		birth=yes
	}
	1527.1.1={
		give_nickname="nick_saburo"
	}
	1529.1.1={
		add_spouse=10060025
	}
	1536.1.1={
		give_nickname="nick_kawachi_no_kami"
	}
	1566.12.26={
		death=yes
	}
}
10060101 = {
	name=character_name_10060101 # Kanehisa
	dynasty=10000601 # Kimotsuki
	father=10060107
	martial=6
	diplomacy=6
	intrigue=6
	stewardship=8
	learning=6
	trait="education_diplomacy_2"
	religion="shinto"
	culture="southern_kyushu"
	prowess=9
	1473.1.1={
		birth=yes
	}
	1489.1.1={
		give_nickname="nick_Saburoshiro"
	}
	1498.1.1={
		give_nickname="nick_kawachi_no_kami"
	}
	1523.3.14={
		death=yes
	}
}
10060102 = {
	name=character_name_10060102 # Kaneoki
	dynasty=10000601 # Kimotsuki
	father=10060101
	martial=7
	diplomacy=5
	intrigue=6
	stewardship=6
	learning=7
	trait="education_stewardship_2"
	religion="shinto"
	culture="southern_kyushu"
	prowess=11
	1492.1.1={
		birth=yes
	}
	1508.1.1={
		give_nickname="nick_Matahachiro"
	}
	1517.1.1={
		give_nickname="nick_hyobu_no_sho"
	}
	1527.1.1={
		give_nickname="nick_kawachi_no_kami"
	}
	1533.4.29={
		death=yes
	}
}
10060103 = {
	name=character_name_10060103 # Kaneko #SHimazu Takahisa's wife
	female=yes
	dynasty=10000601 # Kimotsuki
	father=10060102
	martial=6
	diplomacy=6
	intrigue=5
	stewardship=7
	learning=6
	trait="education_diplomacy_2"
	religion="shinto"
	culture="southern_kyushu"
	prowess=9
	1512.1.1={
		birth=yes
	}
	1532.1.1={
		death=yes
	}
}
10060104 = {
	name=character_name_10060104 # Yoshikane
	dynasty=10000601 # Kimotsuki
	father=10060100
	mother=10060025 # daughter of Shimazu Tadayoshi
	religion="shinto"
	culture="southern_kyushu"
	prowess=11
	1535.1.1={
		birth=yes
	}
	1551.1.1={
		add_spouse=10060510
		give_nickname="nick_saburo"
	}
	1560.1.1={
		give_nickname="nick_sama_no_kami"
	}
	1565.1.1={
		give_nickname="nick_kawachi_no_kami"
	}
	1571.8.20={
		death=yes
	}
}
10060105 = {
	name=character_name_10060105 # Kaneaki
	dynasty=10000601 # Kimotsuki
	father=10060100
	religion="shinto"
	culture="southern_kyushu"
	prowess=12
	1558.1.1={
		birth=yes
	}
	1571.1.1={
		add_spouse=10060112
	}
	1575.1.1={
		remove_spouse=10060112
	}
	1634.1.1={
		death=yes
	}
}
10060106 = {
	name=character_name_10060106 # Kanemori
	dynasty=10000601 # Kimotsuki
	father=10060100
	religion="shinto"
	culture="southern_kyushu"
	prowess=11
	1561.1.1={
		birth=yes
	}
	1575.1.1={
		add_spouse=10060112
	}
	1600.10.11={
		death=yes
	}
}
10060107 = {
	name=character_name_10060107 # Kanetsura
	dynasty=10000601 # Kimotsuki
	father=10060108
	religion="shinto"
	culture="southern_kyushu"
	prowess=10
	1430.1.1={
		birth=yes
	}
	1455.1.1={
		give_nickname="nick_suo_no_kami"
	}
	1490.1.1={
		death=yes
	}
}
10060108 = {
	name=character_name_10060108 # Kanetada
	dynasty=10000601 # Kimotsuki
	father=10060109
	religion="shinto"
	culture="southern_kyushu"
	prowess=12
	1406.1.1={
		birth=yes
	}
	1422.1.1={
		give_nickname="nick_saburo"
	}
	1431.1.1={
		give_nickname="nick_kawachi_no_kami"
	}
	1484.4.6={
		death=yes
	}
}
10060109 = {
	name=character_name_10060109 # Kanemoto
	dynasty=10000601 # Kimotsuki
	father=10060110
	religion="shinto"
	culture="southern_kyushu"
	prowess=12
	1380.1.1={
		birth=yes
	}
	1450.1.1={
		death=yes
	}
}
10060110 = {
	name=character_name_10060110 # Kaneuji
	dynasty=10000601 # Kimotsuki
	father=10060148
	mother=10060147
	religion="shinto"
	culture="southern_kyushu"
	prowess=11
	1340.1.1={
		birth=yes
	}
	1400.1.1={
		death=yes
	}
}
10060111 = {
	name=character_name_10060111 # Yoshiko #Ijichi Shigemasa's wife
	dynasty=10000601 # Kimotsuki
	female=yes
	father=10060104
	religion="shinto"
	culture="southern_kyushu"
	prowess=10
	1552.1.1={
		birth=yes
	}
	1610.1.1={
		death=yes
	}
}
10060112 = {
	name=character_name_10060112 # Toshiko #Kimotsuki Kaneaki, Kanemori's wife
	dynasty=10000601 # Kimotsuki
	female=yes
	father=10060104
	religion="shinto"
	culture="southern_kyushu"
	prowess=11
	1557.1.1={
		birth=yes
	}
	1590.1.1={
		death=yes
	}
}
10060113 = {
	name=character_name_10060113 # Kanemitsu
	dynasty=10000601 # Kimotsuki
	father=10060108
	religion="shinto"
	culture="southern_kyushu"
	prowess=12
	1440.1.1={
		birth=yes
	}
	1483.1.1={
		death=yes
	}
}
10060114 = {
	name=character_name_10060114 # Kanekata
	dynasty=10000601 # Kimotsuki
	father=10060113
	religion="shinto"
	culture="southern_kyushu"
	prowess=11
	1470.1.1={
		birth=yes
	}
	1500.1.1={
		death=yes
	}
}
10060115 = {
	name=character_name_10060115 # Kanehiro
	dynasty=10000601 # Kimotsuki
	father=10060114
	religion="shinto"
	culture="southern_kyushu"
	prowess=11
	1498.1.1={
		birth=yes
	}
	1516.1.1={
		add_spouse=10060211
	}
	1552.7.25={
		death=yes
	}
}
10060116 = {
	name=character_name_10060116 # Kanemori
	dynasty=10000601 # Kimotsuki
	father=10060115
	mother=10060211
	religion="shinto"
	culture="southern_kyushu"
	prowess=11
	1533.1.1={
		birth=yes
	}
	1578.9.12={
		death=yes
	}
}
10060117 = {
	name=character_name_10060117 # Kanehiro
	dynasty=10000601 # Kimotsuki
	father=10060116
	religion="shinto"
	culture="southern_kyushu"
	prowess=10
	1558.1.1={
		birth=yes
	}
	1590.4.7={
		death=yes
	}
}
10060118 = {
	name=character_name_10060118 # Kaneatsu
	dynasty=10000601 # Kimotsuki
	father=10060116
	religion="shinto"
	culture="southern_kyushu"
	prowess=11
	1562.1.1={
		birth=yes
	}
	1609.7.30={
		death=yes
	}
}
10060119 = {
	name=character_name_10060119 # Kaneko #Niino Tadamitsu's wife
	dynasty=10000601 # Kimotsuki
	female=yes
	father=10060116
	religion="shinto"
	culture="southern_kyushu"
	prowess=10
	1565.1.1={
		birth=yes
	}
	1600.1.1={
		death=yes
	}
}
10060144 = {
	name=character_name_10060144 # Kanehisa
	dynasty=10000601 # Kimotsuki
	father=12810640
	religion="shinto"
	culture="southern_kyushu"
	prowess=10
	1280.1.1={
		birth=yes
	}
	1330.1.1={
		death=yes
	}
}
10060145 = {
	name=character_name_10060145 # Kaneshige
	dynasty=10000601 # Kimotsuki
	father=12810640
	religion="shinto"
	culture="southern_kyushu"
	prowess=11
	1290.1.1={
		birth=yes
	}
	1349.1.1={
		death=yes
	}
}
10060146 = {
	name=character_name_10060146 # Kanetaka
	dynasty=10000601 # Kimotsuki
	father=10060144
	religion="shinto"
	culture="southern_kyushu"
	prowess=12
	1300.1.1={
		birth=yes
	}
	1360.1.1={
		death=yes
	}
}
10060147 = {
	name=character_name_10060147 # Kaneko
	dynasty=10000601 # Kimotsuki
	father=10060144
	female=yes
	religion="shinto"
	culture="southern_kyushu"
	prowess=10
	1310.1.1={
		birth=yes
	}
	1380.1.1={
		death=yes
	}
}
10060148 = {
	name=character_name_10060148 # Akikane
	dynasty=10000601 # Kimotsuki
	father=10060145
	religion="shinto"
	culture="southern_kyushu"
	prowess=10
	1310.1.1={
		birth=yes
	}
	1330.1.1={
		add_spouse=10060147
	}
	1380.1.1={
		death=yes
	}
}
10060150 = {
	name=character_name_10060150 # Shigetoki
	dynasty=10000602 # Tanegashima
	father=10060151
	mother=10060214
	martial=6
	diplomacy=5
	intrigue=5
	stewardship=6
	learning=5
	trait="education_diplomacy_2"
	religion="shinto"
	culture="southern_kyushu"
	prowess=11
	1503.1.1={
		birth=yes
	}
	1523.1.1={
		give_nickname="nick_uhyoe_no_jo"
	}
	1533.1.1={
		give_nickname="nick_kaga_no_kami"
	}
	1567.4.23={
		death=yes
	}
}
10060151 = {
	name=character_name_10060151 # Tadatoki
	dynasty=10000602 # Tanegashima
	father=10060153
	martial=7
	diplomacy=6
	intrigue=6
	stewardship=5
	learning=5
	trait="education_diplomacy_2"
	religion="shinto"
	culture="southern_kyushu"
	prowess=10
	1471.1.1={
		birth=yes
	}
	1487.1.1={
		give_nickname="nick_Saburogoro"
	}
	1491.1.1={
		give_nickname="nick_sahyoe_no_jo"
	}
	1500.1.1={
		add_spouse=10060214
	}
	1501.1.1={
		give_nickname="nick_musashi_no_kami"
	}
	1527.1.1={
		death=yes
	}
}
10060152 = {
	name=character_name_10060152 # Tokitaka
	dynasty=10000602 # Tanegashima
	father=10060150
	martial=4
	diplomacy=6
	intrigue=7
	stewardship=5
	learning=6
	trait="education_stewardship_2"
	religion="shinto"
	culture="southern_kyushu"
	prowess=9
	1528.1.1={
		birth=yes
	}
	1544.1.1={
		give_nickname="nick_sahyoe_no_jo"
	}
	1548.1.1={
		give_nickname="nick_danjo_daichu"
	}
	1558.1.1={
		give_nickname="nick_ukonoe_shogen"
	}
	1565.1.1={
		trait="jugoi_ge"
	}
	1579.10.21={
		death=yes
	}
}
10060153 = {
	name=character_name_10060153 # Tokiuji
	dynasty=10000602 # Tanegashima
	father=10060154
	religion="shinto"
	culture="southern_kyushu"
	prowess=10
	1430.1.1={
		birth=yes
	}
	1446.1.1={
		give_nickname="nick_Saburojio"
	}
	1450.1.1={
		give_nickname="nick_sakonoe_shogen"
	}
	1500.1.1={
		death=yes
	}
}
10060154 = {
	name=character_name_10060154 # Hatatoki
	dynasty=10000602 # Tanegashima
	father=10060156
	religion="shinto"
	culture="southern_kyushu"
	prowess=9
	1390.1.1={
		birth=yes
	}
	1450.1.1={
		death=yes
	}
}
10060155 = {
	name=character_name_10060155 # Tokinaga
	dynasty=10000602 # Tanegashima
	father=10060156
	religion="shinto"
	culture="southern_kyushu"
	prowess=9
	1380.1.1={
		birth=yes
	}
	1420.1.1={
		death=yes
	}
}
10060156 = {
	name=character_name_10060156 # Kiyotoki
	dynasty=10000602 # Tanegashima
	father=10060165
	religion="shinto"
	culture="southern_kyushu"
	prowess=11
	1350.1.1={
		birth=yes
	}
	1400.1.1={
		death=yes
	}
}
10060157 = {
	name=character_name_10060157 # Tokitsugu
	dynasty=10000602 # Tanegashima
	father=10060152
	religion="shinto"
	culture="southern_kyushu"
	prowess=10
	1556.10.14={
		birth=yes
	}
	1562.10.28={
		death=yes
	}
}
10060158 = {
	name=character_name_10060158 # Hisatoki
	dynasty=10000602 # Tanegashima
	father=10060152
	religion="shinto"
	culture="southern_kyushu"
	prowess=10
	1568.1.1={
		birth=yes
	}
	1612.1.29={
		death=yes
	}
}
10060159 = {
	name=character_name_10060159 # Tokiko #Ijuin Tadamune's wife
	dynasty=10000602 # Tanegashima
	female=yes
	father=10060152
	religion="shinto"
	culture="southern_kyushu"
	prowess=11
	1550.10.14={
		birth=yes
	}
	1620.10.28={
		death=yes
	}
}
10060160 = {
	name=character_name_10060160 # Myoren #Shimazu Yoshihisa's present wife
	dynasty=10000602 # Tanegashima
	female=yes
	father=10060152
	religion="shinto"
	culture="southern_kyushu"
	prowess=12
	1551.10.14={
		birth=yes
	}
	1583.2.5={
		death=yes
	}
}
10060161 = {
	name=character_name_10060161 # Tokinori
	dynasty=10000602 # Tanegashima
	father=10060150
	religion="shinto"
	culture="southern_kyushu"
	prowess=9
	1530.1.1={
		birth=yes
	}
	1585.1.1={
		death=yes
	}
}
10060162 = {
	name=character_name_10060162 # Tokinobu
	dynasty=10000602 # Tanegashima
	father=10060151
	religion="shinto"
	culture="southern_kyushu"
	prowess=11
	1520.1.1={
		birth=yes
	}
	1585.1.1={
		death=yes
	}
}
10060163 = {
	name=character_name_10060163 # Asatoki
	dynasty=10000602 # Tanegashima
	father=10060153
	trait="education_diplomacy_2"
	religion="shinto"
	culture="southern_kyushu"
	prowess=10
	1475.1.1={
		birth=yes
	}
	1540.1.1={
		death=yes
	}
}
10060164 = {
	name=character_name_10060164 # Tokimasa
	dynasty=10000602 # Tanegashima
	father=10060153
	trait="education_diplomacy_2"
	religion="shinto"
	culture="southern_kyushu"
	prowess=11
	1480.1.1={
		birth=yes
	}
	1550.1.1={
		death=yes
	}
}
10060165 = {
	name=character_name_10060165 # Yoritoki
	dynasty=10000602 # Tanegashima
	father=10060166
	religion="shinto"
	culture="southern_kyushu"
	prowess=9
	1330.1.1={
		birth=yes
	}
	1367.1.1={
		death=yes
	}
}
10060166 = {
	name=character_name_10060166 # Tokimitsu
	dynasty=10000602 # Tanegashima
	father=10060167
	religion="shinto"
	culture="southern_kyushu"
	prowess=10
	1305.1.1={
		birth=yes
	}
	1397.1.1={
		death=yes
	}
}
10060167 = {
	name=character_name_10060167 # Tokimoto
	dynasty=10000605 # Higo
	father=10060169
	religion="shinto"
	culture="southern_kyushu"
	prowess=10
	1280.1.1={
		birth=yes
	}
	1352.1.1={
		death=yes
	}
}
10060168 = {
	name=character_name_10060168 # Nobuyori
	dynasty=10000605 # Higo
	father=10060169
	religion="shinto"
	culture="southern_kyushu"
	prowess=10
	1290.1.1={
		birth=yes
	}
	1360.1.1={
		death=yes
	}
}
10060169 = {
	name=character_name_10060169 # Sanetoki
	dynasty=10000605 # Higo
	father=10060170
	religion="shinto"
	culture="southern_kyushu"
	prowess=11
	1250.1.1={
		birth=yes
	}
	1310.1.1={
		death=yes
	}
}
10060170 = {
	name=character_name_10060170 # Nobuzane
	dynasty=10000605 # Higo
	father=10060171
	religion="shinto"
	culture="southern_kyushu"
	prowess=10
	1220.1.1={
		birth=yes
	}
	1290.1.1={
		death=yes
	}
}
10060171 = {
	name=character_name_10060171 # Nobunori
	dynasty=10000605 # Higo
	father=10060172
	religion="shinto"
	culture="southern_kyushu"
	prowess=10
	1190.1.1={
		birth=yes
	}
	1250.1.1={
		death=yes
	}
}
10060172 = {
	name=character_name_10060172 # Tokinobu
	dynasty=10000605 # Higo
	religion="shinto"
	culture="southern_kyushu"
	prowess=11
	1160.1.1={
		birth=yes
	}
	1220.1.1={
		death=yes
	}
}
10060200 = {
	name=character_name_10060200 # Shigekiyo
	dynasty=10000602 # Tanegashima
	father=10060151
	mother=10060214
	martial=5
	diplomacy=6
	intrigue=6
	stewardship=5
	learning=6
	trait="education_martial_2"
	religion="shinto"
	culture="southern_kyushu"
	prowess=13
	1505.1.1={
		birth=yes
	}
	1521.1.1={
		dynasty=10000603 # Gamo
		add_spouse=10060202
	}
	1550.1.1={
		death=yes
	}
}
10060201 = {
	name=character_name_10060201 # Mitsukiyo
	dynasty=10000603 # Gamo
	father=10060204
	martial=6
	diplomacy=5
	intrigue=7
	stewardship=6
	learning=7
	trait="education_diplomacy_1"
	religion="shinto"
	culture="southern_kyushu"
	prowess=11
	1475.1.1={
		birth=yes
	}
	1521.1.1={
		death=yes
	}
}
10060202 = {
	name=character_name_10060202 # Mitsuko
	female=yes
	dynasty=10000603 # Gamo
	father=10060201
	martial=7
	diplomacy=8
	intrigue=6
	stewardship=6
	learning=6
	trait="education_intrigue_1"
	religion="shinto"
	culture="southern_kyushu"
	prowess=10
	1495.1.1={
		birth=yes
	}
	1554.1.1={
		death=yes
	}
}
10060203 = {
	name=character_name_10060203 # Kiyochika
	dynasty=10000603 # Gamo
	father=10060201
	martial=7
	diplomacy=7
	intrigue=6
	stewardship=7
	learning=6
	trait="education_martial_1"
	religion="shinto"
	culture="southern_kyushu"
	prowess=10
	1520.1.1={
		birth=yes
	}
	1567.1.1={
		death=yes
	}
}
10060204 = {
	name=character_name_10060204 # Nobukiyo
	dynasty=10000603 # Gamo
	father=10060205
	religion="shinto"
	culture="southern_kyushu"
	prowess=11
	1450.1.1={
		birth=yes
	}
	1510.1.1={
		death=yes
	}
}
10060205 = {
	name=character_name_10060205 # Hisakiyo
	dynasty=10000603 # Gamo
	father=10060206
	religion="shinto"
	culture="southern_kyushu"
	prowess=11
	1423.1.1={
		birth=yes
	}
	1455.1.1={
		death=yes
	}
}
10060206 = {
	name=character_name_10060206 # Tadakiyo
	dynasty=10000603 # Gamo
	father=10060207
	religion="shinto"
	culture="southern_kyushu"
	prowess=12
	1390.1.1={
		birth=yes
	}
	1451.1.1={
		death=yes
	}
}
10060207 = {
	name=character_name_10060207 # Kiyohiro
	dynasty=10000603 # Gamo
	father=10060215
	religion="shinto"
	culture="southern_kyushu"
	prowess=11
	1350.1.1={
		birth=yes
	}
	1420.1.1={
		death=yes
	}
}
10060208 = {
	name=character_name_10060208 # Norikiyo
	dynasty=10000603 # Gamo
	father=10060200
	mother=10060202
	religion="shinto"
	culture="southern_kyushu"
	prowess=11
	1530.1.1={
		birth=yes
	}
	1590.1.1={
		death=yes
	}
}
10060209 = {
	name=character_name_10060209 # Tamekiyo
	dynasty=10000603 # Gamo
	father=10060208
	religion="shinto"
	culture="southern_kyushu"
	prowess=12
	1560.1.1={
		birth=yes
	}
	1650.1.1={
		death=yes
	}
}
10060210 = {
	name=character_name_10060210 # Kiyokata
	dynasty=10000603 # Gamo
	father=10060204
	trait="education_diplomacy_1"
	religion="shinto"
	culture="southern_kyushu"
	prowess=11
	1480.1.1={
		birth=yes
	}
	1550.1.1={
		death=yes
	}
}
10060211 = {
	name=character_name_10060211 # Nobuko #Kimotsuki Kanehiro's wife
	female=yes
	dynasty=10000603 # Gamo
	father=10060201
	trait="education_intrigue_1"
	religion="shinto"
	culture="southern_kyushu"
	prowess=10
	1500.1.1={
		birth=yes
	}
	1570.1.1={
		death=yes
	}
}
10060212 = {
	name=character_name_10060212 # Kiyotsuna
	dynasty=10000603 # Gamo
	father=10060203
	trait="education_martial_1"
	religion="shinto"
	culture="southern_kyushu"
	prowess=12
	1550.1.1={
		birth=yes
	}
	1620.1.1={
		death=yes
	}
}
10060213 = {
	name=character_name_10060213 # Kiyomoto
	dynasty=10000603 # Gamo
	father=10060203
	trait="education_martial_1"
	religion="shinto"
	culture="southern_kyushu"
	prowess=10
	1555.1.1={
		birth=yes
	}
	1620.1.1={
		death=yes
	}
}
10060214 = {
	name=character_name_10060214 # Mitsuko #Taneagshima Tadatoki's wife
	dynasty=10000603 # Gamo
	female=yes
	father=10060204
	trait="education_diplomacy_1"
	religion="shinto"
	culture="southern_kyushu"
	prowess=10
	1480.1.1={
		birth=yes
	}
	1540.1.1={
		death=yes
	}
}
10060215 = {
	name=character_name_10060215 # Kiyofuyu
	dynasty=10000603 # Gamo
	father=10060222
	religion="shinto"
	culture="southern_kyushu"
	prowess=9
	1320.1.1={
		birth=yes
	}
	1390.1.1={
		death=yes
	}
}
10060216 = {
	name=character_name_10060216 # Kiyotsune
	dynasty=10000603 # Gamo
	father=10060207
	religion="shinto"
	culture="southern_kyushu"
	prowess=12
	1395.1.1={
		birth=yes
	}
	1450.1.1={
		death=yes
	}
}
10060217 = {
	name=character_name_10060217 # Kiyomasa
	dynasty=10000603 # Gamo
	father=10060222
	religion="shinto"
	culture="southern_kyushu"
	prowess=11
	1325.1.1={
		birth=yes
	}
	1390.1.1={
		death=yes
	}
}
10060218 = {
	name=character_name_10060218 # Kiyohira
	dynasty=10000603 # Gamo
	father=10060222
	religion="shinto"
	culture="southern_kyushu"
	prowess=12
	1330.1.1={
		birth=yes
	}
	1390.1.1={
		death=yes
	}
}
10060219 = {
	name=character_name_10060219 # Kiyona
	dynasty=10000603 # Gamo
	father=10060222
	religion="shinto"
	culture="southern_kyushu"
	prowess=11
	1335.1.1={
		birth=yes
	}
	1400.1.1={
		death=yes
	}
}
10060220 = {
	name=character_name_10060220 # Kiyonao
	dynasty=10000603 # Gamo
	father=10060222
	religion="shinto"
	culture="southern_kyushu"
	prowess=10
	1340.1.1={
		birth=yes
	}
	1400.1.1={
		death=yes
	}
}
10060221 = {
	name=character_name_10060221 # Kiyoshige
	dynasty=10000603 # Gamo
	father=10060222
	religion="shinto"
	culture="southern_kyushu"
	prowess=11
	1345.1.1={
		birth=yes
	}
	1400.1.1={
		death=yes
	}
}
10060222 = {
	name=character_name_10060222 # Kiyotane
	dynasty=10000603 # Gamo
	father=10060223
	religion="shinto"
	culture="southern_kyushu"
	prowess=10
	1300.1.1={
		birth=yes
	}
	1370.1.1={
		death=yes
	}
}
10060223 = {
	name=character_name_10060223 # Naokiyo
	dynasty=10000603 # Gamo
	father=10060224
	religion="shinto"
	culture="southern_kyushu"
	prowess=11
	1270.1.1={
		birth=yes
	}
	1340.1.1={
		death=yes
	}
}
10060224 = {
	name=character_name_10060224 # Munekiyo
	dynasty=10000603 # Gamo
	father=10060226
	religion="shinto"
	culture="southern_kyushu"
	prowess=10
	1240.1.1={
		birth=yes
	}
	1300.1.1={
		death=yes
	}
}
10060225 = {
	name=character_name_10060225 # Harukiyo
	dynasty=10000603 # Gamo
	father=10060226
	religion="shinto"
	culture="southern_kyushu"
	prowess=11
	1250.1.1={
		birth=yes
	}
	1300.1.1={
		death=yes
	}
}
10060226 = {
	name=character_name_10060226 # Kiyoshige
	dynasty=10000603 # Gamo
	father=10060229
	religion="shinto"
	culture="southern_kyushu"
	prowess=11
	1220.1.1={
		birth=yes
	}
	1300.1.1={
		death=yes
	}
}
10060227 = {
	name=character_name_10060227 # Kiyohisa
	dynasty=10000603 # Gamo
	father=10060229
	religion="shinto"
	culture="southern_kyushu"
	prowess=10
	1215.1.1={
		birth=yes
	}
	1270.1.1={
		death=yes
	}
}
10060228 = {
	name=character_name_10060228 # Kiyotsugu
	dynasty=10000603 # Gamo
	father=10060229
	religion="shinto"
	culture="southern_kyushu"
	prowess=11
	1210.1.1={
		birth=yes
	}
	1280.1.1={
		death=yes
	}
}
10060229 = {
	name=character_name_10060229 # Kiyoshige
	dynasty=10000603 # Gamo
	father=10060231
	religion="shinto"
	culture="southern_kyushu"
	prowess=9
	1190.1.1={
		birth=yes
	}
	1250.1.1={
		death=yes
	}
}
10060230 = {
	name=character_name_10060230 # Kiyonori
	dynasty=10000603 # Gamo
	father=10060231
	religion="shinto"
	culture="southern_kyushu"
	prowess=10
	1195.1.1={
		birth=yes
	}
	1250.1.1={
		death=yes
	}
}
10060231 = {
	name=character_name_10060231 # Kiyonao
	dynasty=10000603 # Gamo
	father=10060236
	religion="shinto"
	culture="southern_kyushu"
	prowess=10
	1165.1.1={
		birth=yes
	}
	1250.1.1={
		death=yes
	}
}
10060232 = {
	name=character_name_10060232 # Tanemoto
	dynasty=10000603 # Gamo
	father=10060236
	religion="shinto"
	culture="southern_kyushu"
	prowess=9
	1170.1.1={
		birth=yes
	}
	1250.1.1={
		death=yes
	}
}
10060233 = {
	name=character_name_10060233 # Tanetsuna
	dynasty=10000603 # Gamo
	father=10060236
	religion="shinto"
	culture="southern_kyushu"
	prowess=11
	1175.1.1={
		birth=yes
	}
	1250.1.1={
		death=yes
	}
}
10060234 = {
	name=character_name_10060234 # Kiyohira
	dynasty=10000603 # Gamo
	father=10060236
	religion="shinto"
	culture="southern_kyushu"
	prowess=10
	1170.1.1={
		birth=yes
	}
	1250.1.1={
		death=yes
	}
}
10060235 = {
	name=character_name_10060235 # Kiyotaka
	dynasty=10000603 # Gamo
	father=10060236
	religion="shinto"
	culture="southern_kyushu"
	prowess=10
	1175.1.1={
		birth=yes
	}
	1250.1.1={
		death=yes
	}
}
10060236 = {
	name=character_name_10060236 # Tanekiyo
	dynasty=10000603 # Gamo
	father=10060240
	religion="shinto"
	culture="southern_kyushu"
	prowess=11
	1130.1.1={
		birth=yes
	}
	1200.1.1={
		death=yes
	}
}
10060237 = {
	name=character_name_10060237 # Sukekiyo
	dynasty=10000603 # Gamo
	father=10060240
	religion="shinto"
	culture="southern_kyushu"
	prowess=11
	1127.1.1={
		birth=yes
	}
	1200.1.1={
		death=yes
	}
}
10060238 = {
	name=character_name_10060238 # Munehira
	dynasty=10000603 # Gamo
	father=10060240
	religion="shinto"
	culture="southern_kyushu"
	prowess=10
	1135.1.1={
		birth=yes
	}
	1200.1.1={
		death=yes
	}
}
10060239 = {
	name=character_name_10060239 # Tadakiyo
	dynasty=10000603 # Gamo
	father=10060240
	religion="shinto"
	culture="southern_kyushu"
	prowess=11
	1140.1.1={
		birth=yes
	}
	1210.1.1={
		death=yes
	}
}
10060240 = {
	name=character_name_10060240 # Chikakiyo
	dynasty=10000603 # Gamo
	religion="shinto"
	culture="southern_kyushu"
	prowess=10
	1100.1.1={
		birth=yes
	}
	1170.1.1={
		death=yes
	}
}
10060250 = {
	name=character_name_10060250 # Tadasuke
	dynasty=10000604 # Hongo
	father=10060251
	martial=5
	diplomacy=4
	intrigue=7
	stewardship=6
	learning=7
	trait="education_intrigue_2"
	trait="diligent"
	religion="shinto"
	culture="southern_kyushu"
	prowess=11
	1487.1.1={
		birth=yes
	}
	1559.12.14={
		death=yes
	}
}
10060251 = {
	name=character_name_10060251 # Kazuhisa
	dynasty=10000604 # Hongo
	father=10060253
	martial=6
	diplomacy=5
	intrigue=6
	stewardship=6
	learning=4
	trait="education_diplomacy_2"
	religion="shinto"
	culture="southern_kyushu"
	prowess=10
	1468.1.1={
		birth=yes
	}
	1521.1.1={
		death=yes
	}
}
10060252 = {
	name=character_name_10060252 # Tokihisa
	dynasty=10000604 # Hongo
	father=10060020
	martial=8
	diplomacy=7
	intrigue=6
	stewardship=6
	learning=6
	trait="education_intrigue_2"
	religion="shinto"
	culture="southern_kyushu"
	prowess=13
	1530.1.1={
		birth=yes
	}
	1546.1.1={
		trait="child_of_adoption"
	}
	1596.3.1={
		death=yes
	}
}
10060253 = {
	name=character_name_10060253 # Yoshihisa
	dynasty=10000604 # Hongo
	father=10060254
	religion="shinto"
	culture="southern_kyushu"
	prowess=9
	1440.1.1={
		birth=yes
	}
	1500.1.1={
		death=yes
	}
}
10060254 = {
	name=character_name_10060254 # Toshihisa
	dynasty=10000604 # Hongo
	father=10060255
	religion="shinto"
	culture="southern_kyushu"
	prowess=11
	1410.1.1={
		birth=yes
	}
	1480.1.1={
		death=yes
	}
}
10060255 = {
	name=character_name_10060255 # Mochihisa
	dynasty=10000604 # Hongo
	father=10060256
	religion="shinto"
	culture="southern_kyushu"
	prowess=11
	1390.1.1={
		birth=yes
	}
	1450.1.1={
		death=yes
	}
}
10060256 = {
	name=character_name_10060256 # Tomohisa
	dynasty=10000604 # Hongo
	father=10060257
	religion="shinto"
	culture="southern_kyushu"
	prowess=12
	1350.1.1={
		birth=yes
	}
	1410.1.1={
		death=yes
	}
}
10060257 = {
	name=character_name_10060257 # Yoshihisa
	dynasty=10000604 # Hongo
	father=10060258
	religion="shinto"
	culture="southern_kyushu"
	prowess=11
	1310.1.1={
		birth=yes
	}
	1370.1.1={
		death=yes
	}
}
10060258 = {
	name=character_name_10060258 # Suketada
	dynasty=10000604 # Hongo
	father=10060032 # Shimazu Tadamune
	religion="shinto"
	culture="southern_kyushu"
	prowess=10
	1290.1.1={
		birth=yes
	}
	1360.1.1={
		death=yes
	}
}
10060259 = {
	name=character_name_10060259 # Sukehisa
	dynasty=10000604 # Hongo
	father=10060252
	religion="shinto"
	culture="southern_kyushu"
	prowess=11
	1554.1.1={
		birth=yes
	}
	1579.1.1={
		death=yes
	}
}
10060260 = {
	name=character_name_10060260 # Tadatora
	dynasty=10000604 # Hongo
	father=10060252
	religion="shinto"
	culture="southern_kyushu"
	prowess=11
	1556.1.1={
		birth=yes
	}
	1595.1.24={
		death=yes
	}
}
10060261 = {
	name=character_name_10060261 # Mitsuhisa
	dynasty=10000604 # Hongo
	father=10060252
	religion="shinto"
	culture="southern_kyushu"
	prowess=11
	1573.1.1={
		birth=yes
	}
	1592.1.1={
		add_spouse=10060057
	}
	1620.5.11={
		death=yes
	}
}
10060262 = {
	name=character_name_10060262 # Ikegami #Shimazu Mochihisa's wife
	dynasty=10000604 # Hongo
	female=yes
	father=10060252
	religion="shinto"
	culture="southern_kyushu"
	prowess=11
	1550.1.1={
		birth=yes
	}
	1620.1.24={
		death=yes
	}
}
10060263 = {
	name=character_name_10060263 # Yuiko #Hishishima Yoshitomo's wife
	dynasty=10000604 # Hongo
	female=yes
	father=10060252
	religion="shinto"
	culture="southern_kyushu"
	prowess=11
	1570.1.1={
		birth=yes
	}
	1620.1.24={
		death=yes
	}
}
10060264 = {
	name=character_name_10060264 # Sakurako #Ito Sukemitsu's wife
	dynasty=10000604 # Hongo
	female=yes
	father=10060250
	religion="shinto"
	culture="southern_kyushu"
	prowess=10
	1510.1.1={
		birth=yes
	}
	1540.1.1={
		death=yes
	}
}
10060265 = {
	name=character_name_10060265 # Tadako #Shimazu Tadatomo's wife
	dynasty=10000604 # Hongo
	female=yes
	father=10060253
	religion="shinto"
	culture="southern_kyushu"
	prowess=12
	1467.1.1={
		birth=yes
	}
	1530.1.1={
		death=yes
	}
}
10060500 = {
	name=character_name_10060500 # Sukeyoshi
	dynasty=10000610 # Ito
	father=10060501
	martial=5
	diplomacy=5
	intrigue=7
	stewardship=5
	learning=4
	trait="education_diplomacy_1"
	trait="weak"
	religion="shinto"
	culture="southern_kyushu"
	prowess=11
	1517.1.1={
		birth=yes
	}
	1536.6.26={
		death=yes
	}
}
10060501 = {
	name=character_name_10060501 # Tadasuke
	dynasty=10000610 # Ito
	father=10060506 # Ito Sukekuni
	martial=6
	diplomacy=6
	intrigue=5
	stewardship=6
	learning=5
	trait="education_diplomacy_2"
	religion="shinto"
	culture="southern_kyushu"
	prowess=11
	1468.1.1={
		birth=yes
	}
	1484.1.1={
		give_nickname="nick_rokuro"
	}
	1488.1.1={
		give_nickname="nick_yamato_no_kami"
	}
	1523.12.24={
		death=yes
	}
}
10060502 = {
	name=character_name_10060502 # Sukemitsu
	dynasty=10000610 # Ito
	father=10060501
	martial=6
	diplomacy=6
	intrigue=7
	stewardship=6
	learning=5
	trait="education_diplomacy_1"
	trait="weak"
	religion="shinto"
	culture="southern_kyushu"
	prowess=10
	1510.1.1={
		birth=yes
	}
	1526.1.1={
		give_nickname="nick_rokuro"
	}
	1528.1.1={
		add_spouse=10060264
	}
	1530.1.1={
		give_nickname="nick_yamato_no_kami"
	}
	1533.9.16={
		death=yes
	}
}
10060503 = {
	name=character_name_10060503 # Yoshisuke
	dynasty=10000610 # Ito
	father=10060501
	martial=8
	diplomacy=6
	intrigue=5
	stewardship=6
	learning=6
	trait="education_martial_3"
	trait="arrogant"
	trait="zealous"
	religion="shinto"
	culture="southern_kyushu"
	prowess=13
	1512.1.1={
		birth=yes
	}
	1537.1.1={
		trait="jushii_ge"
	}
	1546.1.1={
		remove_trait="jushii_ge"
		trait="jusanmi"
	}
	1585.8.29={
		death=yes
	}
}
10060504 = {
	name=character_name_10060504 # Yoshimasu
	dynasty=10000610 # Ito
	father=10060503
	religion="shinto"
	culture="southern_kyushu"
	prowess=12
	1546.1.1={
		birth=yes
	}
	1562.1.1={
		trait="jushii_ge"
		add_spouse=10058109
		give_nickname="nick_rokuro"
	}
	1566.1.1={
		give_nickname="nick_sakyo_dayu"
	}
	1569.8.23={
		death=yes
	}
}
10060505 = {
	name=character_name_10060505 # Suketaka
	dynasty=10000610 # Ito
	father=10060503
	religion="shinto"
	culture="southern_kyushu"
	prowess=10
	1559.2.22={
		birth=yes
	}
	1582.1.1={
		add_spouse=10060516
	}
	1600.11.16={
		death=yes
	}
}
10060506 = {
	name=character_name_10060506 # Sukekuni
	dynasty=10000610 # Ito
	father=10060507
	religion="shinto"
	culture="southern_kyushu"
	prowess=11
	1450.1.1={
		birth=yes
	}
	1475.1.1={
		give_nickname="nick_yamato_no_kami"
	}
	1485.8.1={
		death=yes
	}
}
10060507 = {
	name=character_name_10060507 # Suketaka
	dynasty=10000610 # Ito
	father=10060508
	religion="shinto"
	culture="southern_kyushu"
	prowess=10
	1409.1.1={
		birth=yes
	}
	1439.1.1={
		give_nickname="nick_yamato_no_kami"
	}
	1485.6.10={
		death=yes
	}
}
10060508 = {
	name=character_name_10060508 # Sukeharu
	dynasty=10000610 # Ito
	father=10060509
	religion="shinto"
	culture="southern_kyushu"
	prowess=9
	1385.1.1={
		birth=yes
	}
	1444.6.26={
		death=yes
	}
}
10060509 = {
	name=character_name_10060509 # Sukeyasu
	dynasty=10000610 # Ito
	father=10060534
	religion="shinto"
	culture="southern_kyushu"
	prowess=10
	1350.1.1={
		birth=yes
	}
	1434.4.14={
		death=yes
	}
}
10060510 = {
	name=character_name_10060510 # Takaki #Kimotsuki Yoshikane, Sugita Munemori's wife
	dynasty=10000610 # Ito
	father=10060503
	female=yes
	religion="shinto"
	culture="southern_kyushu"
	prowess=11
	1535.1.1={
		birth=yes
	}
	1600.1.1={
		death=yes
	}
}
10060511 = {
	name=character_name_10060511 # Asou #Kitahara Kanemori, Masekita Uzaemonsuke's wife
	dynasty=10000610 # Ito
	father=10060503
	female=yes
	religion="shinto"
	culture="southern_kyushu"
	prowess=9
	1540.1.1={
		birth=yes
	}
	1600.1.1={
		death=yes
	}
}
10060512 = {
	name=character_name_10060512 # Machiue #Ito Sukeharu's wife
	dynasty=10000610 # Ito
	father=10060503
	female=yes
	religion="shinto"
	culture="southern_kyushu"
	prowess=10
	1548.1.1={
		birth=yes
	}
	1600.1.1={
		death=yes
	}
}
10060513 = {
	name=character_name_10060513 # Yoshimi #Ito Sukenobu's wife
	dynasty=10000610 # Ito
	father=10060503
	female=yes
	religion="shinto"
	culture="southern_kyushu"
	prowess=10
	1555.1.1={
		birth=yes
	}
	1600.1.1={
		death=yes
	}
}
10060514 = {
	name=character_name_10060514 # Yoshitaka
	dynasty=10000610 # Ito
	father=10060504
	mother=10058109
	religion="shinto"
	culture="southern_kyushu"
	prowess=9
	1567.10.16={
		birth=yes
	}
	1578.1.1={
		give_nickname="nick_catholic_bartholomew"
	}
	1587.1.1={
		give_nickname="nick_sakyo_no_suke"
	}
	1593.8.17={
		death=yes
	}
}
10060515 = {
	name=character_name_10060515 # Sukekatsu
	dynasty=10000610 # Ito
	father=10060504
	mother=10058109
	religion="shinto"
	culture="southern_kyushu"
	prowess=11
	1570.1.1={
		birth=yes
	}
	1580.1.1={
		give_nickname="nick_catholic_geronimo"
	}
	1593.7.12={
		death=yes
	}
}
10060516 = {
	name=character_name_10060516 # Atora #Ito Suketaka's wife
	dynasty=10000610 # Ito
	female=yes
	father=10060504
	mother=10058109
	religion="shinto"
	culture="southern_kyushu"
	prowess=10
	1566.1.1={
		birth=yes
	}
	1630.1.1={
		death=yes
	}
}
10060517 = {
	name=character_name_10060517 # Ocho #Fukunaga Genbee's wife
	dynasty=10000610 # Ito
	female=yes
	father=10060501
	trait="education_diplomacy_1"
	religion="shinto"
	culture="southern_kyushu"
	prowess=11
	1510.1.1={
		birth=yes
	}
	1580.1.1={
		death=yes
	}
}
10060518 = {
	name=character_name_10060518 # Gyokuren #Shimazu Tadaharu's wife
	dynasty=10000610 # Ito
	female=yes
	father=10060501
	trait="education_diplomacy_1"
	religion="shinto"
	culture="southern_kyushu"
	prowess=9
	1490.1.1={
		birth=yes
	}
	1560.1.1={
		death=yes
	}
}
10060519 = {
	name=character_name_10060519 # Sukemune
	dynasty=10000610 # Ito
	father=10060506 # Ito Sukekuni
	trait="education_diplomacy_2"
	religion="shinto"
	culture="southern_kyushu"
	prowess=9
	1470.1.1={
		birth=yes
	}
	1520.1.1={
		death=yes
	}
}
10060520 = {
	name=character_name_10060520 # Suketake
	dynasty=10000610 # Ito
	father=10060506 # Ito Sukekuni
	trait="education_diplomacy_2"
	religion="shinto"
	culture="southern_kyushu"
	prowess=12
	1475.1.1={
		birth=yes
	}
	1500.1.1={
		give_nickname="nick_musashi_no_kami"
	}
	1533.1.1={
		death=yes
	}
}
10060521 = {
	name=character_name_10060521 # Sukemasu
	dynasty=10000610 # Ito
	father=10060519 # Ito Sukekuni
	trait="education_diplomacy_2"
	religion="shinto"
	culture="southern_kyushu"
	prowess=12
	1500.1.1={
		birth=yes
	}
	1578.1.1={
		death=yes
	}
}
10060522 = {
	name=character_name_10060522 # Sukemune
	dynasty=10000610 # Ito
	father=10060521 # Ito Sukekuni
	trait="education_diplomacy_2"
	religion="shinto"
	culture="southern_kyushu"
	prowess=10
	1530.1.1={
		birth=yes
	}
	1572.1.1={
		death=yes
	}
}
10060523 = {
	name=character_name_10060523 # Sukenobu
	dynasty=10000610 # Ito
	father=10060522 # Ito Sukekuni
	trait="education_diplomacy_2"
	religion="shinto"
	culture="southern_kyushu"
	prowess=10
	1550.1.1={
		birth=yes
	}
	1571.1.1={
		add_spouse=10060513
	}
	1572.6.14={
		death=yes
	}
}
10060524 = {
	name=character_name_10060524 # Sukeyasu
	dynasty=10000610 # Ito
	father=10060520 # Ito Sukekuni
	trait="education_diplomacy_2"
	religion="shinto"
	culture="southern_kyushu"
	prowess=9
	1515.1.1={
		birth=yes
	}
	1572.6.14={
		death=yes
	}
}
10060525 = {
	name=character_name_10060525 # Sukeaki
	dynasty=10000610 # Ito
	father=10060520 # Ito Sukekuni
	trait="education_diplomacy_2"
	religion="shinto"
	culture="southern_kyushu"
	prowess=11
	1520.1.1={
		birth=yes
	}
	1572.6.14={
		death=yes
	}
}
10060526 = {
	name=character_name_10060526 # Suketsugu
	dynasty=10000610 # Ito
	father=10060524 # Ito Sukekuni
	trait="education_diplomacy_2"
	religion="shinto"
	culture="southern_kyushu"
	prowess=12
	1550.1.1={
		birth=yes
	}
	1572.6.14={
		death=yes
	}
}
10060527 = {
	name=character_name_10060527 # Aki #Sagara Nagatsune's wife
	dynasty=10000610 # Ito
	female=yes
	father=10060506 # Ito Sukekuni
	trait="education_diplomacy_2"
	religion="shinto"
	culture="southern_kyushu"
	prowess=11
	1469.1.1={
		birth=yes
	}
	1550.1.1={
		death=yes
	}
}
10060528 = {
	name=character_name_10060528 # Nao #Sagara Nagamasa's wife
	dynasty=10000610 # Ito
	female=yes
	father=10060501
	trait="education_diplomacy_1"
	religion="shinto"
	culture="southern_kyushu"
	prowess=10
	1504.1.1={
		birth=yes
	}
	1580.1.1={
		death=yes
	}
}
10060529 = {
	name=character_name_10060529 # Sukemine
	dynasty=10000610 # Ito
	father=10060507
	religion="shinto"
	culture="southern_kyushu"
	prowess=11
	1465.1.1={
		birth=yes
	}
	1530.1.1={
		death=yes
	}
}
10060530 = {
	name=character_name_10060530 # Kyodo #Shimazu Tatsuhisa's wife
	dynasty=10000610 # Ito
	female=yes
	father=10060507
	religion="shinto"
	culture="southern_kyushu"
	prowess=11
	1440.1.1={
		birth=yes
	}
	1530.1.1={
		death=yes
	}
}
10060531 = {
	name=character_name_10060531 # Sukeyoshi
	dynasty=10000610 # Ito
	father=10060529
	religion="shinto"
	culture="southern_kyushu"
	prowess=10
	1505.1.1={
		birth=yes
	}
	1550.1.1={
		death=yes
	}
}
10060532 = {
	name=character_name_10060532 # Sukeharu
	dynasty=10000610 # Ito
	father=10060531
	religion="shinto"
	culture="southern_kyushu"
	prowess=10
	1540.1.1={
		birth=yes
	}
	1565.1.1={
		add_spouse=10060512
	}
	1577.1.1={
		death=yes
	}
}
10060533 = {
	name=character_name_10060533 # Sukemasu #Ito Mansho
	dynasty=10000610 # Ito
	father=10060532
	mother=10060512
	religion="shinto"
	culture="southern_kyushu"
	prowess=12
	1569.1.1={
		birth=yes
	}
	1577.1.1={
		give_nickname="nick_catholic_mancio"
		trait="zealous"
	}
	1612.11.13={
		death=yes
	}
}
10060534 = {
	name=character_name_10060534 # Sukeshige
	dynasty=10000610 # Ito
	father=10060535
	religion="shinto"
	culture="southern_kyushu"
	prowess=10
	1320.1.1={
		birth=yes
	}
	1390.1.1={
		death=yes
	}
}
10060535 = {
	name=character_name_10060535 # Sukemochi
	dynasty=10000610 # Ito
	father=10060536
	religion="shinto"
	culture="southern_kyushu"
	prowess=11
	1290.1.1={
		birth=yes
	}
	1350.1.1={
		death=yes
	}
}
10060536 = {
	name=character_name_10060536 # Sadasuke
	dynasty=10000610 # Ito
	father=10060537
	religion="shinto"
	culture="southern_kyushu"
	prowess=11
	1260.1.1={
		birth=yes
	}
	1320.1.1={
		death=yes
	}
}
10060537 = {
	name=character_name_10060537 # Sukemune
	dynasty=10000610 # Ito
	father=10060538
	religion="shinto"
	culture="southern_kyushu"
	prowess=10
	1240.1.1={
		birth=yes
	}
	1300.1.1={
		death=yes
	}
}
10060538 = {
	name=character_name_10060538 # Sukemitsu
	dynasty=10000610 # Ito
	father=10130080 #Ito Suketoki
	religion="shinto"
	culture="southern_kyushu"
	prowess=10
	1215.1.1={
		birth=yes
	}
	1290.1.1={
		death=yes
	}
}
10060750 = {
	name=character_name_10060750 # Chikasuke
	dynasty=10000615 # Tsuchimochi
	father=10060751
	martial=7
	diplomacy=4
	intrigue=5
	stewardship=6
	learning=7
	trait="education_martial_2"
	religion="shinto"
	culture="southern_kyushu"
	prowess=11
	1497.1.1={
		birth=yes
	}
	1513.1.1={
		give_nickname="nick_Magotaro"
	}
	1517.1.1={
		give_nickname="nick_hyuga_no_kami"
	}
	1554.1.1={
		death=yes
	}
}
10060751 = {
	name=character_name_10060751 # Chikahide
	dynasty=10000615 # Tsuchimochi
	father=10060753
	martial=7
	diplomacy=5
	intrigue=5
	stewardship=6
	learning=7
	trait="education_diplomacy_1"
	religion="shinto"
	culture="southern_kyushu"
	prowess=10
	1469.1.1={
		birth=yes
	}
	1485.1.1={
		give_nickname="nick_Shintaro"
	}
	1499.1.1={
		give_nickname="nick_owari_no_kami"
	}
	1531.1.1={
		death=yes
	}
}
10060752 = {
	name=character_name_10060752 # Chikashige
	dynasty=10000615 # Tsuchimochi
	father=10060750
	martial=7
	diplomacy=8
	intrigue=5
	stewardship=6
	learning=7
	trait="education_martial_2"
	religion="shinto"
	culture="southern_kyushu"
	prowess=14
	1523.1.1={
		birth=yes
	}
	1539.1.1={
		give_nickname="nick_Shintaro"
	}
	1543.1.1={
		give_nickname="nick_uma_no_kami"
	}
	1560.1.1={
		add_spouse=10064207
	}
	1578.4.10={
		death=yes
	}
}
10060753 = {
	name=character_name_10060753 # Tsunetsuna
	dynasty=10000615 # Tsuchimochi
	father=10060754
	religion="shinto"
	culture="southern_kyushu"
	prowess=10
	1440.1.1={
		birth=yes
	}
	1500.1.1={
		death=yes
	}
}
10060754 = {
	name=character_name_10060754 # Kaneshige
	dynasty=10000615 # Tsuchimochi
	father=10060755
	religion="shinto"
	culture="southern_kyushu"
	prowess=10
	1410.1.1={
		birth=yes
	}
	1470.1.1={
		death=yes
	}
}
10060755 = {
	name=character_name_10060755 # Nobutsuna
	dynasty=10000615 # Tsuchimochi
	father=10060756
	religion="shinto"
	culture="southern_kyushu"
	prowess=11
	1380.1.1={
		birth=yes
	}
	1440.1.1={
		death=yes
	}
}
10060756 = {
	name=character_name_10060756 # Kanenobu
	dynasty=10000615 # Tsuchimochi
	father=10060764
	religion="shinto"
	culture="southern_kyushu"
	prowess=10
	1350.1.1={
		birth=yes
	}
	1410.1.1={
		death=yes
	}
}
10060757 = {
	name=character_name_10060757 # Hidetaka
	dynasty=10000615 # Tsuchimochi
	father=10060753
	trait="education_diplomacy_1"
	religion="shinto"
	culture="southern_kyushu"
	prowess=10
	1475.1.1={
		birth=yes
	}
	1550.1.1={
		death=yes
	}
}
10060758 = {
	name=character_name_10060758 # Hidetsugu
	dynasty=10000615 # Tsuchimochi
	father=10060757
	trait="education_diplomacy_1"
	religion="shinto"
	culture="southern_kyushu"
	prowess=12
	1505.1.1={
		birth=yes
	}
	1570.1.1={
		death=yes
	}
}
10060759 = {
	name=character_name_10060759 # Mototsuna
	dynasty=10000615 # Tsuchimochi
	father=10060750
	trait="education_diplomacy_1"
	religion="shinto"
	culture="southern_kyushu"
	prowess=11
	1525.1.1={
		birth=yes
	}
	1570.1.1={
		death=yes
	}
}
10060760 = {
	name=character_name_10060760 # Takanobu #a.k.a Hisatsuna
	dynasty=10000615 # Tsuchimochi
	father=10060759
	trait="education_diplomacy_1"
	religion="shinto"
	culture="southern_kyushu"
	prowess=11
	1558.1.1={
		birth=yes
	}
	1599.6.13={
		death=yes
	}
}
10060761 = {
	name=character_name_10060761 # Chikanobu
	dynasty=10000615 # Tsuchimochi
	father=10060752
	mother=10064207
	trait="education_diplomacy_1"
	religion="shinto"
	culture="southern_kyushu"
	prowess=11
	1565.1.1={
		birth=yes
	}
	1586.1.1={
		death=yes
	}
}
10060762 = {
	name=character_name_10060762 # Nobumura
	dynasty=10000615 # Tsuchimochi
	father=10060760
	trait="education_diplomacy_1"
	religion="shinto"
	culture="southern_kyushu"
	prowess=10
	1577.1.1={
		birth=yes
	}
	1597.1.1={
		death=yes
	}
}
10060763 = {
	name=character_name_10060763 # Hisasuke
	dynasty=10000615 # Tsuchimochi
	father=10060760
	trait="education_diplomacy_1"
	religion="shinto"
	culture="southern_kyushu"
	prowess=10
	1581.1.1={
		birth=yes
	}
	1659.1.1={
		death=yes
	}
}
10060764 = {
	name=character_name_10060764 # Akitsuna
	dynasty=10000615 # Tsuchimochi
	father=10060765
	religion="shinto"
	culture="southern_kyushu"
	prowess=11
	1320.1.1={
		birth=yes
	}
	1390.1.1={
		death=yes
	}
}
10060765 = {
	name=character_name_10060765 # Nobuhiro
	dynasty=10000615 # Tsuchimochi
	father=10060766
	religion="shinto"
	culture="southern_kyushu"
	prowess=10
	1300.1.1={
		birth=yes
	}
	1360.1.1={
		death=yes
	}
}
10060766 = {
	name=character_name_10060766 # Yorinobu
	dynasty=10000615 # Tsuchimochi
	father=12810745
	religion="shinto"
	culture="southern_kyushu"
	prowess=12
	1285.1.1={
		birth=yes
	}
	1360.1.1={
		death=yes
	}
}
10060800 = {
	name=character_name_10060800 # Tadaaki
	dynasty=10000606 # Ijuin
	father=10060813
	martial=7
	diplomacy=6
	intrigue=5
	stewardship=6
	learning=5
	trait="education_martial_2"
	trait="intellect_good_2"
	religion="shinto"
	culture="southern_kyushu"
	prowess=13
	1500.1.1={
		birth=yes
	}
	1570.1.1={
		death=yes
	}
}
10060801 = {
	name=character_name_10060801 # Tadaao
	dynasty=10000606 # Ijuin
	father=10060800
	religion="shinto"
	culture="southern_kyushu"
	prowess=9
	1520.1.1={
		birth=yes
	}
	1590.1.1={
		death=yes
	}
}
10060802 = {
	name=character_name_10060802 # Tadatsune
	dynasty=10000600 # Shimazu
	father=10060034
	religion="shinto"
	culture="southern_kyushu"
	prowess=10
	1235.1.1={
		birth=yes
	}
	1295.1.1={
		death=yes
	}
}
10060803 = {
	name=character_name_10060803 # Toshitada
	dynasty=10000606 # Ijuin
	father=10060802
	religion="shinto"
	culture="southern_kyushu"
	prowess=11
	1251.1.1={
		birth=yes
	}
	1305.1.1={
		death=yes
	}
}
10060804 = {
	name=character_name_10060804 # Hisakane
	dynasty=10000606 # Ijuin
	father=10060803
	religion="shinto"
	culture="southern_kyushu"
	prowess=10
	1267.1.1={
		birth=yes
	}
	1310.1.1={
		death=yes
	}
}
10060805 = {
	name=character_name_10060805 # Hisachika
	dynasty=10000606 # Ijuin
	father=10060804
	religion="shinto"
	culture="southern_kyushu"
	prowess=11
	1283.1.1={
		birth=yes
	}
	1315.1.1={
		death=yes
	}
}
10060806 = {
	name=character_name_10060806 # Tadachika
	dynasty=10000606 # Ijuin
	father=10060805
	religion="shinto"
	culture="southern_kyushu"
	prowess=12
	1299.1.1={
		birth=yes
	}
	1330.1.1={
		death=yes
	}
}
10060807 = {
	name=character_name_10060807 # Tadakuni
	dynasty=10000606 # Ijuin
	father=10060806
	religion="shinto"
	culture="southern_kyushu"
	prowess=11
	1315.1.1={
		birth=yes
	}
	1370.1.1={
		death=yes
	}
}
10060808 = {
	name=character_name_10060808 # Hisauji
	dynasty=10000606 # Ijuin
	father=10060807
	religion="shinto"
	culture="southern_kyushu"
	prowess=10
	1340.1.1={
		birth=yes
	}
	1400.1.1={
		death=yes
	}
}
10060809 = {
	name=character_name_10060809 # Yorihisa
	dynasty=10000606 # Ijuin
	father=10060808
	religion="shinto"
	culture="southern_kyushu"
	prowess=10
	1370.1.1={
		birth=yes
	}
	1420.1.1={
		death=yes
	}
}
10060810 = {
	name=character_name_10060810 # Hirohisa
	dynasty=10000606 # Ijuin
	father=10060809
	religion="shinto"
	culture="southern_kyushu"
	prowess=12
	1410.1.1={
		birth=yes
	}
	1470.1.1={
		death=yes
	}
}
10060811 = {
	name=character_name_10060811 # Tsuguhisa
	dynasty=10000606 # Ijuin
	father=10060810
	religion="shinto"
	culture="southern_kyushu"
	prowess=10
	1430.1.1={
		birth=yes
	}
	1455.1.1={
		give_nickname="nick_suo_no_kami"
	}
	1490.1.1={
		death=yes
	}
}
10060812 = {
	name=character_name_10060812 # Masuhisa
	dynasty=10000606 # Ijuin
	father=10060809
	religion="shinto"
	culture="southern_kyushu"
	prowess=11
	1415.1.1={
		birth=yes
	}
	1475.1.1={
		death=yes
	}
}
10060813 = {
	name=character_name_10060813 # Tadakimi
	dynasty=10000606 # Ijuin
	father=10060812
	religion="shinto"
	culture="southern_kyushu"
	prowess=11
	1455.1.1={
		birth=yes
	}
	1520.1.1={
		death=yes
	}
}
10060814 = {
	name=character_name_10060814 # Tadamune
	dynasty=10000606 # Ijuin
	father=10060801
	religion="shinto"
	culture="southern_kyushu"
	prowess=10
	1541.1.1={
		birth=yes
	}
	1568.1.1={
		add_spouse=10060159
	}
	1599.4.4={
		death=yes
	}
}
10060815 = {
	name=character_name_10060815 # Harunari
	dynasty=10000606 # Ijuin
	father=10060801
	religion="shinto"
	culture="southern_kyushu"
	prowess=10
	1545.1.1={
		birth=yes
	}
	1600.1.1={
		death=yes
	}
}
10060816 = {
	name=character_name_10060816 # Tadasane
	dynasty=10000606 # Ijuin
	father=10060814
	mother=10060159
	religion="shinto"
	culture="southern_kyushu"
	prowess=10
	1576.1.1={
		birth=yes
	}
	1602.10.2={
		death=yes
	}
}
10060817 = {
	name=character_name_10060817 # Tadatane
	dynasty=10000606 # Ijuin
	father=10060812
	religion="shinto"
	culture="southern_kyushu"
	prowess=12
	1460.1.1={
		birth=yes
	}
	1530.1.1={
		death=yes
	}
}
10060818 = {
	name=character_name_10060818 # Hisanobu
	dynasty=10000606 # Ijuin
	father=10060817
	religion="shinto"
	culture="southern_kyushu"
	prowess=11
	1490.1.1={
		birth=yes
	}
	1550.1.1={
		death=yes
	}
}
