﻿object={
	name="lakes"
	clamp_to_water_level=yes
	render_under_water=no
	generated_content=no
	layer="lake_layer"
	pdxmesh="lake_mesh"
	count=1
	transform="4768.653809 0.000000 1996.460449 0.000000 0.000000 0.000000 1.000000 1.000000 1.000000 1.000000
"}
